(module 4ucon-20153_reversible (layer F.Cu) (tedit 5B018811)
  (fp_text reference J2 (at 6.985 0 90) (layer F.SilkS)
    (effects (font (size 1 1) (thickness 0.15)))
  )
  (fp_text value Audio-Jack-4 (at -1.27 3.81) (layer F.Fab)
    (effects (font (size 1 1) (thickness 0.15)))
  )
  (fp_line (start -6.05 -2.8) (end -8.05 -2.8) (layer F.Fab) (width 0.1))
  (fp_line (start -6.05 2.8) (end -8.05 2.8) (layer F.Fab) (width 0.1))
  (fp_line (start -8.05 -2.8) (end -8.05 2.8) (layer F.Fab) (width 0.1))
  (fp_line (start -6.05 3.05) (end -6.05 -3.05) (layer F.SilkS) (width 0.1))
  (fp_line (start 6.05 3.05) (end -6.05 3.05) (layer F.SilkS) (width 0.1))
  (fp_line (start 6.05 -3.05) (end 6.05 3.05) (layer F.SilkS) (width 0.1))
  (fp_line (start -6.05 -3.05) (end 6.05 -3.05) (layer F.SilkS) (width 0.1))
  (pad 1 smd rect (at 5.25 -3.25) (size 1.2 2.5) (layers B.Cu B.Paste B.Mask))
  (pad 4 smd rect (at -2.85 3.25) (size 1.2 2.5) (layers B.Cu B.Paste B.Mask))
  (pad 3 smd rect (at 0.15 3.25) (size 1.2 2.5) (layers B.Cu B.Paste B.Mask))
  (pad 2 smd rect (at 4.15 3.25) (size 1.2 2.5) (layers B.Cu B.Paste B.Mask))
  (pad 1 smd rect (at 5.25 3.25) (size 1.2 2.5) (layers F.Cu F.Paste F.Mask))
  (pad 2 smd rect (at 4.15 -3.25) (size 1.2 2.5) (layers F.Cu F.Paste F.Mask))
  (pad 3 smd rect (at 0.15 -3.25) (size 1.2 2.5) (layers F.Cu F.Paste F.Mask))
  (pad 4 smd rect (at -2.85 -3.25) (size 1.2 2.5) (layers F.Cu F.Paste F.Mask))
  (pad "" np_thru_hole circle (at -3.5 0) (size 1.2 1.2) (drill 1.2) (layers *.Cu *.Mask F.SilkS))
  (pad "" np_thru_hole circle (at 3.5 0) (size 1.2 1.2) (drill 1.2) (layers *.Cu *.Mask F.SilkS))
)
