(module Crystal_SMD_SeikoEpson_FA238-4pin_3.2x2.5mm_HandSoldering (layer F.Cu) (tedit 5B056AED)
  (descr "crystal Epson Toyocom FA-238 series http://www.mouser.com/ds/2/137/1721499-465440.pdf, hand-soldering, 3.2x2.5mm^2 package")
  (tags "SMD SMT crystal hand-soldering")
  (attr smd)
  (fp_text reference Y1 (at 0 -3) (layer F.SilkS)
    (effects (font (size 1 1) (thickness 0.15)))
  )
  (fp_text value "16 MHz" (at 0 3) (layer F.Fab)
    (effects (font (size 1 1) (thickness 0.15)))
  )
  (fp_text user %R (at 0 0) (layer F.Fab)
    (effects (font (size 0.7 0.7) (thickness 0.105)))
  )
  (fp_line (start -1.5 -1.25) (end 1.5 -1.25) (layer F.Fab) (width 0.1))
  (fp_line (start 1.5 -1.25) (end 1.6 -1.15) (layer F.Fab) (width 0.1))
  (fp_line (start 1.6 -1.15) (end 1.6 1.15) (layer F.Fab) (width 0.1))
  (fp_line (start 1.6 1.15) (end 1.5 1.25) (layer F.Fab) (width 0.1))
  (fp_line (start 1.5 1.25) (end -1.5 1.25) (layer F.Fab) (width 0.1))
  (fp_line (start -1.5 1.25) (end -1.6 1.15) (layer F.Fab) (width 0.1))
  (fp_line (start -1.6 1.15) (end -1.6 -1.15) (layer F.Fab) (width 0.1))
  (fp_line (start -1.6 -1.15) (end -1.5 -1.25) (layer F.Fab) (width 0.1))
  (fp_line (start -1.6 0.25) (end -0.6 1.25) (layer F.Fab) (width 0.1))
  (fp_line (start -2.7 -2.2) (end -2.7 2.2) (layer F.SilkS) (width 0.12))
  (fp_line (start -2.7 2.2) (end 2.7 2.2) (layer F.SilkS) (width 0.12))
  (fp_line (start -2.8 -2.3) (end -2.8 2.3) (layer F.CrtYd) (width 0.05))
  (fp_line (start -2.8 2.3) (end 2.8 2.3) (layer F.CrtYd) (width 0.05))
  (fp_line (start 2.8 2.3) (end 2.8 -2.3) (layer F.CrtYd) (width 0.05))
  (fp_line (start 2.8 -2.3) (end -2.8 -2.3) (layer F.CrtYd) (width 0.05))
  (pad 1 smd rect (at -1.45 1.1) (size 2.1 1.8) (layers F.Cu F.Paste F.Mask))
  (pad 3 smd rect (at 1.45 1.1) (size 2.1 1.8) (layers F.Cu F.Paste F.Mask))
  (pad 2 smd rect (at 1.45 -1.1) (size 2.1 1.8) (layers F.Cu F.Paste F.Mask))
  (pad 4 smd rect (at -1.45 -1.1) (size 2.1 1.8) (layers F.Cu F.Paste F.Mask))
  (model ${KISYS3DMOD}/Crystals.3dshapes/Crystal_SMD_SeikoEpson_FA238-4pin_3.2x2.5mm_HandSoldering.wrl
    (at (xyz 0 0 0))
    (scale (xyz 0.24 0.24 0.24))
    (rotate (xyz 0 0 0))
  )
)
