(module MX1A-X1DN (layer F.Cu) (tedit 5962199E)
  (fp_text reference REF** (at 0 6.858) (layer F.SilkS)
    (effects (font (size 1 1) (thickness 0.15)))
  )
  (fp_text value MX1A-X1DN (at 0 -6.858) (layer F.Fab)
    (effects (font (size 1 1) (thickness 0.15)))
  )
  (fp_line (start -7.8 7.8) (end -7.8 -7.8) (layer B.CrtYd) (width 0.15))
  (fp_line (start 7.8 7.8) (end -7.8 7.8) (layer B.CrtYd) (width 0.15))
  (fp_line (start 7.8 -7.8) (end 7.8 7.8) (layer B.CrtYd) (width 0.15))
  (fp_line (start -7.8 -7.8) (end 7.8 -7.8) (layer B.CrtYd) (width 0.15))
  (fp_line (start -7.8 7.8) (end 7.8 7.8) (layer F.CrtYd) (width 0.15))
  (fp_line (start 7.8 -7.8) (end 7.8 7.8) (layer F.CrtYd) (width 0.15))
  (fp_line (start -7.8 -7.8) (end 7.8 -7.8) (layer F.CrtYd) (width 0.15))
  (fp_line (start -7.8 -7.8) (end -7.8 7.8) (layer F.CrtYd) (width 0.15))
  (pad 1 thru_hole circle (at -3.81 -2.54) (size 2.5024 2.5024) (drill 1.4986) (layers *.Cu *.Mask))
  (pad 2 thru_hole circle (at 2.54 -5.08) (size 2.5024 2.5024) (drill 1.4986) (layers *.Cu *.Mask))
  (pad 3 thru_hole circle (at -3.81 5.08) (size 1.54 1.54) (drill 1) (layers *.Cu *.Mask))
  (pad 4 thru_hole circle (at 3.81 5.08) (size 1.54 1.54) (drill 1) (layers *.Cu *.Mask))
  (pad "" np_thru_hole circle (at 0 0) (size 3.9878 3.9878) (drill 3.9878) (layers *.Cu *.Mask))
)
