(module ANTENNA (layer F.Cu) (tedit 5AB7BE5C)
  (fp_text reference A1 (at 13.208 6.096) (layer F.SilkS)
    (effects (font (size 1 1) (thickness 0.15)))
  )
  (fp_text value BLE_ANTENNA (at 6.604 5.842) (layer F.Fab)
    (effects (font (size 0.75 0.75) (thickness 0.075)))
  )
  (fp_text user FEED (at 3.75 5.46) (layer F.SilkS)
    (effects (font (size 0.25 0.25) (thickness 0.0625)))
  )
  (fp_text user GND (at 1.77 5.46) (layer F.SilkS)
    (effects (font (size 0.25 0.25) (thickness 0.0625)))
  )
  (fp_line (start 0 0) (end 0 5.2) (layer F.CrtYd) (width 0.15))
  (fp_line (start 0 0) (end 15.2 0) (layer F.CrtYd) (width 0.15))
  (fp_line (start 15.2 0) (end 15.2 5.2) (layer F.CrtYd) (width 0.15))
  (fp_line (start 0 5.2) (end 15.2 5.2) (layer F.CrtYd) (width 0.15))
  (fp_line (start 0 5.2) (end 15.2 5.2) (layer B.CrtYd) (width 0.15))
  (fp_line (start 15.2 0) (end 15.2 5.2) (layer B.CrtYd) (width 0.15))
  (fp_line (start 0 0) (end 15.2 0) (layer B.CrtYd) (width 0.15))
  (fp_line (start 0 0) (end 0 5.2) (layer B.CrtYd) (width 0.15))
  (pad "" connect rect (at 0.5 0.8) (size 0.9 4.9) (drill (offset 0.45 2.45)) (layers F.Cu F.Mask))
  (pad "" connect rect (at 2.8 0.8) (size 0.5 4.9) (drill (offset 0.25 2.45)) (layers F.Cu F.Mask))
  (pad "" connect rect (at 0.5 0.3) (size 5 0.5) (drill (offset 2.5 0.25)) (layers F.Cu F.Mask))
  (pad "" connect rect (at 5 0.8) (size 0.5 2.64) (drill (offset 0.25 1.32)) (layers F.Cu F.Mask))
  (pad "" connect rect (at 5.5 2.94) (size 2 0.5) (drill (offset 1 0.25)) (layers F.Cu F.Mask))
  (pad "" connect rect (at 7.5 0.8) (size 0.5 2.64) (drill (offset 0.25 1.32)) (layers F.Cu F.Mask))
  (pad "" connect rect (at 7.5 0.3) (size 2.7 0.5) (drill (offset 1.35 0.25)) (layers F.Cu F.Mask))
  (pad "" connect rect (at 9.7 0.8) (size 0.5 2.64) (drill (offset 0.25 1.32)) (layers F.Cu F.Mask))
  (pad "" connect rect (at 10.2 2.94) (size 2 0.5) (drill (offset 1 0.25)) (layers F.Cu F.Mask))
  (pad "" connect rect (at 12.2 0.8) (size 0.5 2.64) (drill (offset 0.25 1.32)) (layers F.Cu F.Mask))
  (pad "" connect rect (at 12.2 0.3) (size 2.7 0.5) (drill (offset 1.35 0.25)) (layers F.Cu F.Mask))
  (pad "" connect rect (at 14.4 0.8) (size 0.5 3.94) (drill (offset 0.25 1.97)) (layers F.Cu F.Mask))
  (pad 1 thru_hole circle (at 0.95 5.461) (size 0.5 0.5) (drill 0.3) (layers *.Cu *.Mask))
)
