(module MSP430G2744IRHA40R (layer F.Cu) (tedit 5AB7B8B3)
  (fp_text reference REF** (at 0 -4.064) (layer F.SilkS)
    (effects (font (size 1 1) (thickness 0.15)))
  )
  (fp_text value RHA40_4P15X4P15 (at 0.254 4.318) (layer F.SilkS)
    (effects (font (size 1 1) (thickness 0.15)))
  )
  (fp_line (start -3.075 -1.805) (end -1.805 -3.075) (layer Dwgs.User) (width 0.1524))
  (fp_line (start -3.456 3.456) (end -2.718561 3.456) (layer F.SilkS) (width 0.1524))
  (fp_line (start 3.456 3.456) (end 3.456 2.717994) (layer F.SilkS) (width 0.1524))
  (fp_line (start 3.456 -3.456) (end 2.718561 -3.456) (layer F.SilkS) (width 0.1524))
  (fp_line (start -3.456 -3.456) (end -3.456 -2.717994) (layer F.SilkS) (width 0.1524))
  (fp_line (start -3.075 3.075) (end 3.075 3.075) (layer Dwgs.User) (width 0.1524))
  (fp_line (start 3.075 3.075) (end 3.075 -3.075) (layer Dwgs.User) (width 0.1524))
  (fp_line (start 3.075 -3.075) (end -3.075 -3.075) (layer Dwgs.User) (width 0.1524))
  (fp_line (start -3.075 -3.075) (end -3.075 3.075) (layer Dwgs.User) (width 0.1524))
  (fp_line (start -3.456 2.717994) (end -3.456 3.456) (layer F.SilkS) (width 0.1524))
  (fp_line (start 2.718561 3.456) (end 3.456 3.456) (layer F.SilkS) (width 0.1524))
  (fp_line (start 3.456 -2.717994) (end 3.456 -3.456) (layer F.SilkS) (width 0.1524))
  (fp_line (start -2.718561 -3.456) (end -3.456 -3.456) (layer F.SilkS) (width 0.1524))
  (fp_circle (center -1.5748 -1.5748) (end -1.3843 -1.5748) (layer Eco1.User) (width 0.1524))
  (fp_circle (center -1.5748 -0.7874) (end -1.3843 -0.7874) (layer Eco1.User) (width 0.1524))
  (fp_circle (center -1.5748 0) (end -1.3843 0) (layer Eco1.User) (width 0.1524))
  (fp_circle (center -1.5748 0.7874) (end -1.3843 0.7874) (layer Eco1.User) (width 0.1524))
  (fp_circle (center -1.5748 1.5748) (end -1.3843 1.5748) (layer Eco1.User) (width 0.1524))
  (fp_circle (center -0.7874 -1.5748) (end -0.5969 -1.5748) (layer Eco1.User) (width 0.1524))
  (fp_circle (center -0.7874 -0.7874) (end -0.5969 -0.7874) (layer Eco1.User) (width 0.1524))
  (fp_circle (center -0.7874 0) (end -0.5969 0) (layer Eco1.User) (width 0.1524))
  (fp_circle (center -0.7874 0.7874) (end -0.5969 0.7874) (layer Eco1.User) (width 0.1524))
  (fp_circle (center -0.7874 1.5748) (end -0.5969 1.5748) (layer Eco1.User) (width 0.1524))
  (fp_circle (center 0 -1.5748) (end 0.1905 -1.5748) (layer Eco1.User) (width 0.1524))
  (fp_circle (center 0 -0.7874) (end 0.1905 -0.7874) (layer Eco1.User) (width 0.1524))
  (fp_circle (center 0 0) (end 0.1905 0) (layer Eco1.User) (width 0.1524))
  (fp_circle (center 0 0.7874) (end 0.1905 0.7874) (layer Eco1.User) (width 0.1524))
  (fp_circle (center 0 1.5748) (end 0.1905 1.5748) (layer Eco1.User) (width 0.1524))
  (fp_circle (center 0.7874 -1.5748) (end 0.9779 -1.5748) (layer Eco1.User) (width 0.1524))
  (fp_circle (center 0.7874 -0.7874) (end 0.9779 -0.7874) (layer Eco1.User) (width 0.1524))
  (fp_circle (center 0.7874 0) (end 0.9779 0) (layer Eco1.User) (width 0.1524))
  (fp_circle (center 0.7874 0.7874) (end 0.9779 0.7874) (layer Eco1.User) (width 0.1524))
  (fp_circle (center 0.7874 1.5748) (end 0.9779 1.5748) (layer Eco1.User) (width 0.1524))
  (fp_circle (center 1.5748 -1.5748) (end 1.7653 -1.5748) (layer Eco1.User) (width 0.1524))
  (fp_circle (center 1.5748 -0.7874) (end 1.7653 -0.7874) (layer Eco1.User) (width 0.1524))
  (fp_circle (center 1.5748 0) (end 1.7653 0) (layer Eco1.User) (width 0.1524))
  (fp_circle (center 1.5748 0.7874) (end 1.7653 0.7874) (layer Eco1.User) (width 0.1524))
  (fp_circle (center 1.5748 1.5748) (end 1.7653 1.5748) (layer Eco1.User) (width 0.1524))
  (pad 1 smd rect (at -2.975 -2.250001 90) (size 0.28 0.85) (layers F.Cu F.Paste F.Mask))
  (pad 2 smd rect (at -2.975 -1.749999 90) (size 0.28 0.85) (layers F.Cu F.Paste F.Mask))
  (pad 3 smd rect (at -2.975 -1.25 90) (size 0.28 0.85) (layers F.Cu F.Paste F.Mask))
  (pad 4 smd rect (at -2.975 -0.750001 90) (size 0.28 0.85) (layers F.Cu F.Paste F.Mask))
  (pad 5 smd rect (at -2.975 -0.25 90) (size 0.28 0.85) (layers F.Cu F.Paste F.Mask))
  (pad 6 smd rect (at -2.975 0.25 90) (size 0.28 0.85) (layers F.Cu F.Paste F.Mask))
  (pad 7 smd rect (at -2.975 0.750001 90) (size 0.28 0.85) (layers F.Cu F.Paste F.Mask))
  (pad 8 smd rect (at -2.975 1.25 90) (size 0.28 0.85) (layers F.Cu F.Paste F.Mask))
  (pad 9 smd rect (at -2.975 1.749999 90) (size 0.28 0.85) (layers F.Cu F.Paste F.Mask))
  (pad 10 smd rect (at -2.975 2.250001 90) (size 0.28 0.85) (layers F.Cu F.Paste F.Mask))
  (pad 11 smd rect (at -2.250567 2.975) (size 0.28 0.85) (layers F.Cu F.Paste F.Mask))
  (pad 12 smd rect (at -1.750441 2.975) (size 0.28 0.85) (layers F.Cu F.Paste F.Mask))
  (pad 13 smd rect (at -1.250315 2.975) (size 0.28 0.85) (layers F.Cu F.Paste F.Mask))
  (pad 14 smd rect (at -0.750189 2.975) (size 0.28 0.85) (layers F.Cu F.Paste F.Mask))
  (pad 15 smd rect (at -0.250063 2.975) (size 0.28 0.85) (layers F.Cu F.Paste F.Mask))
  (pad 16 smd rect (at 0.250063 2.975) (size 0.28 0.85) (layers F.Cu F.Paste F.Mask))
  (pad 17 smd rect (at 0.750189 2.975) (size 0.28 0.85) (layers F.Cu F.Paste F.Mask))
  (pad 18 smd rect (at 1.250315 2.975) (size 0.28 0.85) (layers F.Cu F.Paste F.Mask))
  (pad 19 smd rect (at 1.750441 2.975) (size 0.28 0.85) (layers F.Cu F.Paste F.Mask))
  (pad 20 smd rect (at 2.250567 2.975) (size 0.28 0.85) (layers F.Cu F.Paste F.Mask))
  (pad 21 smd rect (at 2.975 2.250001 90) (size 0.28 0.85) (layers F.Cu F.Paste F.Mask))
  (pad 22 smd rect (at 2.975 1.749999 90) (size 0.28 0.85) (layers F.Cu F.Paste F.Mask))
  (pad 23 smd rect (at 2.975 1.25 90) (size 0.28 0.85) (layers F.Cu F.Paste F.Mask))
  (pad 24 smd rect (at 2.975 0.750001 90) (size 0.28 0.85) (layers F.Cu F.Paste F.Mask))
  (pad 25 smd rect (at 2.975 0.25 90) (size 0.28 0.85) (layers F.Cu F.Paste F.Mask))
  (pad 26 smd rect (at 2.975 -0.25 90) (size 0.28 0.85) (layers F.Cu F.Paste F.Mask))
  (pad 27 smd rect (at 2.975 -0.750001 90) (size 0.28 0.85) (layers F.Cu F.Paste F.Mask))
  (pad 28 smd rect (at 2.975 -1.25 90) (size 0.28 0.85) (layers F.Cu F.Paste F.Mask))
  (pad 29 smd rect (at 2.975 -1.749999 90) (size 0.28 0.85) (layers F.Cu F.Paste F.Mask))
  (pad 30 smd rect (at 2.975 -2.250001 90) (size 0.28 0.85) (layers F.Cu F.Paste F.Mask))
  (pad 31 smd rect (at 2.250567 -2.975) (size 0.28 0.85) (layers F.Cu F.Paste F.Mask))
  (pad 32 smd rect (at 1.750441 -2.975) (size 0.28 0.85) (layers F.Cu F.Paste F.Mask))
  (pad 33 smd rect (at 1.250315 -2.975) (size 0.28 0.85) (layers F.Cu F.Paste F.Mask))
  (pad 34 smd rect (at 0.750189 -2.975) (size 0.28 0.85) (layers F.Cu F.Paste F.Mask))
  (pad 35 smd rect (at 0.250063 -2.975) (size 0.28 0.85) (layers F.Cu F.Paste F.Mask))
  (pad 36 smd rect (at -0.250063 -2.975) (size 0.28 0.85) (layers F.Cu F.Paste F.Mask))
  (pad 37 smd rect (at -0.750189 -2.975) (size 0.28 0.85) (layers F.Cu F.Paste F.Mask))
  (pad 38 smd rect (at -1.250315 -2.975) (size 0.28 0.85) (layers F.Cu F.Paste F.Mask))
  (pad 39 smd rect (at -1.750441 -2.975) (size 0.28 0.85) (layers F.Cu F.Paste F.Mask))
  (pad 40 smd rect (at -2.250567 -2.975) (size 0.28 0.85) (layers F.Cu F.Paste F.Mask))
  (pad 41 smd rect (at 0 0) (size 4.149999 4.149999) (layers F.Cu F.Paste F.Mask))
)
