G04 #@! TF.FileFunction,Copper,L2,Bot,Signal*
%FSLAX46Y46*%
G04 Gerber Fmt 4.6, Leading zero omitted, Abs format (unit mm)*
G04 Created by KiCad (PCBNEW 4.0.7-e2-6376~58~ubuntu17.04.1) date Tue May  8 21:11:36 2018*
%MOMM*%
%LPD*%
G01*
G04 APERTURE LIST*
%ADD10C,0.100000*%
%ADD11R,2.500000X2.550000*%
%ADD12C,1.200000*%
%ADD13R,2.550000X2.500000*%
%ADD14R,1.800000X1.800000*%
%ADD15C,1.800000*%
%ADD16C,0.635000*%
%ADD17C,0.254000*%
G04 APERTURE END LIST*
D10*
D11*
X84709000Y-142754000D03*
X87249000Y-156204000D03*
D12*
X85979000Y-156718000D03*
X85979000Y-143510000D03*
D11*
X84709000Y-123704000D03*
X87249000Y-137154000D03*
D12*
X85979000Y-137668000D03*
X85979000Y-124460000D03*
D13*
X131959000Y-99949000D03*
X145409000Y-97409000D03*
D12*
X145923000Y-98679000D03*
X132715000Y-98679000D03*
D13*
X131959000Y-138049000D03*
X145409000Y-135509000D03*
D12*
X145923000Y-136779000D03*
X132715000Y-136779000D03*
D11*
X94234000Y-142754000D03*
X96774000Y-156204000D03*
D12*
X95504000Y-156718000D03*
X95504000Y-143510000D03*
D11*
X103759000Y-123704000D03*
X106299000Y-137154000D03*
D12*
X105029000Y-137668000D03*
X105029000Y-124460000D03*
D11*
X122809000Y-66554000D03*
X125349000Y-80004000D03*
D12*
X124079000Y-80518000D03*
X124079000Y-67310000D03*
D11*
X84709000Y-85604000D03*
X87249000Y-99054000D03*
D12*
X85979000Y-99568000D03*
X85979000Y-86360000D03*
D13*
X131959000Y-147574000D03*
X145409000Y-145034000D03*
D12*
X145923000Y-146304000D03*
X132715000Y-146304000D03*
D11*
X84455000Y-47504000D03*
X86995000Y-60954000D03*
D12*
X85725000Y-61468000D03*
X85725000Y-48260000D03*
D11*
X84455000Y-66554000D03*
X86995000Y-80004000D03*
D12*
X85725000Y-80518000D03*
X85725000Y-67310000D03*
D11*
X84709000Y-104654000D03*
X87249000Y-118104000D03*
D12*
X85979000Y-118618000D03*
X85979000Y-105410000D03*
D11*
X103759000Y-47504000D03*
X106299000Y-60954000D03*
D12*
X105029000Y-61468000D03*
X105029000Y-48260000D03*
D11*
X103759000Y-66554000D03*
X106299000Y-80004000D03*
D12*
X105029000Y-80518000D03*
X105029000Y-67310000D03*
D11*
X103759000Y-85604000D03*
X106299000Y-99054000D03*
D12*
X105029000Y-99568000D03*
X105029000Y-86360000D03*
D11*
X103759000Y-104654000D03*
X106299000Y-118104000D03*
D12*
X105029000Y-118618000D03*
X105029000Y-105410000D03*
D11*
X103759000Y-142754000D03*
X106299000Y-156204000D03*
D12*
X105029000Y-156718000D03*
X105029000Y-143510000D03*
D13*
X127629000Y-57404000D03*
X114179000Y-59944000D03*
D12*
X113665000Y-58674000D03*
X126873000Y-58674000D03*
D11*
X122809000Y-85604000D03*
X125349000Y-99054000D03*
D12*
X124079000Y-99568000D03*
X124079000Y-86360000D03*
D11*
X122809000Y-104654000D03*
X125349000Y-118104000D03*
D12*
X124079000Y-118618000D03*
X124079000Y-105410000D03*
D11*
X122809000Y-123704000D03*
X125349000Y-137154000D03*
D12*
X124079000Y-137668000D03*
X124079000Y-124460000D03*
D11*
X122809000Y-142754000D03*
X125349000Y-156204000D03*
D12*
X124079000Y-156718000D03*
X124079000Y-143510000D03*
D13*
X146679000Y-57404000D03*
X133229000Y-59944000D03*
D12*
X132715000Y-58674000D03*
X145923000Y-58674000D03*
D11*
X141859000Y-66554000D03*
X144399000Y-80004000D03*
D12*
X143129000Y-80518000D03*
X143129000Y-67310000D03*
D13*
X131959000Y-90424000D03*
X145409000Y-87884000D03*
D12*
X145923000Y-89154000D03*
X132715000Y-89154000D03*
D13*
X131959000Y-109474000D03*
X145409000Y-106934000D03*
D12*
X145923000Y-108204000D03*
X132715000Y-108204000D03*
D13*
X131959000Y-128524000D03*
X145409000Y-125984000D03*
D12*
X145923000Y-127254000D03*
X132715000Y-127254000D03*
D14*
X98171000Y-37465000D03*
D15*
X95631000Y-37465000D03*
D16*
X130429000Y-53467000D03*
X130429000Y-47879000D03*
X147828000Y-53213000D03*
X148717000Y-54737000D03*
X146431000Y-54229000D03*
X141605000Y-46355000D03*
X143637000Y-37973000D03*
X136779000Y-39751000D03*
X133223000Y-41529000D03*
X119507000Y-41529000D03*
X112903000Y-41529000D03*
X128905000Y-47879000D03*
X129413000Y-53467000D03*
X145161000Y-40640000D03*
X144399000Y-48133000D03*
X145034000Y-52832000D03*
X140970000Y-57785000D03*
X128524000Y-55499000D03*
X135636000Y-40005000D03*
X118999000Y-37719000D03*
X118999000Y-40259000D03*
X145669000Y-52197000D03*
X148717000Y-56261000D03*
X149479000Y-97917000D03*
X145161000Y-120777000D03*
X131445000Y-36957000D03*
X141859000Y-36195000D03*
X105537000Y-42037000D03*
X103505000Y-42037000D03*
X93345000Y-43053000D03*
X130429000Y-37465000D03*
X116205000Y-46609000D03*
X137541000Y-44577000D03*
X139573000Y-41275000D03*
X117729000Y-45847000D03*
X144399000Y-52197000D03*
X137033000Y-52197000D03*
X101473000Y-157861000D03*
X133477000Y-51181000D03*
X135763000Y-51181000D03*
X148463000Y-51435000D03*
X148971000Y-152019000D03*
X115189000Y-158115000D03*
X149987000Y-153797000D03*
X135763000Y-50165000D03*
X147955000Y-50673000D03*
X149987000Y-152019000D03*
X148717000Y-49911000D03*
X136525000Y-49911000D03*
X108331000Y-36957000D03*
X132715000Y-43815000D03*
X137033000Y-81153000D03*
X137033000Y-79629000D03*
X135763000Y-79629000D03*
X135763000Y-81407000D03*
X144145000Y-44831000D03*
X144145000Y-43815000D03*
X144399000Y-43053000D03*
X144145000Y-42291000D03*
X145669000Y-41529000D03*
D17*
X130429000Y-47879000D02*
X130429000Y-53467000D01*
X147828000Y-53213000D02*
X148717000Y-54102000D01*
X148717000Y-54102000D02*
X148717000Y-54737000D01*
X148463000Y-54483000D02*
X148717000Y-54737000D01*
X146685000Y-54483000D02*
X148463000Y-54483000D01*
X146431000Y-54229000D02*
X146685000Y-54483000D01*
X141605000Y-39751000D02*
X141605000Y-46355000D01*
X141859000Y-39751000D02*
X141605000Y-39751000D01*
X141605000Y-39751000D02*
X136779000Y-39751000D01*
X143637000Y-37973000D02*
X141859000Y-39751000D01*
X131699000Y-41529000D02*
X133223000Y-41529000D01*
X131699000Y-37719000D02*
X131699000Y-41529000D01*
X132715000Y-36703000D02*
X131699000Y-37719000D01*
X136271000Y-36703000D02*
X132715000Y-36703000D01*
X136525000Y-36957000D02*
X136271000Y-36703000D01*
X136525000Y-39497000D02*
X136525000Y-36957000D01*
X136779000Y-39751000D02*
X136525000Y-39497000D01*
X112903000Y-41529000D02*
X119507000Y-41529000D01*
X128905000Y-52959000D02*
X128905000Y-47879000D01*
X129413000Y-53467000D02*
X128905000Y-52959000D01*
X143764000Y-40640000D02*
X145161000Y-40640000D01*
X143002000Y-41402000D02*
X143764000Y-40640000D01*
X143002000Y-47625000D02*
X143002000Y-41402000D01*
X143510000Y-48133000D02*
X143002000Y-47625000D01*
X144399000Y-48133000D02*
X143510000Y-48133000D01*
X144907000Y-52832000D02*
X145034000Y-52832000D01*
X144526000Y-53213000D02*
X144907000Y-52832000D01*
X144018000Y-53213000D02*
X144526000Y-53213000D01*
X142367000Y-54864000D02*
X144018000Y-53213000D01*
X142367000Y-55499000D02*
X142367000Y-54864000D01*
X140970000Y-56896000D02*
X142367000Y-55499000D01*
X140970000Y-57785000D02*
X140970000Y-56896000D01*
X128524000Y-55499000D02*
X132334000Y-55499000D01*
X132334000Y-55499000D02*
X132969000Y-54864000D01*
X132969000Y-54864000D02*
X132969000Y-54229000D01*
X132969000Y-54229000D02*
X134620000Y-52578000D01*
X134620000Y-52578000D02*
X134620000Y-48387000D01*
X134620000Y-48387000D02*
X140462000Y-42545000D01*
X140462000Y-42545000D02*
X140462000Y-41021000D01*
X140462000Y-41021000D02*
X140081000Y-40640000D01*
X140081000Y-40640000D02*
X136271000Y-40640000D01*
X136271000Y-40640000D02*
X135636000Y-40005000D01*
X118999000Y-40259000D02*
X118999000Y-37719000D01*
X145669000Y-54991000D02*
X145669000Y-52197000D01*
X146177000Y-55499000D02*
X145669000Y-54991000D01*
X147955000Y-55499000D02*
X146177000Y-55499000D01*
X148717000Y-56261000D02*
X147955000Y-55499000D01*
X149987000Y-98425000D02*
X149479000Y-97917000D01*
X149987000Y-120269000D02*
X149987000Y-98425000D01*
X149479000Y-120777000D02*
X149987000Y-120269000D01*
X145161000Y-120777000D02*
X149479000Y-120777000D01*
X132207000Y-36195000D02*
X131445000Y-36957000D01*
X141859000Y-36195000D02*
X132207000Y-36195000D01*
X103505000Y-42037000D02*
X105537000Y-42037000D01*
X86995000Y-80004000D02*
X86239000Y-80004000D01*
X86239000Y-80004000D02*
X85725000Y-80518000D01*
X86995000Y-60954000D02*
X86239000Y-60954000D01*
X86239000Y-60954000D02*
X85725000Y-61468000D01*
X87249000Y-99054000D02*
X86493000Y-99054000D01*
X86493000Y-99054000D02*
X85979000Y-99568000D01*
X87249000Y-118104000D02*
X86493000Y-118104000D01*
X86493000Y-118104000D02*
X85979000Y-118618000D01*
X87249000Y-137154000D02*
X86493000Y-137154000D01*
X86493000Y-137154000D02*
X85979000Y-137668000D01*
X96774000Y-156204000D02*
X96018000Y-156204000D01*
X96018000Y-156204000D02*
X95504000Y-156718000D01*
X87249000Y-156204000D02*
X86493000Y-156204000D01*
X86493000Y-156204000D02*
X85979000Y-156718000D01*
X106299000Y-80004000D02*
X105543000Y-80004000D01*
X105543000Y-80004000D02*
X105029000Y-80518000D01*
X106299000Y-60954000D02*
X105543000Y-60954000D01*
X105543000Y-60954000D02*
X105029000Y-61468000D01*
X106299000Y-99054000D02*
X105543000Y-99054000D01*
X105543000Y-99054000D02*
X105029000Y-99568000D01*
X106299000Y-118104000D02*
X105543000Y-118104000D01*
X105543000Y-118104000D02*
X105029000Y-118618000D01*
X106299000Y-137154000D02*
X105543000Y-137154000D01*
X105543000Y-137154000D02*
X105029000Y-137668000D01*
X106299000Y-156204000D02*
X105543000Y-156204000D01*
X105543000Y-156204000D02*
X105029000Y-156718000D01*
X125349000Y-80004000D02*
X124593000Y-80004000D01*
X124593000Y-80004000D02*
X124079000Y-80518000D01*
X114179000Y-59944000D02*
X114179000Y-59188000D01*
X114179000Y-59188000D02*
X113665000Y-58674000D01*
X125349000Y-99054000D02*
X124593000Y-99054000D01*
X124593000Y-99054000D02*
X124079000Y-99568000D01*
X125349000Y-118104000D02*
X124593000Y-118104000D01*
X124593000Y-118104000D02*
X124079000Y-118618000D01*
X125349000Y-137154000D02*
X124593000Y-137154000D01*
X124593000Y-137154000D02*
X124079000Y-137668000D01*
X125349000Y-156204000D02*
X124593000Y-156204000D01*
X124593000Y-156204000D02*
X124079000Y-156718000D01*
X144399000Y-80004000D02*
X143643000Y-80004000D01*
X143643000Y-80004000D02*
X143129000Y-80518000D01*
X133229000Y-59944000D02*
X133229000Y-59188000D01*
X133229000Y-59188000D02*
X132715000Y-58674000D01*
X145409000Y-87884000D02*
X145409000Y-88640000D01*
X145409000Y-88640000D02*
X145923000Y-89154000D01*
X145409000Y-106934000D02*
X145409000Y-107690000D01*
X145409000Y-107690000D02*
X145923000Y-108204000D01*
X145409000Y-97409000D02*
X145409000Y-98165000D01*
X145409000Y-98165000D02*
X145923000Y-98679000D01*
X145409000Y-125984000D02*
X145409000Y-126740000D01*
X145409000Y-126740000D02*
X145923000Y-127254000D01*
X145409000Y-135509000D02*
X145409000Y-136265000D01*
X145409000Y-136265000D02*
X145923000Y-136779000D01*
X93345000Y-36703000D02*
X93345000Y-43053000D01*
X93853000Y-36195000D02*
X93345000Y-36703000D01*
X129159000Y-36195000D02*
X93853000Y-36195000D01*
X130429000Y-37465000D02*
X129159000Y-36195000D01*
X135509000Y-46609000D02*
X116205000Y-46609000D01*
X137541000Y-44577000D02*
X135509000Y-46609000D01*
X139573000Y-41529000D02*
X139573000Y-41275000D01*
X135255000Y-45847000D02*
X139573000Y-41529000D01*
X117729000Y-45847000D02*
X135255000Y-45847000D01*
X137033000Y-52197000D02*
X144399000Y-52197000D01*
X79883000Y-157861000D02*
X79629000Y-157861000D01*
X79629000Y-157861000D02*
X73533000Y-151765000D01*
X79883000Y-157861000D02*
X101473000Y-157861000D01*
X73533000Y-46863000D02*
X73533000Y-151765000D01*
X74549000Y-45847000D02*
X73533000Y-46863000D01*
X105791000Y-45847000D02*
X74549000Y-45847000D01*
X111379000Y-51435000D02*
X105791000Y-45847000D01*
X125095000Y-51435000D02*
X111379000Y-51435000D01*
X128397000Y-54737000D02*
X125095000Y-51435000D01*
X131445000Y-54737000D02*
X128397000Y-54737000D01*
X131445000Y-53213000D02*
X131445000Y-54737000D01*
X133477000Y-51181000D02*
X131445000Y-53213000D01*
X148971000Y-154051000D02*
X147193000Y-154051000D01*
X145415000Y-157353000D02*
X144653000Y-158115000D01*
X145415000Y-155829000D02*
X145415000Y-157353000D01*
X147193000Y-154051000D02*
X145415000Y-155829000D01*
X148971000Y-152019000D02*
X148971000Y-154051000D01*
X135763000Y-51181000D02*
X136017000Y-51435000D01*
X136017000Y-51435000D02*
X148463000Y-51435000D01*
X144653000Y-158115000D02*
X115189000Y-158115000D01*
X135763000Y-50165000D02*
X136271000Y-50673000D01*
X136271000Y-50673000D02*
X147955000Y-50673000D01*
X149987000Y-152019000D02*
X149987000Y-153797000D01*
X136525000Y-49911000D02*
X148717000Y-49911000D01*
X108331000Y-36957000D02*
X108585000Y-36703000D01*
X108585000Y-36703000D02*
X128651000Y-36703000D01*
X128651000Y-36703000D02*
X131191000Y-39243000D01*
X131191000Y-39243000D02*
X131191000Y-42291000D01*
X131191000Y-42291000D02*
X132715000Y-43815000D01*
X137033000Y-79629000D02*
X137033000Y-81153000D01*
X135763000Y-79883000D02*
X135763000Y-79629000D01*
X135763000Y-81407000D02*
X135763000Y-79883000D01*
X146679000Y-57404000D02*
X146679000Y-57918000D01*
X146679000Y-57918000D02*
X145923000Y-58674000D01*
X84455000Y-47504000D02*
X84969000Y-47504000D01*
X84969000Y-47504000D02*
X85725000Y-48260000D01*
X127629000Y-57404000D02*
X127629000Y-57918000D01*
X127629000Y-57918000D02*
X126873000Y-58674000D01*
X105029000Y-48260000D02*
X107442000Y-48260000D01*
X126873000Y-54229000D02*
X126873000Y-58674000D01*
X124587000Y-51943000D02*
X126873000Y-54229000D01*
X111125000Y-51943000D02*
X124587000Y-51943000D01*
X107442000Y-48260000D02*
X111125000Y-51943000D01*
X103759000Y-47504000D02*
X104273000Y-47504000D01*
X104273000Y-47504000D02*
X105029000Y-48260000D01*
X126873000Y-58674000D02*
X126873000Y-59055000D01*
X126873000Y-59055000D02*
X129667000Y-61849000D01*
X142748000Y-61849000D02*
X145923000Y-58674000D01*
X129667000Y-61849000D02*
X142748000Y-61849000D01*
X85725000Y-48260000D02*
X105029000Y-48260000D01*
X84455000Y-66554000D02*
X84969000Y-66554000D01*
X84969000Y-66554000D02*
X85725000Y-67310000D01*
X103759000Y-66554000D02*
X104273000Y-66554000D01*
X104273000Y-66554000D02*
X105029000Y-67310000D01*
X122809000Y-66554000D02*
X123323000Y-66554000D01*
X123323000Y-66554000D02*
X124079000Y-67310000D01*
X141859000Y-66554000D02*
X142373000Y-66554000D01*
X142373000Y-66554000D02*
X143129000Y-67310000D01*
X146812000Y-67310000D02*
X143129000Y-67310000D01*
X149479000Y-64643000D02*
X146812000Y-67310000D01*
X149479000Y-46863000D02*
X149479000Y-64643000D01*
X147955000Y-45339000D02*
X149479000Y-46863000D01*
X144653000Y-45339000D02*
X147955000Y-45339000D01*
X144145000Y-44831000D02*
X144653000Y-45339000D01*
X124079000Y-67310000D02*
X143129000Y-67310000D01*
X105029000Y-67310000D02*
X124079000Y-67310000D01*
X85725000Y-67310000D02*
X105029000Y-67310000D01*
X131959000Y-90424000D02*
X131959000Y-89910000D01*
X131959000Y-89910000D02*
X132715000Y-89154000D01*
X122809000Y-85604000D02*
X123323000Y-85604000D01*
X123323000Y-85604000D02*
X124079000Y-86360000D01*
X103759000Y-85604000D02*
X104273000Y-85604000D01*
X104273000Y-85604000D02*
X105029000Y-86360000D01*
X84709000Y-85604000D02*
X85223000Y-85604000D01*
X85223000Y-85604000D02*
X85979000Y-86360000D01*
X132715000Y-89154000D02*
X132715000Y-88773000D01*
X132715000Y-88773000D02*
X136525000Y-85471000D01*
X145161000Y-44831000D02*
X144145000Y-43815000D01*
X148209000Y-44831000D02*
X145161000Y-44831000D01*
X149987000Y-46609000D02*
X148209000Y-44831000D01*
X149987000Y-84963000D02*
X149987000Y-46609000D01*
X149479000Y-85471000D02*
X149987000Y-84963000D01*
X136525000Y-85471000D02*
X149479000Y-85471000D01*
X124079000Y-86360000D02*
X129921000Y-86360000D01*
X129921000Y-86360000D02*
X132715000Y-89154000D01*
X105029000Y-86360000D02*
X124079000Y-86360000D01*
X85979000Y-86360000D02*
X105029000Y-86360000D01*
X103759000Y-104654000D02*
X104273000Y-104654000D01*
X104273000Y-104654000D02*
X105029000Y-105410000D01*
X122809000Y-104654000D02*
X123323000Y-104654000D01*
X123323000Y-104654000D02*
X124079000Y-105410000D01*
X84709000Y-104654000D02*
X85223000Y-104654000D01*
X85223000Y-104654000D02*
X85979000Y-105410000D01*
X131959000Y-99949000D02*
X131959000Y-99435000D01*
X131959000Y-99435000D02*
X132715000Y-98679000D01*
X132715000Y-108204000D02*
X132715000Y-98679000D01*
X124079000Y-105410000D02*
X129921000Y-105410000D01*
X129921000Y-105410000D02*
X132715000Y-108204000D01*
X144399000Y-43053000D02*
X145669000Y-44323000D01*
X145669000Y-44323000D02*
X148463000Y-44323000D01*
X148463000Y-44323000D02*
X150495000Y-46355000D01*
X150495000Y-46355000D02*
X150495000Y-93599000D01*
X150495000Y-93599000D02*
X148717000Y-95377000D01*
X148717000Y-95377000D02*
X133985000Y-95377000D01*
X133985000Y-95377000D02*
X132715000Y-96647000D01*
X132715000Y-96647000D02*
X132715000Y-98679000D01*
X105029000Y-105410000D02*
X122053000Y-105410000D01*
X122053000Y-105410000D02*
X122809000Y-104654000D01*
X85979000Y-105410000D02*
X105029000Y-105410000D01*
X122809000Y-123704000D02*
X123323000Y-123704000D01*
X123323000Y-123704000D02*
X124079000Y-124460000D01*
X131959000Y-128524000D02*
X131959000Y-128010000D01*
X131959000Y-128010000D02*
X132715000Y-127254000D01*
X84709000Y-123704000D02*
X85223000Y-123704000D01*
X85223000Y-123704000D02*
X85979000Y-124460000D01*
X132715000Y-127254000D02*
X132715000Y-126873000D01*
X132715000Y-126873000D02*
X136017000Y-123571000D01*
X144907000Y-42291000D02*
X144145000Y-42291000D01*
X145161000Y-42545000D02*
X144907000Y-42291000D01*
X145161000Y-43053000D02*
X145161000Y-42545000D01*
X145923000Y-43815000D02*
X145161000Y-43053000D01*
X148717000Y-43815000D02*
X145923000Y-43815000D01*
X151003000Y-46101000D02*
X148717000Y-43815000D01*
X151003000Y-122301000D02*
X151003000Y-46101000D01*
X149733000Y-123571000D02*
X151003000Y-122301000D01*
X136017000Y-123571000D02*
X149733000Y-123571000D01*
X124079000Y-124460000D02*
X129921000Y-124460000D01*
X129921000Y-124460000D02*
X132715000Y-127254000D01*
X105029000Y-124460000D02*
X124079000Y-124460000D01*
X85979000Y-124460000D02*
X103003000Y-124460000D01*
X103003000Y-124460000D02*
X105029000Y-124460000D01*
X131959000Y-147574000D02*
X131959000Y-147060000D01*
X131959000Y-147060000D02*
X132715000Y-146304000D01*
X131959000Y-138049000D02*
X131959000Y-137535000D01*
X131959000Y-137535000D02*
X132715000Y-136779000D01*
X103759000Y-142754000D02*
X104273000Y-142754000D01*
X104273000Y-142754000D02*
X105029000Y-143510000D01*
X94234000Y-142754000D02*
X94748000Y-142754000D01*
X94748000Y-142754000D02*
X95504000Y-143510000D01*
X132715000Y-136779000D02*
X132715000Y-136525000D01*
X132715000Y-136525000D02*
X135763000Y-133477000D01*
X145669000Y-42037000D02*
X145669000Y-41529000D01*
X145669000Y-42799000D02*
X145669000Y-42037000D01*
X146177000Y-43307000D02*
X145669000Y-42799000D01*
X148971000Y-43307000D02*
X146177000Y-43307000D01*
X151511000Y-45847000D02*
X148971000Y-43307000D01*
X151511000Y-132715000D02*
X151511000Y-45847000D01*
X150749000Y-133477000D02*
X151511000Y-132715000D01*
X135763000Y-133477000D02*
X150749000Y-133477000D01*
X84709000Y-142754000D02*
X85223000Y-142754000D01*
X85223000Y-142754000D02*
X85979000Y-143510000D01*
X95504000Y-143510000D02*
X105029000Y-143510000D01*
X105029000Y-143510000D02*
X122053000Y-143510000D01*
X122053000Y-143510000D02*
X124079000Y-143510000D01*
X124079000Y-143510000D02*
X129921000Y-143510000D01*
X129921000Y-143510000D02*
X132715000Y-146304000D01*
G36*
X92583000Y-36703000D02*
X92583000Y-42467806D01*
X92537980Y-42512747D01*
X92392665Y-42862705D01*
X92392335Y-43241633D01*
X92537039Y-43591843D01*
X92804747Y-43860020D01*
X93154705Y-44005335D01*
X93533633Y-44005665D01*
X93883843Y-43860961D01*
X94152020Y-43593253D01*
X94297335Y-43243295D01*
X94297665Y-42864367D01*
X94152961Y-42514157D01*
X94107000Y-42468115D01*
X94107000Y-42225633D01*
X102552335Y-42225633D01*
X102697039Y-42575843D01*
X102964747Y-42844020D01*
X103314705Y-42989335D01*
X103693633Y-42989665D01*
X104043843Y-42844961D01*
X104089885Y-42799000D01*
X104951806Y-42799000D01*
X104996747Y-42844020D01*
X105346705Y-42989335D01*
X105725633Y-42989665D01*
X106075843Y-42844961D01*
X106344020Y-42577253D01*
X106489335Y-42227295D01*
X106489665Y-41848367D01*
X106344961Y-41498157D01*
X106077253Y-41229980D01*
X105727295Y-41084665D01*
X105348367Y-41084335D01*
X104998157Y-41229039D01*
X104952115Y-41275000D01*
X104090194Y-41275000D01*
X104045253Y-41229980D01*
X103695295Y-41084665D01*
X103316367Y-41084335D01*
X102966157Y-41229039D01*
X102697980Y-41496747D01*
X102552665Y-41846705D01*
X102552335Y-42225633D01*
X94107000Y-42225633D01*
X94107000Y-37796254D01*
X94328932Y-38333371D01*
X94760357Y-38765551D01*
X95324330Y-38999733D01*
X95934991Y-39000265D01*
X96499371Y-38767068D01*
X96667613Y-38599120D01*
X96667838Y-38600317D01*
X96806910Y-38816441D01*
X97019110Y-38961431D01*
X97271000Y-39012440D01*
X99071000Y-39012440D01*
X99306317Y-38968162D01*
X99522441Y-38829090D01*
X99667431Y-38616890D01*
X99718440Y-38365000D01*
X99718440Y-36957000D01*
X107378499Y-36957000D01*
X107378335Y-37145633D01*
X107523039Y-37495843D01*
X107790747Y-37764020D01*
X108140705Y-37909335D01*
X108519633Y-37909665D01*
X108869843Y-37764961D01*
X109138020Y-37497253D01*
X109151413Y-37465000D01*
X118073118Y-37465000D01*
X118046665Y-37528705D01*
X118046335Y-37907633D01*
X118191039Y-38257843D01*
X118237000Y-38303885D01*
X118237000Y-39673806D01*
X118191980Y-39718747D01*
X118046665Y-40068705D01*
X118046335Y-40447633D01*
X118191039Y-40797843D01*
X118458747Y-41066020D01*
X118808705Y-41211335D01*
X119187633Y-41211665D01*
X119537843Y-41066961D01*
X119806020Y-40799253D01*
X119951335Y-40449295D01*
X119951665Y-40070367D01*
X119806961Y-39720157D01*
X119761000Y-39674115D01*
X119761000Y-38304194D01*
X119806020Y-38259253D01*
X119951335Y-37909295D01*
X119951665Y-37530367D01*
X119924656Y-37465000D01*
X128335370Y-37465000D01*
X130429000Y-39558631D01*
X130429000Y-42291000D01*
X130487004Y-42582605D01*
X130611005Y-42768185D01*
X130652185Y-42829815D01*
X131762390Y-43940021D01*
X131762335Y-44003633D01*
X131907039Y-44353843D01*
X132174747Y-44622020D01*
X132524705Y-44767335D01*
X132903633Y-44767665D01*
X133253843Y-44622961D01*
X133522020Y-44355253D01*
X133667335Y-44005295D01*
X133667665Y-43626367D01*
X133522961Y-43276157D01*
X133255253Y-43007980D01*
X132905295Y-42862665D01*
X132840239Y-42862608D01*
X131953000Y-41975370D01*
X131953000Y-39243000D01*
X131894996Y-38951395D01*
X131813274Y-38829090D01*
X131729815Y-38704184D01*
X131133362Y-38107731D01*
X131236020Y-38005253D01*
X131275841Y-37909353D01*
X131633633Y-37909665D01*
X131983843Y-37764961D01*
X132252020Y-37497253D01*
X132397335Y-37147295D01*
X132397392Y-37082239D01*
X132522631Y-36957000D01*
X141273806Y-36957000D01*
X141318747Y-37002020D01*
X141668705Y-37147335D01*
X142047633Y-37147665D01*
X142397843Y-37002961D01*
X142666020Y-36735253D01*
X142754570Y-36522000D01*
X151280000Y-36522000D01*
X151280000Y-44538369D01*
X149509815Y-42768185D01*
X149469124Y-42740996D01*
X149262605Y-42603004D01*
X148971000Y-42545000D01*
X146492631Y-42545000D01*
X146431000Y-42483370D01*
X146431000Y-42114194D01*
X146476020Y-42069253D01*
X146621335Y-41719295D01*
X146621665Y-41340367D01*
X146476961Y-40990157D01*
X146209253Y-40721980D01*
X146113464Y-40682205D01*
X146113665Y-40451367D01*
X145968961Y-40101157D01*
X145708859Y-39840599D01*
X147743699Y-39840599D01*
X148007281Y-40478515D01*
X148494918Y-40967004D01*
X149132373Y-41231699D01*
X149822599Y-41232301D01*
X150460515Y-40968719D01*
X150949004Y-40481082D01*
X151213699Y-39843627D01*
X151214301Y-39153401D01*
X150950719Y-38515485D01*
X150463082Y-38026996D01*
X149825627Y-37762301D01*
X149135401Y-37761699D01*
X148497485Y-38025281D01*
X148008996Y-38512918D01*
X147744301Y-39150373D01*
X147743699Y-39840599D01*
X145708859Y-39840599D01*
X145701253Y-39832980D01*
X145351295Y-39687665D01*
X144972367Y-39687335D01*
X144622157Y-39832039D01*
X144576115Y-39878000D01*
X143764000Y-39878000D01*
X143472395Y-39936004D01*
X143373377Y-40002166D01*
X143225185Y-40101184D01*
X142463185Y-40863185D01*
X142298004Y-41110395D01*
X142240000Y-41402000D01*
X142240000Y-47625000D01*
X142298004Y-47916605D01*
X142332610Y-47968396D01*
X142463185Y-48163815D01*
X142971184Y-48671815D01*
X143131598Y-48779000D01*
X143218395Y-48836996D01*
X143510000Y-48895000D01*
X143813806Y-48895000D01*
X143858747Y-48940020D01*
X144208705Y-49085335D01*
X144587633Y-49085665D01*
X144937843Y-48940961D01*
X145206020Y-48673253D01*
X145351335Y-48323295D01*
X145351665Y-47944367D01*
X145206961Y-47594157D01*
X144939253Y-47325980D01*
X144589295Y-47180665D01*
X144210367Y-47180335D01*
X143860157Y-47325039D01*
X143819878Y-47365248D01*
X143764000Y-47309370D01*
X143764000Y-45704148D01*
X143954705Y-45783335D01*
X144019761Y-45783392D01*
X144114184Y-45877815D01*
X144352863Y-46037295D01*
X144361395Y-46042996D01*
X144653000Y-46101000D01*
X147639370Y-46101000D01*
X148717000Y-47178631D01*
X148717000Y-48958499D01*
X148528367Y-48958335D01*
X148178157Y-49103039D01*
X148132115Y-49149000D01*
X137110194Y-49149000D01*
X137065253Y-49103980D01*
X136715295Y-48958665D01*
X136336367Y-48958335D01*
X135986157Y-49103039D01*
X135876406Y-49212598D01*
X135574367Y-49212335D01*
X135382000Y-49291820D01*
X135382000Y-48702630D01*
X141000816Y-43083815D01*
X141099834Y-42935623D01*
X141165996Y-42836605D01*
X141224000Y-42545000D01*
X141224000Y-41021000D01*
X141165996Y-40729395D01*
X141063945Y-40576665D01*
X141000815Y-40482184D01*
X140619815Y-40101185D01*
X140475864Y-40005000D01*
X140372605Y-39936004D01*
X140081000Y-39878000D01*
X136588611Y-39878000D01*
X136588665Y-39816367D01*
X136443961Y-39466157D01*
X136176253Y-39197980D01*
X135826295Y-39052665D01*
X135447367Y-39052335D01*
X135097157Y-39197039D01*
X134828980Y-39464747D01*
X134683665Y-39814705D01*
X134683335Y-40193633D01*
X134828039Y-40543843D01*
X135095747Y-40812020D01*
X135445705Y-40957335D01*
X135510761Y-40957392D01*
X135732185Y-41178816D01*
X135880377Y-41277834D01*
X135979395Y-41343996D01*
X136271000Y-41402000D01*
X138620389Y-41402000D01*
X138620387Y-41403983D01*
X134939370Y-45085000D01*
X118314194Y-45085000D01*
X118269253Y-45039980D01*
X117919295Y-44894665D01*
X117540367Y-44894335D01*
X117190157Y-45039039D01*
X116921980Y-45306747D01*
X116776665Y-45656705D01*
X116776511Y-45833293D01*
X116745253Y-45801980D01*
X116395295Y-45656665D01*
X116016367Y-45656335D01*
X115666157Y-45801039D01*
X115397980Y-46068747D01*
X115252665Y-46418705D01*
X115252335Y-46797633D01*
X115397039Y-47147843D01*
X115664747Y-47416020D01*
X116014705Y-47561335D01*
X116393633Y-47561665D01*
X116743843Y-47416961D01*
X116789885Y-47371000D01*
X128084587Y-47371000D01*
X127952665Y-47688705D01*
X127952335Y-48067633D01*
X128097039Y-48417843D01*
X128143000Y-48463885D01*
X128143000Y-52959000D01*
X128201004Y-53250605D01*
X128345595Y-53467000D01*
X128366185Y-53497815D01*
X128460390Y-53592021D01*
X128460335Y-53655633D01*
X128507563Y-53769933D01*
X125633815Y-50896185D01*
X125623653Y-50889395D01*
X125386605Y-50731004D01*
X125095000Y-50673000D01*
X111694631Y-50673000D01*
X106329815Y-45308185D01*
X106327663Y-45306747D01*
X106082605Y-45143004D01*
X105791000Y-45085000D01*
X74549000Y-45085000D01*
X74257395Y-45143004D01*
X74012337Y-45306747D01*
X74010185Y-45308185D01*
X72994185Y-46324185D01*
X72829004Y-46571395D01*
X72771000Y-46863000D01*
X72771000Y-151765000D01*
X72829004Y-152056605D01*
X72945655Y-152231185D01*
X72994185Y-152303815D01*
X79090185Y-158399815D01*
X79337395Y-158564996D01*
X79523426Y-158602000D01*
X71700000Y-158602000D01*
X71700000Y-157055599D01*
X71754699Y-157055599D01*
X72018281Y-157693515D01*
X72505918Y-158182004D01*
X73143373Y-158446699D01*
X73833599Y-158447301D01*
X74471515Y-158183719D01*
X74960004Y-157696082D01*
X75224699Y-157058627D01*
X75225301Y-156368401D01*
X74961719Y-155730485D01*
X74474082Y-155241996D01*
X73836627Y-154977301D01*
X73146401Y-154976699D01*
X72508485Y-155240281D01*
X72019996Y-155727918D01*
X71755301Y-156365373D01*
X71754699Y-157055599D01*
X71700000Y-157055599D01*
X71700000Y-39840599D01*
X74254699Y-39840599D01*
X74518281Y-40478515D01*
X75005918Y-40967004D01*
X75643373Y-41231699D01*
X76333599Y-41232301D01*
X76971515Y-40968719D01*
X77460004Y-40481082D01*
X77724699Y-39843627D01*
X77725301Y-39153401D01*
X77461719Y-38515485D01*
X76974082Y-38026996D01*
X76336627Y-37762301D01*
X75646401Y-37761699D01*
X75008485Y-38025281D01*
X74519996Y-38512918D01*
X74255301Y-39150373D01*
X74254699Y-39840599D01*
X71700000Y-39840599D01*
X71700000Y-36522000D01*
X92619003Y-36522000D01*
X92583000Y-36703000D01*
X92583000Y-36703000D01*
G37*
X92583000Y-36703000D02*
X92583000Y-42467806D01*
X92537980Y-42512747D01*
X92392665Y-42862705D01*
X92392335Y-43241633D01*
X92537039Y-43591843D01*
X92804747Y-43860020D01*
X93154705Y-44005335D01*
X93533633Y-44005665D01*
X93883843Y-43860961D01*
X94152020Y-43593253D01*
X94297335Y-43243295D01*
X94297665Y-42864367D01*
X94152961Y-42514157D01*
X94107000Y-42468115D01*
X94107000Y-42225633D01*
X102552335Y-42225633D01*
X102697039Y-42575843D01*
X102964747Y-42844020D01*
X103314705Y-42989335D01*
X103693633Y-42989665D01*
X104043843Y-42844961D01*
X104089885Y-42799000D01*
X104951806Y-42799000D01*
X104996747Y-42844020D01*
X105346705Y-42989335D01*
X105725633Y-42989665D01*
X106075843Y-42844961D01*
X106344020Y-42577253D01*
X106489335Y-42227295D01*
X106489665Y-41848367D01*
X106344961Y-41498157D01*
X106077253Y-41229980D01*
X105727295Y-41084665D01*
X105348367Y-41084335D01*
X104998157Y-41229039D01*
X104952115Y-41275000D01*
X104090194Y-41275000D01*
X104045253Y-41229980D01*
X103695295Y-41084665D01*
X103316367Y-41084335D01*
X102966157Y-41229039D01*
X102697980Y-41496747D01*
X102552665Y-41846705D01*
X102552335Y-42225633D01*
X94107000Y-42225633D01*
X94107000Y-37796254D01*
X94328932Y-38333371D01*
X94760357Y-38765551D01*
X95324330Y-38999733D01*
X95934991Y-39000265D01*
X96499371Y-38767068D01*
X96667613Y-38599120D01*
X96667838Y-38600317D01*
X96806910Y-38816441D01*
X97019110Y-38961431D01*
X97271000Y-39012440D01*
X99071000Y-39012440D01*
X99306317Y-38968162D01*
X99522441Y-38829090D01*
X99667431Y-38616890D01*
X99718440Y-38365000D01*
X99718440Y-36957000D01*
X107378499Y-36957000D01*
X107378335Y-37145633D01*
X107523039Y-37495843D01*
X107790747Y-37764020D01*
X108140705Y-37909335D01*
X108519633Y-37909665D01*
X108869843Y-37764961D01*
X109138020Y-37497253D01*
X109151413Y-37465000D01*
X118073118Y-37465000D01*
X118046665Y-37528705D01*
X118046335Y-37907633D01*
X118191039Y-38257843D01*
X118237000Y-38303885D01*
X118237000Y-39673806D01*
X118191980Y-39718747D01*
X118046665Y-40068705D01*
X118046335Y-40447633D01*
X118191039Y-40797843D01*
X118458747Y-41066020D01*
X118808705Y-41211335D01*
X119187633Y-41211665D01*
X119537843Y-41066961D01*
X119806020Y-40799253D01*
X119951335Y-40449295D01*
X119951665Y-40070367D01*
X119806961Y-39720157D01*
X119761000Y-39674115D01*
X119761000Y-38304194D01*
X119806020Y-38259253D01*
X119951335Y-37909295D01*
X119951665Y-37530367D01*
X119924656Y-37465000D01*
X128335370Y-37465000D01*
X130429000Y-39558631D01*
X130429000Y-42291000D01*
X130487004Y-42582605D01*
X130611005Y-42768185D01*
X130652185Y-42829815D01*
X131762390Y-43940021D01*
X131762335Y-44003633D01*
X131907039Y-44353843D01*
X132174747Y-44622020D01*
X132524705Y-44767335D01*
X132903633Y-44767665D01*
X133253843Y-44622961D01*
X133522020Y-44355253D01*
X133667335Y-44005295D01*
X133667665Y-43626367D01*
X133522961Y-43276157D01*
X133255253Y-43007980D01*
X132905295Y-42862665D01*
X132840239Y-42862608D01*
X131953000Y-41975370D01*
X131953000Y-39243000D01*
X131894996Y-38951395D01*
X131813274Y-38829090D01*
X131729815Y-38704184D01*
X131133362Y-38107731D01*
X131236020Y-38005253D01*
X131275841Y-37909353D01*
X131633633Y-37909665D01*
X131983843Y-37764961D01*
X132252020Y-37497253D01*
X132397335Y-37147295D01*
X132397392Y-37082239D01*
X132522631Y-36957000D01*
X141273806Y-36957000D01*
X141318747Y-37002020D01*
X141668705Y-37147335D01*
X142047633Y-37147665D01*
X142397843Y-37002961D01*
X142666020Y-36735253D01*
X142754570Y-36522000D01*
X151280000Y-36522000D01*
X151280000Y-44538369D01*
X149509815Y-42768185D01*
X149469124Y-42740996D01*
X149262605Y-42603004D01*
X148971000Y-42545000D01*
X146492631Y-42545000D01*
X146431000Y-42483370D01*
X146431000Y-42114194D01*
X146476020Y-42069253D01*
X146621335Y-41719295D01*
X146621665Y-41340367D01*
X146476961Y-40990157D01*
X146209253Y-40721980D01*
X146113464Y-40682205D01*
X146113665Y-40451367D01*
X145968961Y-40101157D01*
X145708859Y-39840599D01*
X147743699Y-39840599D01*
X148007281Y-40478515D01*
X148494918Y-40967004D01*
X149132373Y-41231699D01*
X149822599Y-41232301D01*
X150460515Y-40968719D01*
X150949004Y-40481082D01*
X151213699Y-39843627D01*
X151214301Y-39153401D01*
X150950719Y-38515485D01*
X150463082Y-38026996D01*
X149825627Y-37762301D01*
X149135401Y-37761699D01*
X148497485Y-38025281D01*
X148008996Y-38512918D01*
X147744301Y-39150373D01*
X147743699Y-39840599D01*
X145708859Y-39840599D01*
X145701253Y-39832980D01*
X145351295Y-39687665D01*
X144972367Y-39687335D01*
X144622157Y-39832039D01*
X144576115Y-39878000D01*
X143764000Y-39878000D01*
X143472395Y-39936004D01*
X143373377Y-40002166D01*
X143225185Y-40101184D01*
X142463185Y-40863185D01*
X142298004Y-41110395D01*
X142240000Y-41402000D01*
X142240000Y-47625000D01*
X142298004Y-47916605D01*
X142332610Y-47968396D01*
X142463185Y-48163815D01*
X142971184Y-48671815D01*
X143131598Y-48779000D01*
X143218395Y-48836996D01*
X143510000Y-48895000D01*
X143813806Y-48895000D01*
X143858747Y-48940020D01*
X144208705Y-49085335D01*
X144587633Y-49085665D01*
X144937843Y-48940961D01*
X145206020Y-48673253D01*
X145351335Y-48323295D01*
X145351665Y-47944367D01*
X145206961Y-47594157D01*
X144939253Y-47325980D01*
X144589295Y-47180665D01*
X144210367Y-47180335D01*
X143860157Y-47325039D01*
X143819878Y-47365248D01*
X143764000Y-47309370D01*
X143764000Y-45704148D01*
X143954705Y-45783335D01*
X144019761Y-45783392D01*
X144114184Y-45877815D01*
X144352863Y-46037295D01*
X144361395Y-46042996D01*
X144653000Y-46101000D01*
X147639370Y-46101000D01*
X148717000Y-47178631D01*
X148717000Y-48958499D01*
X148528367Y-48958335D01*
X148178157Y-49103039D01*
X148132115Y-49149000D01*
X137110194Y-49149000D01*
X137065253Y-49103980D01*
X136715295Y-48958665D01*
X136336367Y-48958335D01*
X135986157Y-49103039D01*
X135876406Y-49212598D01*
X135574367Y-49212335D01*
X135382000Y-49291820D01*
X135382000Y-48702630D01*
X141000816Y-43083815D01*
X141099834Y-42935623D01*
X141165996Y-42836605D01*
X141224000Y-42545000D01*
X141224000Y-41021000D01*
X141165996Y-40729395D01*
X141063945Y-40576665D01*
X141000815Y-40482184D01*
X140619815Y-40101185D01*
X140475864Y-40005000D01*
X140372605Y-39936004D01*
X140081000Y-39878000D01*
X136588611Y-39878000D01*
X136588665Y-39816367D01*
X136443961Y-39466157D01*
X136176253Y-39197980D01*
X135826295Y-39052665D01*
X135447367Y-39052335D01*
X135097157Y-39197039D01*
X134828980Y-39464747D01*
X134683665Y-39814705D01*
X134683335Y-40193633D01*
X134828039Y-40543843D01*
X135095747Y-40812020D01*
X135445705Y-40957335D01*
X135510761Y-40957392D01*
X135732185Y-41178816D01*
X135880377Y-41277834D01*
X135979395Y-41343996D01*
X136271000Y-41402000D01*
X138620389Y-41402000D01*
X138620387Y-41403983D01*
X134939370Y-45085000D01*
X118314194Y-45085000D01*
X118269253Y-45039980D01*
X117919295Y-44894665D01*
X117540367Y-44894335D01*
X117190157Y-45039039D01*
X116921980Y-45306747D01*
X116776665Y-45656705D01*
X116776511Y-45833293D01*
X116745253Y-45801980D01*
X116395295Y-45656665D01*
X116016367Y-45656335D01*
X115666157Y-45801039D01*
X115397980Y-46068747D01*
X115252665Y-46418705D01*
X115252335Y-46797633D01*
X115397039Y-47147843D01*
X115664747Y-47416020D01*
X116014705Y-47561335D01*
X116393633Y-47561665D01*
X116743843Y-47416961D01*
X116789885Y-47371000D01*
X128084587Y-47371000D01*
X127952665Y-47688705D01*
X127952335Y-48067633D01*
X128097039Y-48417843D01*
X128143000Y-48463885D01*
X128143000Y-52959000D01*
X128201004Y-53250605D01*
X128345595Y-53467000D01*
X128366185Y-53497815D01*
X128460390Y-53592021D01*
X128460335Y-53655633D01*
X128507563Y-53769933D01*
X125633815Y-50896185D01*
X125623653Y-50889395D01*
X125386605Y-50731004D01*
X125095000Y-50673000D01*
X111694631Y-50673000D01*
X106329815Y-45308185D01*
X106327663Y-45306747D01*
X106082605Y-45143004D01*
X105791000Y-45085000D01*
X74549000Y-45085000D01*
X74257395Y-45143004D01*
X74012337Y-45306747D01*
X74010185Y-45308185D01*
X72994185Y-46324185D01*
X72829004Y-46571395D01*
X72771000Y-46863000D01*
X72771000Y-151765000D01*
X72829004Y-152056605D01*
X72945655Y-152231185D01*
X72994185Y-152303815D01*
X79090185Y-158399815D01*
X79337395Y-158564996D01*
X79523426Y-158602000D01*
X71700000Y-158602000D01*
X71700000Y-157055599D01*
X71754699Y-157055599D01*
X72018281Y-157693515D01*
X72505918Y-158182004D01*
X73143373Y-158446699D01*
X73833599Y-158447301D01*
X74471515Y-158183719D01*
X74960004Y-157696082D01*
X75224699Y-157058627D01*
X75225301Y-156368401D01*
X74961719Y-155730485D01*
X74474082Y-155241996D01*
X73836627Y-154977301D01*
X73146401Y-154976699D01*
X72508485Y-155240281D01*
X72019996Y-155727918D01*
X71755301Y-156365373D01*
X71754699Y-157055599D01*
X71700000Y-157055599D01*
X71700000Y-39840599D01*
X74254699Y-39840599D01*
X74518281Y-40478515D01*
X75005918Y-40967004D01*
X75643373Y-41231699D01*
X76333599Y-41232301D01*
X76971515Y-40968719D01*
X77460004Y-40481082D01*
X77724699Y-39843627D01*
X77725301Y-39153401D01*
X77461719Y-38515485D01*
X76974082Y-38026996D01*
X76336627Y-37762301D01*
X75646401Y-37761699D01*
X75008485Y-38025281D01*
X74519996Y-38512918D01*
X74255301Y-39150373D01*
X74254699Y-39840599D01*
X71700000Y-39840599D01*
X71700000Y-36522000D01*
X92619003Y-36522000D01*
X92583000Y-36703000D01*
G36*
X147922747Y-52242020D02*
X148272705Y-52387335D01*
X148651633Y-52387665D01*
X148717000Y-52360656D01*
X148717000Y-55183370D01*
X148493815Y-54960185D01*
X148349864Y-54864000D01*
X148246605Y-54795004D01*
X147955000Y-54737000D01*
X146492631Y-54737000D01*
X146431000Y-54675370D01*
X146431000Y-52782194D01*
X146476020Y-52737253D01*
X146621335Y-52387295D01*
X146621501Y-52197000D01*
X147877806Y-52197000D01*
X147922747Y-52242020D01*
X147922747Y-52242020D01*
G37*
X147922747Y-52242020D02*
X148272705Y-52387335D01*
X148651633Y-52387665D01*
X148717000Y-52360656D01*
X148717000Y-55183370D01*
X148493815Y-54960185D01*
X148349864Y-54864000D01*
X148246605Y-54795004D01*
X147955000Y-54737000D01*
X146492631Y-54737000D01*
X146431000Y-54675370D01*
X146431000Y-52782194D01*
X146476020Y-52737253D01*
X146621335Y-52387295D01*
X146621501Y-52197000D01*
X147877806Y-52197000D01*
X147922747Y-52242020D01*
M02*
