EESchema Schematic File Version 2
LIBS:power
LIBS:device
LIBS:switches
LIBS:relays
LIBS:motors
LIBS:transistors
LIBS:conn
LIBS:linear
LIBS:regul
LIBS:74xx
LIBS:cmos4000
LIBS:adc-dac
LIBS:memory
LIBS:xilinx
LIBS:microcontrollers
LIBS:dsp
LIBS:microchip
LIBS:analog_switches
LIBS:motorola
LIBS:texas
LIBS:intel
LIBS:audio
LIBS:interface
LIBS:digital-audio
LIBS:philips
LIBS:display
LIBS:cypress
LIBS:siliconi
LIBS:opto
LIBS:atmel
LIBS:contrib
LIBS:valves
LIBS:ble_controller
LIBS:ble_controller-cache
EELAYER 25 0
EELAYER END
$Descr A4 11693 8268
encoding utf-8
Sheet 1 2
Title ""
Date ""
Rev ""
Comp ""
Comment1 ""
Comment2 ""
Comment3 ""
Comment4 ""
$EndDescr
$Comp
L 2N7002 Q?
U 1 1 5AAE61AF
P 3350 3600
F 0 "Q?" H 3550 3675 50  0000 L CNN
F 1 "2N7002" H 3550 3600 50  0000 L CNN
F 2 "TO_SOT_Packages_SMD:SOT-23" H 3550 3525 50  0001 L CIN
F 3 "" H 3350 3600 50  0001 L CNN
	1    3350 3600
	1    0    0    -1  
$EndComp
$Comp
L MSP430G2744 U?
U 1 1 5AAE6336
P 8100 2450
F 0 "U?" H 7900 3400 50  0000 C CNN
F 1 "MSP430G2744" H 8100 3500 50  0000 C CNN
F 2 "ble_controller:MSP430G2744IRHA40R" H 7550 2100 50  0001 C CNN
F 3 "DOCUMENTATION" H 7700 2000 50  0001 C CNN
F 4 "http://www.ti.com/lit/ds/symlink/msp430g2444.pdf" H 8000 1950 29  0001 C CNN "PDF"
F 5 "http://www.ti.com/product/msp430g2744" H 7850 2050 29  0001 C CNN "Product Page"
	1    8100 2450
	1    0    0    -1  
$EndComp
$Comp
L TPS62730 U?
U 1 1 5AAE63A7
P 3050 1850
F 0 "U?" H 2900 2150 60  0000 C CNN
F 1 "TPS62730" H 3050 1700 60  0000 C CNN
F 2 "ble_controller:TPS62730DRYR" H 3050 1750 60  0001 C CNN
F 3 "" H 3050 1750 60  0001 C CNN
	1    3050 1850
	1    0    0    -1  
$EndComp
$Sheet
S 4650 6200 2000 1350
U 5AB26181
F0 "CC2541 Sheet" 60
F1 "CC2541.sch" 60
$EndSheet
$Comp
L +BATT #PWR?
U 1 1 5AB7A933
P 1800 1850
F 0 "#PWR?" H 1800 1700 50  0001 C CNN
F 1 "+BATT" H 1800 1990 50  0000 C CNN
F 2 "" H 1800 1850 50  0001 C CNN
F 3 "" H 1800 1850 50  0001 C CNN
	1    1800 1850
	0    -1   -1   0   
$EndComp
$Comp
L -BATT #PWR?
U 1 1 5AB7A94D
P 1800 2150
F 0 "#PWR?" H 1800 2000 50  0001 C CNN
F 1 "-BATT" H 1800 2290 50  0000 C CNN
F 2 "" H 1800 2150 50  0001 C CNN
F 3 "" H 1800 2150 50  0001 C CNN
	1    1800 2150
	0    -1   -1   0   
$EndComp
Text GLabel 3550 1750 2    60   Input ~ 0
/BYPASS
$Comp
L C_Small C?
U 1 1 5AB7AAAC
P 2150 1950
F 0 "C?" H 2160 2020 50  0000 L CNN
F 1 "2.2uF" H 2160 1870 50  0000 L CNN
F 2 "" H 2150 1950 50  0001 C CNN
F 3 "" H 2150 1950 50  0001 C CNN
	1    2150 1950
	1    0    0    -1  
$EndComp
$Comp
L C_Small C?
U 1 1 5AB7AB29
P 4450 1750
F 0 "C?" H 4460 1820 50  0000 L CNN
F 1 "2.2uF" H 4460 1670 50  0000 L CNN
F 2 "" H 4450 1750 50  0001 C CNN
F 3 "" H 4450 1750 50  0001 C CNN
	1    4450 1750
	1    0    0    -1  
$EndComp
$Comp
L C_Small C?
U 1 1 5AB7AB82
P 5000 1750
F 0 "C?" H 5010 1820 50  0000 L CNN
F 1 "2.2uF" H 5010 1670 50  0000 L CNN
F 2 "" H 5000 1750 50  0001 C CNN
F 3 "" H 5000 1750 50  0001 C CNN
	1    5000 1750
	1    0    0    -1  
$EndComp
$Comp
L L L?
U 1 1 5AB7AD51
P 2900 1250
F 0 "L?" V 2850 1250 50  0000 C CNN
F 1 "2.2uH" V 2975 1250 50  0000 C CNN
F 2 "" H 2900 1250 50  0001 C CNN
F 3 "" H 2900 1250 50  0001 C CNN
	1    2900 1250
	0    -1   -1   0   
$EndComp
$Comp
L L L?
U 1 1 5AB7AD9B
P 4700 1250
F 0 "L?" V 4650 1250 50  0000 C CNN
F 1 "Bead" V 4775 1250 50  0000 C CNN
F 2 "" H 4700 1250 50  0001 C CNN
F 3 "" H 4700 1250 50  0001 C CNN
	1    4700 1250
	0    -1   -1   0   
$EndComp
NoConn ~ 2550 1650
$Comp
L GND #PWR?
U 1 1 5AB7AFE3
P 2150 2450
F 0 "#PWR?" H 2150 2200 50  0001 C CNN
F 1 "GND" H 2150 2300 50  0000 C CNN
F 2 "" H 2150 2450 50  0001 C CNN
F 3 "" H 2150 2450 50  0001 C CNN
	1    2150 2450
	1    0    0    -1  
$EndComp
$Comp
L GND #PWR?
U 1 1 5AB7B02F
P 3550 2300
F 0 "#PWR?" H 3550 2050 50  0001 C CNN
F 1 "GND" H 3550 2150 50  0000 C CNN
F 2 "" H 3550 2300 50  0001 C CNN
F 3 "" H 3550 2300 50  0001 C CNN
	1    3550 2300
	1    0    0    -1  
$EndComp
Text GLabel 5150 1250 2    60   Input ~ 0
VCC
$Comp
L R R?
U 1 1 5AB7B355
P 3450 3150
F 0 "R?" V 3530 3150 50  0000 C CNN
F 1 "20K" V 3450 3150 50  0000 C CNN
F 2 "" V 3380 3150 50  0001 C CNN
F 3 "" H 3450 3150 50  0001 C CNN
	1    3450 3150
	1    0    0    -1  
$EndComp
$Comp
L R R?
U 1 1 5AB7B3B7
P 2800 3600
F 0 "R?" V 2880 3600 50  0000 C CNN
F 1 "0" V 2800 3600 50  0000 C CNN
F 2 "" V 2730 3600 50  0001 C CNN
F 3 "" H 2800 3600 50  0001 C CNN
	1    2800 3600
	0    1    1    0   
$EndComp
$Comp
L R R?
U 1 1 5AB7B402
P 3450 4050
F 0 "R?" V 3530 4050 50  0000 C CNN
F 1 "2K" V 3450 4050 50  0000 C CNN
F 2 "" V 3380 4050 50  0001 C CNN
F 3 "" H 3450 4050 50  0001 C CNN
	1    3450 4050
	-1   0    0    1   
$EndComp
$Comp
L GND #PWR?
U 1 1 5AB7B4E6
P 3450 4350
F 0 "#PWR?" H 3450 4100 50  0001 C CNN
F 1 "GND" H 3450 4200 50  0000 C CNN
F 2 "" H 3450 4350 50  0001 C CNN
F 3 "" H 3450 4350 50  0001 C CNN
	1    3450 4350
	1    0    0    -1  
$EndComp
Text GLabel 1950 1650 1    60   Input ~ 0
V_BAT
Text GLabel 3450 3000 1    60   Input ~ 0
V_BAT
Text GLabel 2550 3600 0    60   Input ~ 0
BAT_DET
Text GLabel 3750 3850 2    60   Input ~ 0
BAT_LVL
Text GLabel 2300 2300 2    60   Input ~ 0
GND
Text GLabel 7350 3900 3    60   Input ~ 0
GND
Text GLabel 6550 2100 0    60   Input ~ 0
BAT_LVL
Text GLabel 9650 3400 2    60   Input ~ 0
BAT_DET
Text GLabel 7450 3900 3    60   Input ~ 0
GND
Text GLabel 7550 1000 1    60   Input ~ 0
VCC
$Comp
L KB P?
U 1 1 5AB7C26C
P 9350 5200
F 0 "P?" H 9100 5850 60  0000 C CNN
F 1 "KB" H 9100 4450 60  0000 C CNN
F 2 "Pin_Headers:Pin_Header_Straight_1x13_Pitch2.54mm" H 9150 4800 60  0001 C CNN
F 3 "" H 9150 4800 60  0001 C CNN
	1    9350 5200
	1    0    0    -1  
$EndComp
NoConn ~ 6550 1500
Text GLabel 8800 4650 0    60   Input ~ 0
KSO0
Text GLabel 8800 4750 0    60   Input ~ 0
KSO1
Text GLabel 8800 4850 0    60   Input ~ 0
KSO2
Text GLabel 8800 4950 0    60   Input ~ 0
KSO3
Text GLabel 8800 5050 0    60   Input ~ 0
KSO4
Text GLabel 8800 5150 0    60   Input ~ 0
KSO5
Text GLabel 8800 5250 0    60   Input ~ 0
KSO6
Text GLabel 8800 5350 0    60   Input ~ 0
KSO7
Text GLabel 8800 5450 0    60   Input ~ 0
KSO8
Text GLabel 8800 5550 0    60   Input ~ 0
KSO9
Text GLabel 8800 5650 0    60   Input ~ 0
KSO10
Text GLabel 8800 5750 0    60   Input ~ 0
KSO11
Text GLabel 8800 5850 0    60   Input ~ 0
KSO12
Text GLabel 9850 4650 2    60   Input ~ 0
KSO13
Text GLabel 9850 4750 2    60   Input ~ 0
KSO14
Text GLabel 9850 4850 2    60   Input ~ 0
KSO15
Text GLabel 6550 2600 0    60   Input ~ 0
KSO0
Text GLabel 6550 2700 0    60   Input ~ 0
KSO1
Text GLabel 6550 2800 0    60   Input ~ 0
KSO2
Text GLabel 9650 1500 2    60   Input ~ 0
KSO3
Text GLabel 9650 1600 2    60   Input ~ 0
KSO4
Text GLabel 9650 1700 2    60   Input ~ 0
KSO5
Text GLabel 6550 1600 0    60   Input ~ 0
KSO13
Text GLabel 9850 4950 2    60   Input ~ 0
KSI0
Text GLabel 9850 5050 2    60   Input ~ 0
KSI1
Text GLabel 9850 5150 2    60   Input ~ 0
KSI2
Text GLabel 9850 5250 2    60   Input ~ 0
KSI3
Text GLabel 9850 5350 2    60   Input ~ 0
KSI4
Text GLabel 9850 5450 2    60   Input ~ 0
KSI5
Text GLabel 9850 5550 2    60   Input ~ 0
KSI6
Text GLabel 9850 5650 2    60   Input ~ 0
KSI7
Text GLabel 9650 2600 2    60   Input ~ 0
KSI0
Text GLabel 9650 2700 2    60   Input ~ 0
KSI1
Text GLabel 9650 2800 2    60   Input ~ 0
KSI2
Text GLabel 9650 2900 2    60   Input ~ 0
KSI3
Text GLabel 9650 3000 2    60   Input ~ 0
KSI4
Text GLabel 9650 3100 2    60   Input ~ 0
KSI5
Text GLabel 9650 3200 2    60   Input ~ 0
KSI6
Text GLabel 9650 3300 2    60   Input ~ 0
KSI7
Text GLabel 9650 1800 2    60   Input ~ 0
KSO6
Text GLabel 9650 1900 2    60   Input ~ 0
KSO7
NoConn ~ 6550 2200
Text GLabel 6550 1900 0    60   Input ~ 0
KSO8
Text GLabel 6550 2000 0    60   Input ~ 0
KSO9
Text GLabel 6550 2500 0    60   Input ~ 0
KSO10
Text GLabel 6550 2300 0    60   Input ~ 0
LED_GREEN
Text GLabel 6550 2400 0    60   Input ~ 0
LED_RED
Text GLabel 9650 2100 2    60   Input ~ 0
CC2541_TXD
Text GLabel 9650 2000 2    60   Input ~ 0
CC2541_RXD
Text GLabel 9650 2200 2    60   Input ~ 0
KSO14
Text GLabel 9650 2300 2    60   Input ~ 0
KSO15
Text GLabel 9650 2400 2    60   Input ~ 0
KSO11
Text GLabel 9650 2500 2    60   Input ~ 0
KSO12
NoConn ~ 9850 5750
NoConn ~ 9850 5850
$Comp
L C_Small C?
U 1 1 5AB7E086
P 1400 3600
F 0 "C?" H 1410 3670 50  0000 L CNN
F 1 "2.2uF" H 1410 3520 50  0000 L CNN
F 2 "" H 1400 3600 50  0001 C CNN
F 3 "" H 1400 3600 50  0001 C CNN
	1    1400 3600
	1    0    0    -1  
$EndComp
$Comp
L C_Small C?
U 1 1 5AB7E10D
P 1050 3600
F 0 "C?" H 1060 3670 50  0000 L CNN
F 1 "100nF" H 1060 3520 50  0000 L CNN
F 2 "" H 1050 3600 50  0001 C CNN
F 3 "" H 1050 3600 50  0001 C CNN
	1    1050 3600
	1    0    0    -1  
$EndComp
$Comp
L GND #PWR?
U 1 1 5AB7E260
P 1400 4000
F 0 "#PWR?" H 1400 3750 50  0001 C CNN
F 1 "GND" H 1400 3850 50  0000 C CNN
F 2 "" H 1400 4000 50  0001 C CNN
F 3 "" H 1400 4000 50  0001 C CNN
	1    1400 4000
	1    0    0    -1  
$EndComp
Text GLabel 7650 1000 1    60   Input ~ 0
VCC
Text GLabel 1400 3250 1    60   Input ~ 0
VCC
$Comp
L GND #PWR?
U 1 1 5AB7E8FC
P 7250 5900
F 0 "#PWR?" H 7250 5650 50  0001 C CNN
F 1 "GND" H 7250 5750 50  0000 C CNN
F 2 "" H 7250 5900 50  0001 C CNN
F 3 "" H 7250 5900 50  0001 C CNN
	1    7250 5900
	1    0    0    -1  
$EndComp
$Comp
L R R?
U 1 1 5AB7E931
P 7250 5150
F 0 "R?" V 7330 5150 50  0000 C CNN
F 1 "47K" V 7250 5150 50  0000 C CNN
F 2 "" V 7180 5150 50  0001 C CNN
F 3 "" H 7250 5150 50  0001 C CNN
	1    7250 5150
	1    0    0    -1  
$EndComp
$Comp
L C_Small C?
U 1 1 5AB7E9B0
P 7250 5550
F 0 "C?" H 7260 5620 50  0000 L CNN
F 1 "2.2nF" H 7260 5470 50  0000 L CNN
F 2 "" H 7250 5550 50  0001 C CNN
F 3 "" H 7250 5550 50  0001 C CNN
	1    7250 5550
	1    0    0    -1  
$EndComp
Text GLabel 7250 4850 1    60   Input ~ 0
VCC
Text GLabel 7050 5350 0    60   Input ~ 0
RST
Text GLabel 6550 1800 0    60   Input ~ 0
RST
Text GLabel 6550 1700 0    60   Input ~ 0
WAKE
$Comp
L LED_ALT D?
U 1 1 5AB7F34E
P 4900 3600
F 0 "D?" H 4900 3700 50  0000 C CNN
F 1 "LED_ALT" H 4900 3500 50  0000 C CNN
F 2 "" H 4900 3600 50  0001 C CNN
F 3 "" H 4900 3600 50  0001 C CNN
	1    4900 3600
	-1   0    0    1   
$EndComp
$Comp
L LED_ALT D?
U 1 1 5AB7F3B0
P 4900 4000
F 0 "D?" H 4900 4100 50  0000 C CNN
F 1 "LED_ALT" H 4900 3900 50  0000 C CNN
F 2 "" H 4900 4000 50  0001 C CNN
F 3 "" H 4900 4000 50  0001 C CNN
	1    4900 4000
	-1   0    0    1   
$EndComp
$Comp
L R R?
U 1 1 5AB7F3F4
P 5400 3600
F 0 "R?" V 5480 3600 50  0000 C CNN
F 1 "1K" V 5400 3600 50  0000 C CNN
F 2 "" V 5330 3600 50  0001 C CNN
F 3 "" H 5400 3600 50  0001 C CNN
	1    5400 3600
	0    1    1    0   
$EndComp
$Comp
L R R?
U 1 1 5AB7F43D
P 5400 4000
F 0 "R?" V 5480 4000 50  0000 C CNN
F 1 "1K" V 5400 4000 50  0000 C CNN
F 2 "" V 5330 4000 50  0001 C CNN
F 3 "" H 5400 4000 50  0001 C CNN
	1    5400 4000
	0    1    1    0   
$EndComp
Wire Wire Line
	1800 2150 2150 2150
Wire Wire Line
	2150 2050 2150 2450
Wire Wire Line
	1800 1850 2550 1850
Connection ~ 2150 1850
Connection ~ 2150 2150
Wire Wire Line
	3550 1850 3550 2300
Wire Wire Line
	3550 1650 4450 1650
Wire Wire Line
	3550 2150 5000 2150
Wire Wire Line
	4450 2150 4450 1850
Connection ~ 3550 2150
Wire Wire Line
	5000 2150 5000 1850
Connection ~ 4450 2150
Wire Wire Line
	2750 1250 2350 1250
Wire Wire Line
	2350 1250 2350 1750
Wire Wire Line
	2350 1750 2550 1750
Wire Wire Line
	3050 1250 4550 1250
Wire Wire Line
	4450 1650 4450 1250
Connection ~ 4450 1250
Wire Wire Line
	5000 1650 5000 1250
Wire Wire Line
	4850 1250 5150 1250
Connection ~ 5000 1250
Wire Wire Line
	3450 4350 3450 4200
Wire Wire Line
	3450 3900 3450 3800
Wire Wire Line
	3450 3400 3450 3300
Wire Wire Line
	2950 3600 3150 3600
Wire Wire Line
	3750 3850 3450 3850
Connection ~ 3450 3850
Wire Wire Line
	2650 3600 2550 3600
Wire Wire Line
	1050 3500 1050 3400
Wire Wire Line
	1050 3400 1400 3400
Wire Wire Line
	1400 3250 1400 3500
Wire Wire Line
	1050 3700 1050 3800
Wire Wire Line
	1050 3800 1400 3800
Wire Wire Line
	1400 3700 1400 4000
Connection ~ 1400 3400
Connection ~ 1400 3800
Wire Wire Line
	2150 2300 2300 2300
Connection ~ 2150 2300
Wire Wire Line
	1950 1650 1950 1850
Connection ~ 1950 1850
Wire Wire Line
	7250 5900 7250 5650
Wire Wire Line
	7250 5300 7250 5450
Wire Wire Line
	7250 5000 7250 4850
Wire Wire Line
	7250 5350 7050 5350
Connection ~ 7250 5350
Wire Wire Line
	4550 3450 4550 4000
Wire Wire Line
	4550 3600 4750 3600
Wire Wire Line
	4550 4000 4750 4000
Connection ~ 4550 3600
Wire Wire Line
	5050 3600 5250 3600
Wire Wire Line
	5250 4000 5050 4000
Wire Wire Line
	5550 3600 5700 3600
Wire Wire Line
	5550 4000 5700 4000
Text GLabel 4550 3450 1    60   Input ~ 0
VCC
Text GLabel 5700 3600 2    60   Input ~ 0
LED_GREEN
Text GLabel 5700 4000 2    60   Input ~ 0
LED_RED
$Comp
L GND #PWR?
U 1 1 5AB8136C
P 1900 5650
F 0 "#PWR?" H 1900 5400 50  0001 C CNN
F 1 "GND" H 1900 5500 50  0000 C CNN
F 2 "" H 1900 5650 50  0001 C CNN
F 3 "" H 1900 5650 50  0001 C CNN
	1    1900 5650
	1    0    0    -1  
$EndComp
$Comp
L GND #PWR?
U 1 1 5AB813BA
P 2550 5650
F 0 "#PWR?" H 2550 5400 50  0001 C CNN
F 1 "GND" H 2550 5500 50  0000 C CNN
F 2 "" H 2550 5650 50  0001 C CNN
F 3 "" H 2550 5650 50  0001 C CNN
	1    2550 5650
	1    0    0    -1  
$EndComp
$Comp
L R R?
U 1 1 5AB813EF
P 1450 5350
F 0 "R?" V 1530 5350 50  0000 C CNN
F 1 "10K" V 1450 5350 50  0000 C CNN
F 2 "" V 1380 5350 50  0001 C CNN
F 3 "" H 1450 5350 50  0001 C CNN
	1    1450 5350
	0    1    1    0   
$EndComp
$Comp
L C_Small C?
U 1 1 5AB81481
P 1900 5450
F 0 "C?" H 1910 5520 50  0000 L CNN
F 1 "100nF" H 1910 5370 50  0000 L CNN
F 2 "" H 1900 5450 50  0001 C CNN
F 3 "" H 1900 5450 50  0001 C CNN
	1    1900 5450
	1    0    0    -1  
$EndComp
Wire Wire Line
	1600 5350 2050 5350
Wire Wire Line
	1300 5350 1200 5350
Wire Wire Line
	1200 5350 1200 4950
Wire Wire Line
	1900 5550 1900 5650
$Comp
L SW_Push SW?
U 1 1 5AB815F6
P 2250 5350
F 0 "SW?" H 2300 5450 50  0000 L CNN
F 1 "SW_Push" H 2250 5290 50  0000 C CNN
F 2 "" H 2250 5550 50  0001 C CNN
F 3 "" H 2250 5550 50  0001 C CNN
	1    2250 5350
	1    0    0    -1  
$EndComp
Connection ~ 1900 5350
Wire Wire Line
	2450 5350 2550 5350
Wire Wire Line
	2550 5350 2550 5650
Text GLabel 1200 4950 1    60   Input ~ 0
VCC
$EndSCHEMATC
