EESchema Schematic File Version 2
LIBS:power
LIBS:device
LIBS:switches
LIBS:relays
LIBS:motors
LIBS:transistors
LIBS:conn
LIBS:linear
LIBS:regul
LIBS:74xx
LIBS:cmos4000
LIBS:adc-dac
LIBS:memory
LIBS:xilinx
LIBS:microcontrollers
LIBS:dsp
LIBS:microchip
LIBS:analog_switches
LIBS:motorola
LIBS:texas
LIBS:intel
LIBS:audio
LIBS:interface
LIBS:digital-audio
LIBS:philips
LIBS:display
LIBS:cypress
LIBS:siliconi
LIBS:opto
LIBS:atmel
LIBS:contrib
LIBS:valves
LIBS:ble_controller
LIBS:ble_controller-cache
EELAYER 25 0
EELAYER END
$Descr A4 11693 8268
encoding utf-8
Sheet 2 2
Title ""
Date ""
Rev ""
Comp ""
Comment1 ""
Comment2 ""
Comment3 ""
Comment4 ""
$EndDescr
$Comp
L CC2541F128HAR U?
U 1 1 5AB26469
P 2700 3250
F 0 "U?" H 2700 3150 50  0000 C CNN
F 1 "CC2541F128HAR" H 2700 3350 50  0000 C CNN
F 2 "ble_controller:MSP430G2744IRHA40R" H 2700 2900 50  0001 C CNN
F 3 "http://www.ti.com/lit/ds/symlink/cc2541.pdf" H 3000 1600 29  0001 C CNN
	1    2700 3250
	1    0    0    -1  
$EndComp
$Comp
L R R?
U 1 1 5AB27FBF
P 4450 2650
F 0 "R?" V 4530 2650 50  0000 C CNN
F 1 "56K" V 4450 2650 50  0000 C CNN
F 2 "" V 4380 2650 50  0001 C CNN
F 3 "" H 4450 2650 50  0001 C CNN
	1    4450 2650
	0    1    1    0   
$EndComp
$Comp
L L L?
U 1 1 5AB282EA
P 6400 2550
F 0 "L?" V 6350 2550 50  0000 C CNN
F 1 "2nH" V 6475 2550 50  0000 C CNN
F 2 "" H 6400 2550 50  0001 C CNN
F 3 "" H 6400 2550 50  0001 C CNN
	1    6400 2550
	0    -1   -1   0   
$EndComp
$Comp
L L L?
U 1 1 5AB283FD
P 6900 2550
F 0 "L?" V 6850 2550 50  0000 C CNN
F 1 "1nH" V 6975 2550 50  0000 C CNN
F 2 "" H 6900 2550 50  0001 C CNN
F 3 "" H 6900 2550 50  0001 C CNN
	1    6900 2550
	0    -1   -1   0   
$EndComp
$Comp
L L L?
U 1 1 5AB2843C
P 7650 2550
F 0 "L?" V 7600 2550 50  0000 C CNN
F 1 "3nH" V 7725 2550 50  0000 C CNN
F 2 "" H 7650 2550 50  0001 C CNN
F 3 "" H 7650 2550 50  0001 C CNN
	1    7650 2550
	0    -1   -1   0   
$EndComp
$Comp
L L L?
U 1 1 5AB2848B
P 5750 3600
F 0 "L?" V 5700 3600 50  0000 C CNN
F 1 "2nH" V 5825 3600 50  0000 C CNN
F 2 "" H 5750 3600 50  0001 C CNN
F 3 "" H 5750 3600 50  0001 C CNN
	1    5750 3600
	1    0    0    -1  
$EndComp
$Comp
L Crystal Y?
U 1 1 5AB28512
P 8100 4750
F 0 "Y?" H 8100 4900 50  0000 C CNN
F 1 "XTAL32M" H 8100 4600 50  0000 C CNN
F 2 "Crystals:Resonator_SMD-3pin_7.2x3.0mm_HandSoldering" H 8100 4750 50  0001 C CNN
F 3 "" H 8100 4750 50  0001 C CNN
	1    8100 4750
	-1   0    0    1   
$EndComp
$Comp
L Crystal Y?
U 1 1 5AB2859D
P 9350 4750
F 0 "Y?" H 9350 4900 50  0000 C CNN
F 1 "XTAL32K" H 9350 4600 50  0000 C CNN
F 2 "Crystals:Resonator_SMD-3pin_7.2x3.0mm_HandSoldering" H 9350 4750 50  0001 C CNN
F 3 "" H 9350 4750 50  0001 C CNN
	1    9350 4750
	-1   0    0    1   
$EndComp
$Comp
L GND #PWR?
U 1 1 5AB285E8
P 1600 2000
F 0 "#PWR?" H 1600 1750 50  0001 C CNN
F 1 "GND" H 1600 1850 50  0000 C CNN
F 2 "" H 1600 2000 50  0001 C CNN
F 3 "" H 1600 2000 50  0001 C CNN
	1    1600 2000
	1    0    0    -1  
$EndComp
$Comp
L GND #PWR?
U 1 1 5AB2862C
P 3800 2000
F 0 "#PWR?" H 3800 1750 50  0001 C CNN
F 1 "GND" H 3800 1850 50  0000 C CNN
F 2 "" H 3800 2000 50  0001 C CNN
F 3 "" H 3800 2000 50  0001 C CNN
	1    3800 2000
	1    0    0    -1  
$EndComp
$Comp
L GND #PWR?
U 1 1 5AB2866E
P 5300 2900
F 0 "#PWR?" H 5300 2650 50  0001 C CNN
F 1 "GND" H 5300 2750 50  0000 C CNN
F 2 "" H 5300 2900 50  0001 C CNN
F 3 "" H 5300 2900 50  0001 C CNN
	1    5300 2900
	1    0    0    -1  
$EndComp
$Comp
L GND #PWR?
U 1 1 5AB286B0
P 4800 2700
F 0 "#PWR?" H 4800 2450 50  0001 C CNN
F 1 "GND" H 4800 2550 50  0000 C CNN
F 2 "" H 4800 2700 50  0001 C CNN
F 3 "" H 4800 2700 50  0001 C CNN
	1    4800 2700
	1    0    0    -1  
$EndComp
$Comp
L GND #PWR?
U 1 1 5AB286F2
P 6000 2950
F 0 "#PWR?" H 6000 2700 50  0001 C CNN
F 1 "GND" H 6000 2800 50  0000 C CNN
F 2 "" H 6000 2950 50  0001 C CNN
F 3 "" H 6000 2950 50  0001 C CNN
	1    6000 2950
	1    0    0    -1  
$EndComp
$Comp
L GND #PWR?
U 1 1 5AB28734
P 7300 2950
F 0 "#PWR?" H 7300 2700 50  0001 C CNN
F 1 "GND" H 7300 2800 50  0000 C CNN
F 2 "" H 7300 2950 50  0001 C CNN
F 3 "" H 7300 2950 50  0001 C CNN
	1    7300 2950
	1    0    0    -1  
$EndComp
$Comp
L GND #PWR?
U 1 1 5AB28776
P 5750 3900
F 0 "#PWR?" H 5750 3650 50  0001 C CNN
F 1 "GND" H 5750 3750 50  0000 C CNN
F 2 "" H 5750 3900 50  0001 C CNN
F 3 "" H 5750 3900 50  0001 C CNN
	1    5750 3900
	1    0    0    -1  
$EndComp
$Comp
L GND #PWR?
U 1 1 5AB287B8
P 7800 5300
F 0 "#PWR?" H 7800 5050 50  0001 C CNN
F 1 "GND" H 7800 5150 50  0000 C CNN
F 2 "" H 7800 5300 50  0001 C CNN
F 3 "" H 7800 5300 50  0001 C CNN
	1    7800 5300
	1    0    0    -1  
$EndComp
$Comp
L GND #PWR?
U 1 1 5AB287FA
P 8400 5300
F 0 "#PWR?" H 8400 5050 50  0001 C CNN
F 1 "GND" H 8400 5150 50  0000 C CNN
F 2 "" H 8400 5300 50  0001 C CNN
F 3 "" H 8400 5300 50  0001 C CNN
	1    8400 5300
	1    0    0    -1  
$EndComp
$Comp
L GND #PWR?
U 1 1 5AB2883C
P 9050 5250
F 0 "#PWR?" H 9050 5000 50  0001 C CNN
F 1 "GND" H 9050 5100 50  0000 C CNN
F 2 "" H 9050 5250 50  0001 C CNN
F 3 "" H 9050 5250 50  0001 C CNN
	1    9050 5250
	1    0    0    -1  
$EndComp
$Comp
L GND #PWR?
U 1 1 5AB2887E
P 9650 5250
F 0 "#PWR?" H 9650 5000 50  0001 C CNN
F 1 "GND" H 9650 5100 50  0000 C CNN
F 2 "" H 9650 5250 50  0001 C CNN
F 3 "" H 9650 5250 50  0001 C CNN
	1    9650 5250
	1    0    0    -1  
$EndComp
$Comp
L GND #PWR?
U 1 1 5AB288C0
P 4850 4500
F 0 "#PWR?" H 4850 4250 50  0001 C CNN
F 1 "GND" H 4850 4350 50  0000 C CNN
F 2 "" H 4850 4500 50  0001 C CNN
F 3 "" H 4850 4500 50  0001 C CNN
	1    4850 4500
	1    0    0    -1  
$EndComp
$Comp
L GND #PWR?
U 1 1 5AB28902
P 4150 4500
F 0 "#PWR?" H 4150 4250 50  0001 C CNN
F 1 "GND" H 4150 4350 50  0000 C CNN
F 2 "" H 4150 4500 50  0001 C CNN
F 3 "" H 4150 4500 50  0001 C CNN
	1    4150 4500
	1    0    0    -1  
$EndComp
$Comp
L GND #PWR?
U 1 1 5AB28944
P 1350 4450
F 0 "#PWR?" H 1350 4200 50  0001 C CNN
F 1 "GND" H 1350 4300 50  0000 C CNN
F 2 "" H 1350 4450 50  0001 C CNN
F 3 "" H 1350 4450 50  0001 C CNN
	1    1350 4450
	1    0    0    -1  
$EndComp
$Comp
L BLE_ANTENNA A?
U 1 1 5AB28D3E
P 8200 1800
F 0 "A?" H 8050 1850 60  0000 C CNN
F 1 "BLE_ANTENNA" H 8450 1800 60  0000 C CNN
F 2 "ble_controller:ANTENNA" H 8200 1800 60  0001 C CNN
F 3 "" H 8200 1800 60  0001 C CNN
	1    8200 1800
	1    0    0    -1  
$EndComp
$Comp
L C_Small C?
U 1 1 5AB28EDB
P 1800 1650
F 0 "C?" H 1810 1720 50  0000 L CNN
F 1 "1uF" H 1810 1570 50  0000 L CNN
F 2 "" H 1800 1650 50  0001 C CNN
F 3 "" H 1800 1650 50  0001 C CNN
	1    1800 1650
	0    1    1    0   
$EndComp
$Comp
L C_Small C?
U 1 1 5AB28F74
P 1800 1900
F 0 "C?" H 1810 1970 50  0000 L CNN
F 1 "1uF" H 1810 1820 50  0000 L CNN
F 2 "" H 1800 1900 50  0001 C CNN
F 3 "" H 1800 1900 50  0001 C CNN
	1    1800 1900
	0    1    1    0   
$EndComp
$Comp
L C_Small C?
U 1 1 5AB28FCF
P 3600 1850
F 0 "C?" H 3610 1920 50  0000 L CNN
F 1 "100nF" H 3610 1770 50  0000 L CNN
F 2 "" H 3600 1850 50  0001 C CNN
F 3 "" H 3600 1850 50  0001 C CNN
	1    3600 1850
	0    1    1    0   
$EndComp
$Comp
L C_Small C?
U 1 1 5AB2901E
P 5250 3250
F 0 "C?" H 5260 3320 50  0000 L CNN
F 1 "18pF" H 5260 3170 50  0000 L CNN
F 2 "" H 5250 3250 50  0001 C CNN
F 3 "" H 5250 3250 50  0001 C CNN
	1    5250 3250
	0    1    1    0   
$EndComp
$Comp
L C_Small C?
U 1 1 5AB290E3
P 5250 3450
F 0 "C?" H 5260 3520 50  0000 L CNN
F 1 "18pF" H 5260 3370 50  0000 L CNN
F 2 "" H 5250 3450 50  0001 C CNN
F 3 "" H 5250 3450 50  0001 C CNN
	1    5250 3450
	0    1    1    0   
$EndComp
$Comp
L C_Small C?
U 1 1 5AB2913A
P 6050 3400
F 0 "C?" H 6060 3470 50  0000 L CNN
F 1 "1pF" H 6060 3320 50  0000 L CNN
F 2 "" H 6050 3400 50  0001 C CNN
F 3 "" H 6050 3400 50  0001 C CNN
	1    6050 3400
	0    1    1    0   
$EndComp
$Comp
L C_Small C?
U 1 1 5AB291F9
P 5300 2650
F 0 "C?" H 5310 2720 50  0000 L CNN
F 1 "100nF" H 5310 2570 50  0000 L CNN
F 2 "" H 5300 2650 50  0001 C CNN
F 3 "" H 5300 2650 50  0001 C CNN
	1    5300 2650
	-1   0    0    1   
$EndComp
$Comp
L C_Small C?
U 1 1 5AB292C4
P 5550 2650
F 0 "C?" H 5560 2720 50  0000 L CNN
F 1 "220pF" H 5560 2570 50  0000 L CNN
F 2 "" H 5550 2650 50  0001 C CNN
F 3 "" H 5550 2650 50  0001 C CNN
	1    5550 2650
	-1   0    0    1   
$EndComp
$Comp
L C_Small C?
U 1 1 5AB29323
P 6000 2700
F 0 "C?" H 6010 2770 50  0000 L CNN
F 1 "1pF" H 6010 2620 50  0000 L CNN
F 2 "" H 6000 2700 50  0001 C CNN
F 3 "" H 6000 2700 50  0001 C CNN
	1    6000 2700
	-1   0    0    1   
$EndComp
$Comp
L C_Small C?
U 1 1 5AB2939C
P 7300 2700
F 0 "C?" H 7310 2770 50  0000 L CNN
F 1 "1pF" H 7310 2620 50  0000 L CNN
F 2 "" H 7300 2700 50  0001 C CNN
F 3 "" H 7300 2700 50  0001 C CNN
	1    7300 2700
	-1   0    0    1   
$EndComp
$Comp
L C_Small C?
U 1 1 5AB29401
P 9650 5000
F 0 "C?" H 9660 5070 50  0000 L CNN
F 1 "15pF" H 9660 4920 50  0000 L CNN
F 2 "" H 9650 5000 50  0001 C CNN
F 3 "" H 9650 5000 50  0001 C CNN
	1    9650 5000
	-1   0    0    1   
$EndComp
$Comp
L C_Small C?
U 1 1 5AB2946E
P 9050 5000
F 0 "C?" H 9060 5070 50  0000 L CNN
F 1 "15pF" H 9060 4920 50  0000 L CNN
F 2 "" H 9050 5000 50  0001 C CNN
F 3 "" H 9050 5000 50  0001 C CNN
	1    9050 5000
	-1   0    0    1   
$EndComp
$Comp
L C_Small C?
U 1 1 5AB294CF
P 8400 5000
F 0 "C?" H 8410 5070 50  0000 L CNN
F 1 "12pF" H 8410 4920 50  0000 L CNN
F 2 "" H 8400 5000 50  0001 C CNN
F 3 "" H 8400 5000 50  0001 C CNN
	1    8400 5000
	-1   0    0    1   
$EndComp
$Comp
L C_Small C?
U 1 1 5AB29532
P 7800 5000
F 0 "C?" H 7810 5070 50  0000 L CNN
F 1 "12pF" H 7810 4920 50  0000 L CNN
F 2 "" H 7800 5000 50  0001 C CNN
F 3 "" H 7800 5000 50  0001 C CNN
	1    7800 5000
	-1   0    0    1   
$EndComp
$Comp
L C_Small C?
U 1 1 5AB2959B
P 4850 4200
F 0 "C?" H 4860 4270 50  0000 L CNN
F 1 "100nF" H 4860 4120 50  0000 L CNN
F 2 "" H 4850 4200 50  0001 C CNN
F 3 "" H 4850 4200 50  0001 C CNN
	1    4850 4200
	-1   0    0    1   
$EndComp
$Comp
L C_Small C?
U 1 1 5AB29604
P 4150 4200
F 0 "C?" H 4160 4270 50  0000 L CNN
F 1 "100nF" H 4160 4120 50  0000 L CNN
F 2 "" H 4150 4200 50  0001 C CNN
F 3 "" H 4150 4200 50  0001 C CNN
	1    4150 4200
	-1   0    0    1   
$EndComp
$Comp
L C_Small C?
U 1 1 5AB29673
P 1350 4200
F 0 "C?" H 1360 4270 50  0000 L CNN
F 1 "100nF" H 1360 4120 50  0000 L CNN
F 2 "" H 1350 4200 50  0001 C CNN
F 3 "" H 1350 4200 50  0001 C CNN
	1    1350 4200
	-1   0    0    1   
$EndComp
Text Label 2050 1650 0    60   ~ 0
VCC
$Comp
L GND #PWR?
U 1 1 5AB2B8D0
P 1200 2700
F 0 "#PWR?" H 1200 2450 50  0001 C CNN
F 1 "GND" H 1200 2550 50  0000 C CNN
F 2 "" H 1200 2700 50  0001 C CNN
F 3 "" H 1200 2700 50  0001 C CNN
	1    1200 2700
	1    0    0    -1  
$EndComp
Text Label 4050 4000 0    60   ~ 0
VCC
Text Label 4700 3550 0    60   ~ 0
VCC
$Comp
L VCC #PWR?
U 1 1 5AB2D99B
P 3400 1600
F 0 "#PWR?" H 3400 1450 50  0001 C CNN
F 1 "VCC" H 3400 1750 50  0000 C CNN
F 2 "" H 3400 1600 50  0001 C CNN
F 3 "" H 3400 1600 50  0001 C CNN
	1    3400 1600
	1    0    0    -1  
$EndComp
$Comp
L VCC #PWR?
U 1 1 5AB2E10C
P 5000 2150
F 0 "#PWR?" H 5000 2000 50  0001 C CNN
F 1 "VCC" H 5000 2300 50  0000 C CNN
F 2 "" H 5000 2150 50  0001 C CNN
F 3 "" H 5000 2150 50  0001 C CNN
	1    5000 2150
	1    0    0    -1  
$EndComp
Wire Wire Line
	1900 1650 2200 1650
Wire Wire Line
	2200 1650 2200 2000
Wire Wire Line
	2050 2000 2050 1900
Wire Wire Line
	2050 1900 1900 1900
Wire Wire Line
	1700 1650 1600 1650
Wire Wire Line
	1600 1650 1600 2000
Wire Wire Line
	1700 1900 1600 1900
Connection ~ 1600 1900
Wire Wire Line
	1500 2650 1200 2650
Wire Wire Line
	1200 2650 1200 2700
Wire Wire Line
	1350 4100 1350 4000
Wire Wire Line
	1350 4000 1500 4000
Wire Wire Line
	1350 4300 1350 4450
Wire Wire Line
	4150 4500 4150 4300
Wire Wire Line
	4150 4100 4150 4000
Wire Wire Line
	4150 4000 4000 4000
Wire Wire Line
	4850 4500 4850 4300
Wire Wire Line
	4850 4100 4850 3550
Wire Wire Line
	4850 3550 4000 3550
Wire Wire Line
	5150 3250 4000 3250
Wire Wire Line
	5750 3750 5750 3900
Wire Wire Line
	5750 3450 5750 3400
Wire Wire Line
	5350 3400 5950 3400
Connection ~ 5750 3400
Wire Wire Line
	3800 2000 3800 1850
Wire Wire Line
	3800 1850 3700 1850
Wire Wire Line
	3500 1850 3400 1850
Wire Wire Line
	3400 1600 3400 2000
Connection ~ 3400 1850
Wire Wire Line
	4600 2650 4800 2650
Wire Wire Line
	4800 2650 4800 2700
Wire Wire Line
	4300 2650 4000 2650
Wire Wire Line
	5300 2750 5300 2900
Wire Wire Line
	5550 2750 5550 2800
Wire Wire Line
	5550 2800 5300 2800
Connection ~ 5300 2800
Wire Wire Line
	4200 2800 4000 2800
Wire Wire Line
	4200 2950 4000 2950
Wire Wire Line
	5000 3100 4000 3100
Wire Wire Line
	4200 2800 4200 3100
Connection ~ 4200 2950
Wire Wire Line
	5000 2150 5000 3100
Connection ~ 4200 3100
Wire Wire Line
	5000 2500 5550 2500
Connection ~ 5000 2500
Connection ~ 5300 2500
Wire Wire Line
	6000 2800 6000 2950
Wire Wire Line
	6000 2600 6000 2550
Wire Wire Line
	5750 2550 6250 2550
Wire Wire Line
	5750 2550 5750 3250
Wire Wire Line
	5750 3250 5350 3250
Connection ~ 6000 2550
Wire Wire Line
	6550 2550 6750 2550
Wire Wire Line
	6650 2550 6650 3400
Wire Wire Line
	6650 3400 6150 3400
Connection ~ 6650 2550
Wire Wire Line
	7050 2550 7500 2550
Wire Wire Line
	7300 2550 7300 2600
Connection ~ 7300 2550
Wire Wire Line
	7800 2550 8200 2550
Wire Wire Line
	8200 2550 8200 2250
Wire Wire Line
	7300 2800 7300 2950
$Comp
L GND #PWR?
U 1 1 5AB2F56D
P 8050 2350
F 0 "#PWR?" H 8050 2100 50  0001 C CNN
F 1 "GND" H 8050 2200 50  0000 C CNN
F 2 "" H 8050 2350 50  0001 C CNN
F 3 "" H 8050 2350 50  0001 C CNN
	1    8050 2350
	1    0    0    -1  
$EndComp
Wire Wire Line
	8050 2250 8050 2350
Text GLabel 4000 3700 2    60   Input ~ 0
XOSC32M_2
Text GLabel 4000 3850 2    60   Input ~ 0
XOSC32M_1
Text GLabel 3100 2000 1    60   Input ~ 0
XOSC32K_2
Text GLabel 3250 2000 1    60   Input ~ 0
XOSC32K_1
Text GLabel 2950 2000 1    60   Input ~ 0
DC
Text GLabel 2800 2000 1    60   Input ~ 0
DD
Text GLabel 1500 3700 0    60   Input ~ 0
TP1
Text GLabel 1500 3850 0    60   Input ~ 0
TP2
Text GLabel 2150 4600 3    60   Input ~ 0
/BYPASS
Text GLabel 2300 4600 3    60   Input ~ 0
WAKE
Text GLabel 2750 4600 3    60   Input ~ 0
CC2541_TXD
Text GLabel 2900 4600 3    60   Input ~ 0
CC2541_RXD
Text GLabel 3200 4600 3    60   Input ~ 0
TP3/KEY
Text GLabel 3350 4600 3    60   Input ~ 0
RSTN
NoConn ~ 2350 2000
NoConn ~ 2500 2000
NoConn ~ 2650 2000
NoConn ~ 1500 2800
NoConn ~ 1500 2950
NoConn ~ 1500 3100
NoConn ~ 1500 3250
NoConn ~ 1500 3400
NoConn ~ 1500 3550
NoConn ~ 2600 4600
NoConn ~ 2450 4600
NoConn ~ 2000 4600
NoConn ~ 3050 4600
Wire Wire Line
	5350 3450 5350 3400
Wire Wire Line
	5150 3450 5000 3450
Wire Wire Line
	5000 3450 5000 3400
Wire Wire Line
	5000 3400 4000 3400
Wire Wire Line
	5300 2500 5300 2550
Wire Wire Line
	5550 2500 5550 2550
Wire Wire Line
	7800 5100 7800 5300
Wire Wire Line
	8400 5100 8400 5300
Wire Wire Line
	8400 4150 8400 4900
Wire Wire Line
	7950 4750 7800 4750
Wire Wire Line
	7800 4150 7800 4900
Connection ~ 7800 4750
Connection ~ 8400 4750
Wire Wire Line
	8250 4750 8400 4750
Wire Wire Line
	9050 4750 9200 4750
Wire Wire Line
	9500 4750 9650 4750
Wire Wire Line
	9050 4150 9050 4900
Wire Wire Line
	9650 4150 9650 4900
Wire Wire Line
	9050 5250 9050 5100
Wire Wire Line
	9650 5250 9650 5100
Connection ~ 9050 4750
Connection ~ 9650 4750
Text GLabel 7800 4150 1    60   Input ~ 0
XOSC32M_1
Text GLabel 8400 4150 1    60   Input ~ 0
XOSC32M_2
Text GLabel 9050 4150 1    60   Input ~ 0
XOSC32K_1
Text GLabel 9650 4150 1    60   Input ~ 0
XOSC32K_2
Text Label 7900 4750 0    60   ~ 0
1
Text Label 8250 4750 0    60   ~ 0
2
Text Label 9150 4750 0    60   ~ 0
4
Text Label 9500 4750 0    60   ~ 0
1
$EndSCHEMATC
