EESchema Schematic File Version 2
LIBS:keyboard
LIBS:power
LIBS:device
LIBS:transistors
LIBS:conn
LIBS:linear
LIBS:regul
LIBS:74xx
LIBS:cmos4000
LIBS:adc-dac
LIBS:memory
LIBS:xilinx
LIBS:microcontrollers
LIBS:dsp
LIBS:microchip
LIBS:analog_switches
LIBS:motorola
LIBS:texas
LIBS:intel
LIBS:audio
LIBS:interface
LIBS:digital-audio
LIBS:philips
LIBS:display
LIBS:cypress
LIBS:siliconi
LIBS:opto
LIBS:atmel
LIBS:contrib
LIBS:valves
LIBS:104-key-cache
EELAYER 25 0
EELAYER END
$Descr A4 11693 8268
encoding utf-8
Sheet 1 1
Title ""
Date ""
Rev ""
Comp ""
Comment1 ""
Comment2 ""
Comment3 ""
Comment4 ""
$EndDescr
$Comp
L MX SW?
U 1 1 593BCF07
P 1750 1550
F 0 "SW?" H 1750 1450 60  0000 C CNN
F 1 "MX" H 1750 1600 60  0000 C CNN
F 2 "" H 1500 1720 60  0001 C CNN
F 3 "" H 1500 1720 60  0001 C CNN
	1    1750 1550
	1    0    0    -1  
$EndComp
$Comp
L MX SW?
U 1 1 593BEDDD
P 1750 2100
F 0 "SW?" H 1750 2000 60  0000 C CNN
F 1 "MX" H 1750 2150 60  0000 C CNN
F 2 "" H 1500 2270 60  0001 C CNN
F 3 "" H 1500 2270 60  0001 C CNN
	1    1750 2100
	1    0    0    -1  
$EndComp
$Comp
L MX SW?
U 1 1 593BEE4D
P 1750 2650
F 0 "SW?" H 1750 2550 60  0000 C CNN
F 1 "MX" H 1750 2700 60  0000 C CNN
F 2 "" H 1500 2820 60  0001 C CNN
F 3 "" H 1500 2820 60  0001 C CNN
	1    1750 2650
	1    0    0    -1  
$EndComp
$Comp
L MX SW?
U 1 1 593BEE53
P 1750 3200
F 0 "SW?" H 1750 3100 60  0000 C CNN
F 1 "MX" H 1750 3250 60  0000 C CNN
F 2 "" H 1500 3370 60  0001 C CNN
F 3 "" H 1500 3370 60  0001 C CNN
	1    1750 3200
	1    0    0    -1  
$EndComp
$Comp
L MX SW?
U 1 1 593BEEF1
P 2350 1550
F 0 "SW?" H 2350 1450 60  0000 C CNN
F 1 "MX" H 2350 1600 60  0000 C CNN
F 2 "" H 2100 1720 60  0001 C CNN
F 3 "" H 2100 1720 60  0001 C CNN
	1    2350 1550
	1    0    0    -1  
$EndComp
$Comp
L MX SW?
U 1 1 593BEEF7
P 2350 2100
F 0 "SW?" H 2350 2000 60  0000 C CNN
F 1 "MX" H 2350 2150 60  0000 C CNN
F 2 "" H 2100 2270 60  0001 C CNN
F 3 "" H 2100 2270 60  0001 C CNN
	1    2350 2100
	1    0    0    -1  
$EndComp
$Comp
L MX SW?
U 1 1 593BEEFD
P 2350 2650
F 0 "SW?" H 2350 2550 60  0000 C CNN
F 1 "MX" H 2350 2700 60  0000 C CNN
F 2 "" H 2100 2820 60  0001 C CNN
F 3 "" H 2100 2820 60  0001 C CNN
	1    2350 2650
	1    0    0    -1  
$EndComp
$Comp
L MX SW?
U 1 1 593BEF03
P 2350 3200
F 0 "SW?" H 2350 3100 60  0000 C CNN
F 1 "MX" H 2350 3250 60  0000 C CNN
F 2 "" H 2100 3370 60  0001 C CNN
F 3 "" H 2100 3370 60  0001 C CNN
	1    2350 3200
	1    0    0    -1  
$EndComp
$Comp
L MX SW?
U 1 1 593BF101
P 2950 1550
F 0 "SW?" H 2950 1450 60  0000 C CNN
F 1 "MX" H 2950 1600 60  0000 C CNN
F 2 "" H 2700 1720 60  0001 C CNN
F 3 "" H 2700 1720 60  0001 C CNN
	1    2950 1550
	1    0    0    -1  
$EndComp
$Comp
L MX SW?
U 1 1 593BF107
P 2950 2100
F 0 "SW?" H 2950 2000 60  0000 C CNN
F 1 "MX" H 2950 2150 60  0000 C CNN
F 2 "" H 2700 2270 60  0001 C CNN
F 3 "" H 2700 2270 60  0001 C CNN
	1    2950 2100
	1    0    0    -1  
$EndComp
$Comp
L MX SW?
U 1 1 593BF10D
P 2950 2650
F 0 "SW?" H 2950 2550 60  0000 C CNN
F 1 "MX" H 2950 2700 60  0000 C CNN
F 2 "" H 2700 2820 60  0001 C CNN
F 3 "" H 2700 2820 60  0001 C CNN
	1    2950 2650
	1    0    0    -1  
$EndComp
$Comp
L MX SW?
U 1 1 593BF113
P 2950 3200
F 0 "SW?" H 2950 3100 60  0000 C CNN
F 1 "MX" H 2950 3250 60  0000 C CNN
F 2 "" H 2700 3370 60  0001 C CNN
F 3 "" H 2700 3370 60  0001 C CNN
	1    2950 3200
	1    0    0    -1  
$EndComp
$Comp
L MX SW?
U 1 1 593BF119
P 3550 1550
F 0 "SW?" H 3550 1450 60  0000 C CNN
F 1 "MX" H 3550 1600 60  0000 C CNN
F 2 "" H 3300 1720 60  0001 C CNN
F 3 "" H 3300 1720 60  0001 C CNN
	1    3550 1550
	1    0    0    -1  
$EndComp
$Comp
L MX SW?
U 1 1 593BF11F
P 3550 2100
F 0 "SW?" H 3550 2000 60  0000 C CNN
F 1 "MX" H 3550 2150 60  0000 C CNN
F 2 "" H 3300 2270 60  0001 C CNN
F 3 "" H 3300 2270 60  0001 C CNN
	1    3550 2100
	1    0    0    -1  
$EndComp
$Comp
L MX SW?
U 1 1 593BF125
P 3550 2650
F 0 "SW?" H 3550 2550 60  0000 C CNN
F 1 "MX" H 3550 2700 60  0000 C CNN
F 2 "" H 3300 2820 60  0001 C CNN
F 3 "" H 3300 2820 60  0001 C CNN
	1    3550 2650
	1    0    0    -1  
$EndComp
$Comp
L MX SW?
U 1 1 593BF12B
P 3550 3200
F 0 "SW?" H 3550 3100 60  0000 C CNN
F 1 "MX" H 3550 3250 60  0000 C CNN
F 2 "" H 3300 3370 60  0001 C CNN
F 3 "" H 3300 3370 60  0001 C CNN
	1    3550 3200
	1    0    0    -1  
$EndComp
$Comp
L MX SW?
U 1 1 593BF531
P 4150 1550
F 0 "SW?" H 4150 1450 60  0000 C CNN
F 1 "MX" H 4150 1600 60  0000 C CNN
F 2 "" H 3900 1720 60  0001 C CNN
F 3 "" H 3900 1720 60  0001 C CNN
	1    4150 1550
	1    0    0    -1  
$EndComp
$Comp
L MX SW?
U 1 1 593BF537
P 4150 2100
F 0 "SW?" H 4150 2000 60  0000 C CNN
F 1 "MX" H 4150 2150 60  0000 C CNN
F 2 "" H 3900 2270 60  0001 C CNN
F 3 "" H 3900 2270 60  0001 C CNN
	1    4150 2100
	1    0    0    -1  
$EndComp
$Comp
L MX SW?
U 1 1 593BF53D
P 4150 2650
F 0 "SW?" H 4150 2550 60  0000 C CNN
F 1 "MX" H 4150 2700 60  0000 C CNN
F 2 "" H 3900 2820 60  0001 C CNN
F 3 "" H 3900 2820 60  0001 C CNN
	1    4150 2650
	1    0    0    -1  
$EndComp
$Comp
L MX SW?
U 1 1 593BF543
P 4150 3200
F 0 "SW?" H 4150 3100 60  0000 C CNN
F 1 "MX" H 4150 3250 60  0000 C CNN
F 2 "" H 3900 3370 60  0001 C CNN
F 3 "" H 3900 3370 60  0001 C CNN
	1    4150 3200
	1    0    0    -1  
$EndComp
$Comp
L MX SW?
U 1 1 593BF549
P 4750 1550
F 0 "SW?" H 4750 1450 60  0000 C CNN
F 1 "MX" H 4750 1600 60  0000 C CNN
F 2 "" H 4500 1720 60  0001 C CNN
F 3 "" H 4500 1720 60  0001 C CNN
	1    4750 1550
	1    0    0    -1  
$EndComp
$Comp
L MX SW?
U 1 1 593BF54F
P 4750 2100
F 0 "SW?" H 4750 2000 60  0000 C CNN
F 1 "MX" H 4750 2150 60  0000 C CNN
F 2 "" H 4500 2270 60  0001 C CNN
F 3 "" H 4500 2270 60  0001 C CNN
	1    4750 2100
	1    0    0    -1  
$EndComp
$Comp
L MX SW?
U 1 1 593BF555
P 4750 2650
F 0 "SW?" H 4750 2550 60  0000 C CNN
F 1 "MX" H 4750 2700 60  0000 C CNN
F 2 "" H 4500 2820 60  0001 C CNN
F 3 "" H 4500 2820 60  0001 C CNN
	1    4750 2650
	1    0    0    -1  
$EndComp
$Comp
L MX SW?
U 1 1 593BF55B
P 4750 3200
F 0 "SW?" H 4750 3100 60  0000 C CNN
F 1 "MX" H 4750 3250 60  0000 C CNN
F 2 "" H 4500 3370 60  0001 C CNN
F 3 "" H 4500 3370 60  0001 C CNN
	1    4750 3200
	1    0    0    -1  
$EndComp
$Comp
L MX SW?
U 1 1 593BF561
P 5350 1550
F 0 "SW?" H 5350 1450 60  0000 C CNN
F 1 "MX" H 5350 1600 60  0000 C CNN
F 2 "" H 5100 1720 60  0001 C CNN
F 3 "" H 5100 1720 60  0001 C CNN
	1    5350 1550
	1    0    0    -1  
$EndComp
$Comp
L MX SW?
U 1 1 593BF567
P 5350 2100
F 0 "SW?" H 5350 2000 60  0000 C CNN
F 1 "MX" H 5350 2150 60  0000 C CNN
F 2 "" H 5100 2270 60  0001 C CNN
F 3 "" H 5100 2270 60  0001 C CNN
	1    5350 2100
	1    0    0    -1  
$EndComp
$Comp
L MX SW?
U 1 1 593BF56D
P 5350 2650
F 0 "SW?" H 5350 2550 60  0000 C CNN
F 1 "MX" H 5350 2700 60  0000 C CNN
F 2 "" H 5100 2820 60  0001 C CNN
F 3 "" H 5100 2820 60  0001 C CNN
	1    5350 2650
	1    0    0    -1  
$EndComp
$Comp
L MX SW?
U 1 1 593BF573
P 5350 3200
F 0 "SW?" H 5350 3100 60  0000 C CNN
F 1 "MX" H 5350 3250 60  0000 C CNN
F 2 "" H 5100 3370 60  0001 C CNN
F 3 "" H 5100 3370 60  0001 C CNN
	1    5350 3200
	1    0    0    -1  
$EndComp
$Comp
L MX SW?
U 1 1 593BF579
P 5950 1550
F 0 "SW?" H 5950 1450 60  0000 C CNN
F 1 "MX" H 5950 1600 60  0000 C CNN
F 2 "" H 5700 1720 60  0001 C CNN
F 3 "" H 5700 1720 60  0001 C CNN
	1    5950 1550
	1    0    0    -1  
$EndComp
$Comp
L MX SW?
U 1 1 593BF57F
P 5950 2100
F 0 "SW?" H 5950 2000 60  0000 C CNN
F 1 "MX" H 5950 2150 60  0000 C CNN
F 2 "" H 5700 2270 60  0001 C CNN
F 3 "" H 5700 2270 60  0001 C CNN
	1    5950 2100
	1    0    0    -1  
$EndComp
$Comp
L MX SW?
U 1 1 593BF585
P 5950 2650
F 0 "SW?" H 5950 2550 60  0000 C CNN
F 1 "MX" H 5950 2700 60  0000 C CNN
F 2 "" H 5700 2820 60  0001 C CNN
F 3 "" H 5700 2820 60  0001 C CNN
	1    5950 2650
	1    0    0    -1  
$EndComp
$Comp
L MX SW?
U 1 1 593BF58B
P 5950 3200
F 0 "SW?" H 5950 3100 60  0000 C CNN
F 1 "MX" H 5950 3250 60  0000 C CNN
F 2 "" H 5700 3370 60  0001 C CNN
F 3 "" H 5700 3370 60  0001 C CNN
	1    5950 3200
	1    0    0    -1  
$EndComp
$Comp
L MX SW?
U 1 1 593BF679
P 6550 1550
F 0 "SW?" H 6550 1450 60  0000 C CNN
F 1 "MX" H 6550 1600 60  0000 C CNN
F 2 "" H 6300 1720 60  0001 C CNN
F 3 "" H 6300 1720 60  0001 C CNN
	1    6550 1550
	1    0    0    -1  
$EndComp
$Comp
L MX SW?
U 1 1 593BF67F
P 6550 2100
F 0 "SW?" H 6550 2000 60  0000 C CNN
F 1 "MX" H 6550 2150 60  0000 C CNN
F 2 "" H 6300 2270 60  0001 C CNN
F 3 "" H 6300 2270 60  0001 C CNN
	1    6550 2100
	1    0    0    -1  
$EndComp
$Comp
L MX SW?
U 1 1 593BF685
P 6550 2650
F 0 "SW?" H 6550 2550 60  0000 C CNN
F 1 "MX" H 6550 2700 60  0000 C CNN
F 2 "" H 6300 2820 60  0001 C CNN
F 3 "" H 6300 2820 60  0001 C CNN
	1    6550 2650
	1    0    0    -1  
$EndComp
$Comp
L MX SW?
U 1 1 593BF68B
P 6550 3200
F 0 "SW?" H 6550 3100 60  0000 C CNN
F 1 "MX" H 6550 3250 60  0000 C CNN
F 2 "" H 6300 3370 60  0001 C CNN
F 3 "" H 6300 3370 60  0001 C CNN
	1    6550 3200
	1    0    0    -1  
$EndComp
$Comp
L MX SW?
U 1 1 593C03F9
P 2000 900
F 0 "SW?" H 2000 800 60  0000 C CNN
F 1 "MX" H 2000 950 60  0000 C CNN
F 2 "" H 1750 1070 60  0001 C CNN
F 3 "" H 1750 1070 60  0001 C CNN
	1    2000 900 
	1    0    0    -1  
$EndComp
$Comp
L MX SW?
U 1 1 593C03FF
P 2600 900
F 0 "SW?" H 2600 800 60  0000 C CNN
F 1 "MX" H 2600 950 60  0000 C CNN
F 2 "" H 2350 1070 60  0001 C CNN
F 3 "" H 2350 1070 60  0001 C CNN
	1    2600 900 
	1    0    0    -1  
$EndComp
$Comp
L MX SW?
U 1 1 593C0405
P 3200 900
F 0 "SW?" H 3200 800 60  0000 C CNN
F 1 "MX" H 3200 950 60  0000 C CNN
F 2 "" H 2950 1070 60  0001 C CNN
F 3 "" H 2950 1070 60  0001 C CNN
	1    3200 900 
	1    0    0    -1  
$EndComp
$Comp
L MX SW?
U 1 1 593C040B
P 3800 900
F 0 "SW?" H 3800 800 60  0000 C CNN
F 1 "MX" H 3800 950 60  0000 C CNN
F 2 "" H 3550 1070 60  0001 C CNN
F 3 "" H 3550 1070 60  0001 C CNN
	1    3800 900 
	1    0    0    -1  
$EndComp
$Comp
L MX SW?
U 1 1 593C0669
P 4550 900
F 0 "SW?" H 4550 800 60  0000 C CNN
F 1 "MX" H 4550 950 60  0000 C CNN
F 2 "" H 4300 1070 60  0001 C CNN
F 3 "" H 4300 1070 60  0001 C CNN
	1    4550 900 
	1    0    0    -1  
$EndComp
$Comp
L MX SW?
U 1 1 593C066F
P 5150 900
F 0 "SW?" H 5150 800 60  0000 C CNN
F 1 "MX" H 5150 950 60  0000 C CNN
F 2 "" H 4900 1070 60  0001 C CNN
F 3 "" H 4900 1070 60  0001 C CNN
	1    5150 900 
	1    0    0    -1  
$EndComp
$Comp
L MX SW?
U 1 1 593C0675
P 5750 900
F 0 "SW?" H 5750 800 60  0000 C CNN
F 1 "MX" H 5750 950 60  0000 C CNN
F 2 "" H 5500 1070 60  0001 C CNN
F 3 "" H 5500 1070 60  0001 C CNN
	1    5750 900 
	1    0    0    -1  
$EndComp
$Comp
L MX SW?
U 1 1 593C067B
P 6350 900
F 0 "SW?" H 6350 800 60  0000 C CNN
F 1 "MX" H 6350 950 60  0000 C CNN
F 2 "" H 6100 1070 60  0001 C CNN
F 3 "" H 6100 1070 60  0001 C CNN
	1    6350 900 
	1    0    0    -1  
$EndComp
$Comp
L MX SW?
U 1 1 593C08C9
P 7150 900
F 0 "SW?" H 7150 800 60  0000 C CNN
F 1 "MX" H 7150 950 60  0000 C CNN
F 2 "" H 6900 1070 60  0001 C CNN
F 3 "" H 6900 1070 60  0001 C CNN
	1    7150 900 
	1    0    0    -1  
$EndComp
$Comp
L MX SW?
U 1 1 593C08CF
P 7750 900
F 0 "SW?" H 7750 800 60  0000 C CNN
F 1 "MX" H 7750 950 60  0000 C CNN
F 2 "" H 7500 1070 60  0001 C CNN
F 3 "" H 7500 1070 60  0001 C CNN
	1    7750 900 
	1    0    0    -1  
$EndComp
$Comp
L MX SW?
U 1 1 593C08D5
P 8350 900
F 0 "SW?" H 8350 800 60  0000 C CNN
F 1 "MX" H 8350 950 60  0000 C CNN
F 2 "" H 8100 1070 60  0001 C CNN
F 3 "" H 8100 1070 60  0001 C CNN
	1    8350 900 
	1    0    0    -1  
$EndComp
$Comp
L MX SW?
U 1 1 593C08DB
P 8950 900
F 0 "SW?" H 8950 800 60  0000 C CNN
F 1 "MX" H 8950 950 60  0000 C CNN
F 2 "" H 8700 1070 60  0001 C CNN
F 3 "" H 8700 1070 60  0001 C CNN
	1    8950 900 
	1    0    0    -1  
$EndComp
$Comp
L MX SW?
U 1 1 593C0C49
P 1150 1550
F 0 "SW?" H 1150 1450 60  0000 C CNN
F 1 "MX" H 1150 1600 60  0000 C CNN
F 2 "" H 900 1720 60  0001 C CNN
F 3 "" H 900 1720 60  0001 C CNN
	1    1150 1550
	1    0    0    -1  
$EndComp
$Comp
L MX SW?
U 1 1 593C0C4F
P 1150 2100
F 0 "SW?" H 1150 2000 60  0000 C CNN
F 1 "MX" H 1150 2150 60  0000 C CNN
F 2 "" H 900 2270 60  0001 C CNN
F 3 "" H 900 2270 60  0001 C CNN
	1    1150 2100
	1    0    0    -1  
$EndComp
$Comp
L MX SW?
U 1 1 593C0C55
P 1150 2650
F 0 "SW?" H 1150 2550 60  0000 C CNN
F 1 "MX" H 1150 2700 60  0000 C CNN
F 2 "" H 900 2820 60  0001 C CNN
F 3 "" H 900 2820 60  0001 C CNN
	1    1150 2650
	1    0    0    -1  
$EndComp
$Comp
L MX SW?
U 1 1 593C0C5B
P 1150 3200
F 0 "SW?" H 1150 3100 60  0000 C CNN
F 1 "MX" H 1150 3250 60  0000 C CNN
F 2 "" H 900 3370 60  0001 C CNN
F 3 "" H 900 3370 60  0001 C CNN
	1    1150 3200
	1    0    0    -1  
$EndComp
$Comp
L MX SW?
U 1 1 593C0FB7
P 1150 3750
F 0 "SW?" H 1150 3650 60  0000 C CNN
F 1 "MX" H 1150 3800 60  0000 C CNN
F 2 "" H 900 3920 60  0001 C CNN
F 3 "" H 900 3920 60  0001 C CNN
	1    1150 3750
	1    0    0    -1  
$EndComp
$Comp
L MX SW?
U 1 1 593C0FBD
P 1750 3750
F 0 "SW?" H 1750 3650 60  0000 C CNN
F 1 "MX" H 1750 3800 60  0000 C CNN
F 2 "" H 1500 3920 60  0001 C CNN
F 3 "" H 1500 3920 60  0001 C CNN
	1    1750 3750
	1    0    0    -1  
$EndComp
$Comp
L MX SW?
U 1 1 593C0FC3
P 2350 3750
F 0 "SW?" H 2350 3650 60  0000 C CNN
F 1 "MX" H 2350 3800 60  0000 C CNN
F 2 "" H 2100 3920 60  0001 C CNN
F 3 "" H 2100 3920 60  0001 C CNN
	1    2350 3750
	1    0    0    -1  
$EndComp
$Comp
L MX SW?
U 1 1 593C12AE
P 7150 1550
F 0 "SW?" H 7150 1450 60  0000 C CNN
F 1 "MX" H 7150 1600 60  0000 C CNN
F 2 "" H 6900 1720 60  0001 C CNN
F 3 "" H 6900 1720 60  0001 C CNN
	1    7150 1550
	1    0    0    -1  
$EndComp
$Comp
L MX SW?
U 1 1 593C12B4
P 7150 2100
F 0 "SW?" H 7150 2000 60  0000 C CNN
F 1 "MX" H 7150 2150 60  0000 C CNN
F 2 "" H 6900 2270 60  0001 C CNN
F 3 "" H 6900 2270 60  0001 C CNN
	1    7150 2100
	1    0    0    -1  
$EndComp
$Comp
L MX SW?
U 1 1 593C12BA
P 7150 2650
F 0 "SW?" H 7150 2550 60  0000 C CNN
F 1 "MX" H 7150 2700 60  0000 C CNN
F 2 "" H 6900 2820 60  0001 C CNN
F 3 "" H 6900 2820 60  0001 C CNN
	1    7150 2650
	1    0    0    -1  
$EndComp
$Comp
L MX SW?
U 1 1 593C12C0
P 7150 3200
F 0 "SW?" H 7150 3100 60  0000 C CNN
F 1 "MX" H 7150 3250 60  0000 C CNN
F 2 "" H 6900 3370 60  0001 C CNN
F 3 "" H 6900 3370 60  0001 C CNN
	1    7150 3200
	1    0    0    -1  
$EndComp
$Comp
L MX SW?
U 1 1 593C13EF
P 7750 1550
F 0 "SW?" H 7750 1450 60  0000 C CNN
F 1 "MX" H 7750 1600 60  0000 C CNN
F 2 "" H 7500 1720 60  0001 C CNN
F 3 "" H 7500 1720 60  0001 C CNN
	1    7750 1550
	1    0    0    -1  
$EndComp
$Comp
L MX SW?
U 1 1 593C13F5
P 7750 2100
F 0 "SW?" H 7750 2000 60  0000 C CNN
F 1 "MX" H 7750 2150 60  0000 C CNN
F 2 "" H 7500 2270 60  0001 C CNN
F 3 "" H 7500 2270 60  0001 C CNN
	1    7750 2100
	1    0    0    -1  
$EndComp
$Comp
L MX SW?
U 1 1 593C13FB
P 7750 2650
F 0 "SW?" H 7750 2550 60  0000 C CNN
F 1 "MX" H 7750 2700 60  0000 C CNN
F 2 "" H 7500 2820 60  0001 C CNN
F 3 "" H 7500 2820 60  0001 C CNN
	1    7750 2650
	1    0    0    -1  
$EndComp
$Comp
L MX SW?
U 1 1 593C1401
P 8950 3750
F 0 "SW?" H 8950 3650 60  0000 C CNN
F 1 "MX" H 8950 3800 60  0000 C CNN
F 2 "" H 8700 3920 60  0001 C CNN
F 3 "" H 8700 3920 60  0001 C CNN
	1    8950 3750
	1    0    0    -1  
$EndComp
$Comp
L MX SW?
U 1 1 593C1541
P 8350 1550
F 0 "SW?" H 8350 1450 60  0000 C CNN
F 1 "MX" H 8350 1600 60  0000 C CNN
F 2 "" H 8100 1720 60  0001 C CNN
F 3 "" H 8100 1720 60  0001 C CNN
	1    8350 1550
	1    0    0    -1  
$EndComp
$Comp
L MX SW?
U 1 1 593C1547
P 8350 2100
F 0 "SW?" H 8350 2000 60  0000 C CNN
F 1 "MX" H 8350 2150 60  0000 C CNN
F 2 "" H 8100 2270 60  0001 C CNN
F 3 "" H 8100 2270 60  0001 C CNN
	1    8350 2100
	1    0    0    -1  
$EndComp
$Comp
L MX SW?
U 1 1 593C190A
P 8950 1550
F 0 "SW?" H 8950 1450 60  0000 C CNN
F 1 "MX" H 8950 1600 60  0000 C CNN
F 2 "" H 8700 1720 60  0001 C CNN
F 3 "" H 8700 1720 60  0001 C CNN
	1    8950 1550
	1    0    0    -1  
$EndComp
$Comp
L MX SW?
U 1 1 593C1910
P 8950 2100
F 0 "SW?" H 8950 2000 60  0000 C CNN
F 1 "MX" H 8950 2150 60  0000 C CNN
F 2 "" H 8700 2270 60  0001 C CNN
F 3 "" H 8700 2270 60  0001 C CNN
	1    8950 2100
	1    0    0    -1  
$EndComp
$Comp
L MX SW?
U 1 1 593C1916
P 8950 2650
F 0 "SW?" H 8950 2550 60  0000 C CNN
F 1 "MX" H 8950 2700 60  0000 C CNN
F 2 "" H 8700 2820 60  0001 C CNN
F 3 "" H 8700 2820 60  0001 C CNN
	1    8950 2650
	1    0    0    -1  
$EndComp
$Comp
L MX SW?
U 1 1 593C191C
P 8950 3200
F 0 "SW?" H 8950 3100 60  0000 C CNN
F 1 "MX" H 8950 3250 60  0000 C CNN
F 2 "" H 8700 3370 60  0001 C CNN
F 3 "" H 8700 3370 60  0001 C CNN
	1    8950 3200
	1    0    0    -1  
$EndComp
$Comp
L MX SW?
U 1 1 593C1C31
P 8350 3750
F 0 "SW?" H 8350 3650 60  0000 C CNN
F 1 "MX" H 8350 3800 60  0000 C CNN
F 2 "" H 8100 3920 60  0001 C CNN
F 3 "" H 8100 3920 60  0001 C CNN
	1    8350 3750
	1    0    0    -1  
$EndComp
$Comp
L MX SW?
U 1 1 593C1DDD
P 7750 3750
F 0 "SW?" H 7750 3650 60  0000 C CNN
F 1 "MX" H 7750 3800 60  0000 C CNN
F 2 "" H 7500 3920 60  0001 C CNN
F 3 "" H 7500 3920 60  0001 C CNN
	1    7750 3750
	1    0    0    -1  
$EndComp
$Comp
L MX SW?
U 1 1 593C2278
P 7150 3750
F 0 "SW?" H 7150 3650 60  0000 C CNN
F 1 "MX" H 7150 3800 60  0000 C CNN
F 2 "" H 6900 3920 60  0001 C CNN
F 3 "" H 6900 3920 60  0001 C CNN
	1    7150 3750
	1    0    0    -1  
$EndComp
$Comp
L MX SW?
U 1 1 593C246E
P 4750 3750
F 0 "SW?" H 4750 3650 60  0000 C CNN
F 1 "MX" H 4750 3800 60  0000 C CNN
F 2 "" H 4500 3920 60  0001 C CNN
F 3 "" H 4500 3920 60  0001 C CNN
	1    4750 3750
	1    0    0    -1  
$EndComp
$Comp
L MX SW?
U 1 1 593C261B
P 1150 900
F 0 "SW?" H 1150 800 60  0000 C CNN
F 1 "MX" H 1150 950 60  0000 C CNN
F 2 "" H 900 1070 60  0001 C CNN
F 3 "" H 900 1070 60  0001 C CNN
	1    1150 900 
	1    0    0    -1  
$EndComp
$Comp
L MX SW?
U 1 1 593C8103
P 9550 900
F 0 "SW?" H 9550 800 60  0000 C CNN
F 1 "MX" H 9550 950 60  0000 C CNN
F 2 "" H 9300 1070 60  0001 C CNN
F 3 "" H 9300 1070 60  0001 C CNN
	1    9550 900 
	1    0    0    -1  
$EndComp
$Comp
L MX SW?
U 1 1 593C8109
P 10150 900
F 0 "SW?" H 10150 800 60  0000 C CNN
F 1 "MX" H 10150 950 60  0000 C CNN
F 2 "" H 9900 1070 60  0001 C CNN
F 3 "" H 9900 1070 60  0001 C CNN
	1    10150 900 
	1    0    0    -1  
$EndComp
$Comp
L MX SW?
U 1 1 593C810F
P 10750 900
F 0 "SW?" H 10750 800 60  0000 C CNN
F 1 "MX" H 10750 950 60  0000 C CNN
F 2 "" H 10500 1070 60  0001 C CNN
F 3 "" H 10500 1070 60  0001 C CNN
	1    10750 900 
	1    0    0    -1  
$EndComp
$Comp
L MX SW?
U 1 1 593C8115
P 9550 1550
F 0 "SW?" H 9550 1450 60  0000 C CNN
F 1 "MX" H 9550 1600 60  0000 C CNN
F 2 "" H 9300 1720 60  0001 C CNN
F 3 "" H 9300 1720 60  0001 C CNN
	1    9550 1550
	1    0    0    -1  
$EndComp
$Comp
L MX SW?
U 1 1 593C811B
P 9550 2100
F 0 "SW?" H 9550 2000 60  0000 C CNN
F 1 "MX" H 9550 2150 60  0000 C CNN
F 2 "" H 9300 2270 60  0001 C CNN
F 3 "" H 9300 2270 60  0001 C CNN
	1    9550 2100
	1    0    0    -1  
$EndComp
$Comp
L MX SW?
U 1 1 593C8121
P 10150 1550
F 0 "SW?" H 10150 1450 60  0000 C CNN
F 1 "MX" H 10150 1600 60  0000 C CNN
F 2 "" H 9900 1720 60  0001 C CNN
F 3 "" H 9900 1720 60  0001 C CNN
	1    10150 1550
	1    0    0    -1  
$EndComp
$Comp
L MX SW?
U 1 1 593C8127
P 10150 2100
F 0 "SW?" H 10150 2000 60  0000 C CNN
F 1 "MX" H 10150 2150 60  0000 C CNN
F 2 "" H 9900 2270 60  0001 C CNN
F 3 "" H 9900 2270 60  0001 C CNN
	1    10150 2100
	1    0    0    -1  
$EndComp
$Comp
L MX SW?
U 1 1 593C812D
P 10750 1550
F 0 "SW?" H 10750 1450 60  0000 C CNN
F 1 "MX" H 10750 1600 60  0000 C CNN
F 2 "" H 10500 1720 60  0001 C CNN
F 3 "" H 10500 1720 60  0001 C CNN
	1    10750 1550
	1    0    0    -1  
$EndComp
$Comp
L MX SW?
U 1 1 593C8133
P 10750 2100
F 0 "SW?" H 10750 2000 60  0000 C CNN
F 1 "MX" H 10750 2150 60  0000 C CNN
F 2 "" H 10500 2270 60  0001 C CNN
F 3 "" H 10500 2270 60  0001 C CNN
	1    10750 2100
	1    0    0    -1  
$EndComp
$Comp
L MX SW?
U 1 1 593C840F
P 10750 3750
F 0 "SW?" H 10750 3650 60  0000 C CNN
F 1 "MX" H 10750 3800 60  0000 C CNN
F 2 "" H 10500 3920 60  0001 C CNN
F 3 "" H 10500 3920 60  0001 C CNN
	1    10750 3750
	1    0    0    -1  
$EndComp
$Comp
L MX SW?
U 1 1 593C8415
P 10150 3750
F 0 "SW?" H 10150 3650 60  0000 C CNN
F 1 "MX" H 10150 3800 60  0000 C CNN
F 2 "" H 9900 3920 60  0001 C CNN
F 3 "" H 9900 3920 60  0001 C CNN
	1    10150 3750
	1    0    0    -1  
$EndComp
$Comp
L MX SW?
U 1 1 593C841B
P 9550 3750
F 0 "SW?" H 9550 3650 60  0000 C CNN
F 1 "MX" H 9550 3800 60  0000 C CNN
F 2 "" H 9300 3920 60  0001 C CNN
F 3 "" H 9300 3920 60  0001 C CNN
	1    9550 3750
	1    0    0    -1  
$EndComp
$Comp
L MX SW?
U 1 1 593C8549
P 10150 3200
F 0 "SW?" H 10150 3100 60  0000 C CNN
F 1 "MX" H 10150 3250 60  0000 C CNN
F 2 "" H 9900 3370 60  0001 C CNN
F 3 "" H 9900 3370 60  0001 C CNN
	1    10150 3200
	1    0    0    -1  
$EndComp
$Comp
L MX SW?
U 1 1 593C8BC1
P 1150 4800
F 0 "SW?" H 1150 4700 60  0000 C CNN
F 1 "MX" H 1150 4850 60  0000 C CNN
F 2 "" H 900 4970 60  0001 C CNN
F 3 "" H 900 4970 60  0001 C CNN
	1    1150 4800
	1    0    0    -1  
$EndComp
$Comp
L MX SW?
U 1 1 593C8BC7
P 1150 5350
F 0 "SW?" H 1150 5250 60  0000 C CNN
F 1 "MX" H 1150 5400 60  0000 C CNN
F 2 "" H 900 5520 60  0001 C CNN
F 3 "" H 900 5520 60  0001 C CNN
	1    1150 5350
	1    0    0    -1  
$EndComp
$Comp
L MX SW?
U 1 1 593C8BCD
P 1150 5900
F 0 "SW?" H 1150 5800 60  0000 C CNN
F 1 "MX" H 1150 5950 60  0000 C CNN
F 2 "" H 900 6070 60  0001 C CNN
F 3 "" H 900 6070 60  0001 C CNN
	1    1150 5900
	1    0    0    -1  
$EndComp
$Comp
L MX SW?
U 1 1 593C8BD3
P 1150 6450
F 0 "SW?" H 1150 6350 60  0000 C CNN
F 1 "MX" H 1150 6500 60  0000 C CNN
F 2 "" H 900 6620 60  0001 C CNN
F 3 "" H 900 6620 60  0001 C CNN
	1    1150 6450
	1    0    0    -1  
$EndComp
$Comp
L MX SW?
U 1 1 593C8BD9
P 1750 4800
F 0 "SW?" H 1750 4700 60  0000 C CNN
F 1 "MX" H 1750 4850 60  0000 C CNN
F 2 "" H 1500 4970 60  0001 C CNN
F 3 "" H 1500 4970 60  0001 C CNN
	1    1750 4800
	1    0    0    -1  
$EndComp
$Comp
L MX SW?
U 1 1 593C8BDF
P 1750 5350
F 0 "SW?" H 1750 5250 60  0000 C CNN
F 1 "MX" H 1750 5400 60  0000 C CNN
F 2 "" H 1500 5520 60  0001 C CNN
F 3 "" H 1500 5520 60  0001 C CNN
	1    1750 5350
	1    0    0    -1  
$EndComp
$Comp
L MX SW?
U 1 1 593C8BE5
P 1750 5900
F 0 "SW?" H 1750 5800 60  0000 C CNN
F 1 "MX" H 1750 5950 60  0000 C CNN
F 2 "" H 1500 6070 60  0001 C CNN
F 3 "" H 1500 6070 60  0001 C CNN
	1    1750 5900
	1    0    0    -1  
$EndComp
$Comp
L MX SW?
U 1 1 593C8BEB
P 1750 6450
F 0 "SW?" H 1750 6350 60  0000 C CNN
F 1 "MX" H 1750 6500 60  0000 C CNN
F 2 "" H 1500 6620 60  0001 C CNN
F 3 "" H 1500 6620 60  0001 C CNN
	1    1750 6450
	1    0    0    -1  
$EndComp
$Comp
L MX SW?
U 1 1 593C8BF1
P 2350 4800
F 0 "SW?" H 2350 4700 60  0000 C CNN
F 1 "MX" H 2350 4850 60  0000 C CNN
F 2 "" H 2100 4970 60  0001 C CNN
F 3 "" H 2100 4970 60  0001 C CNN
	1    2350 4800
	1    0    0    -1  
$EndComp
$Comp
L MX SW?
U 1 1 593C8BF7
P 2350 5350
F 0 "SW?" H 2350 5250 60  0000 C CNN
F 1 "MX" H 2350 5400 60  0000 C CNN
F 2 "" H 2100 5520 60  0001 C CNN
F 3 "" H 2100 5520 60  0001 C CNN
	1    2350 5350
	1    0    0    -1  
$EndComp
$Comp
L MX SW?
U 1 1 593C8BFD
P 2350 5900
F 0 "SW?" H 2350 5800 60  0000 C CNN
F 1 "MX" H 2350 5950 60  0000 C CNN
F 2 "" H 2100 6070 60  0001 C CNN
F 3 "" H 2100 6070 60  0001 C CNN
	1    2350 5900
	1    0    0    -1  
$EndComp
$Comp
L MX SW?
U 1 1 593C8C03
P 2350 6450
F 0 "SW?" H 2350 6350 60  0000 C CNN
F 1 "MX" H 2350 6500 60  0000 C CNN
F 2 "" H 2100 6620 60  0001 C CNN
F 3 "" H 2100 6620 60  0001 C CNN
	1    2350 6450
	1    0    0    -1  
$EndComp
$Comp
L MX SW?
U 1 1 593C8FE4
P 2900 4800
F 0 "SW?" H 2900 4700 60  0000 C CNN
F 1 "MX" H 2900 4850 60  0000 C CNN
F 2 "" H 2650 4970 60  0001 C CNN
F 3 "" H 2650 4970 60  0001 C CNN
	1    2900 4800
	1    0    0    -1  
$EndComp
$Comp
L MX SW?
U 1 1 593C8FEA
P 2900 5350
F 0 "SW?" H 2900 5250 60  0000 C CNN
F 1 "MX" H 2900 5400 60  0000 C CNN
F 2 "" H 2650 5520 60  0001 C CNN
F 3 "" H 2650 5520 60  0001 C CNN
	1    2900 5350
	1    0    0    -1  
$EndComp
$Comp
L MX SW?
U 1 1 593C8FF0
P 2350 7000
F 0 "SW?" H 2350 6900 60  0000 C CNN
F 1 "MX" H 2350 7050 60  0000 C CNN
F 2 "" H 2100 7170 60  0001 C CNN
F 3 "" H 2100 7170 60  0001 C CNN
	1    2350 7000
	1    0    0    -1  
$EndComp
$Comp
L MX SW?
U 1 1 593C9278
P 2900 6450
F 0 "SW?" H 2900 6350 60  0000 C CNN
F 1 "MX" H 2900 6500 60  0000 C CNN
F 2 "" H 2650 6620 60  0001 C CNN
F 3 "" H 2650 6620 60  0001 C CNN
	1    2900 6450
	1    0    0    -1  
$EndComp
$Comp
L MX SW?
U 1 1 593C9803
P 1150 7000
F 0 "SW?" H 1150 6900 60  0000 C CNN
F 1 "MX" H 1150 7050 60  0000 C CNN
F 2 "" H 900 7170 60  0001 C CNN
F 3 "" H 900 7170 60  0001 C CNN
	1    1150 7000
	1    0    0    -1  
$EndComp
$Comp
L D D?
U 1 1 59636BAE
P 1350 1100
F 0 "D?" H 1350 1200 50  0000 C CNN
F 1 "D" H 1350 1000 50  0000 C CNN
F 2 "" H 1350 1100 50  0001 C CNN
F 3 "" H 1350 1100 50  0001 C CNN
	1    1350 1100
	0    -1   -1   0   
$EndComp
$Comp
L D D?
U 1 1 59636D1A
P 1350 1750
F 0 "D?" H 1350 1850 50  0000 C CNN
F 1 "D" H 1350 1650 50  0000 C CNN
F 2 "" H 1350 1750 50  0001 C CNN
F 3 "" H 1350 1750 50  0001 C CNN
	1    1350 1750
	0    -1   -1   0   
$EndComp
$Comp
L D D?
U 1 1 5963737A
P 1350 2300
F 0 "D?" H 1350 2400 50  0000 C CNN
F 1 "D" H 1350 2200 50  0000 C CNN
F 2 "" H 1350 2300 50  0001 C CNN
F 3 "" H 1350 2300 50  0001 C CNN
	1    1350 2300
	0    -1   -1   0   
$EndComp
$Comp
L D D?
U 1 1 596374E3
P 1350 2850
F 0 "D?" H 1350 2950 50  0000 C CNN
F 1 "D" H 1350 2750 50  0000 C CNN
F 2 "" H 1350 2850 50  0001 C CNN
F 3 "" H 1350 2850 50  0001 C CNN
	1    1350 2850
	0    -1   -1   0   
$EndComp
$Comp
L D D?
U 1 1 59637645
P 1350 3400
F 0 "D?" H 1350 3500 50  0000 C CNN
F 1 "D" H 1350 3300 50  0000 C CNN
F 2 "" H 1350 3400 50  0001 C CNN
F 3 "" H 1350 3400 50  0001 C CNN
	1    1350 3400
	0    -1   -1   0   
$EndComp
$Comp
L D D?
U 1 1 596377B6
P 1350 3950
F 0 "D?" H 1350 4050 50  0000 C CNN
F 1 "D" H 1350 3850 50  0000 C CNN
F 2 "" H 1350 3950 50  0001 C CNN
F 3 "" H 1350 3950 50  0001 C CNN
	1    1350 3950
	0    -1   -1   0   
$EndComp
$Comp
L D D?
U 1 1 59637C77
P 1950 1750
F 0 "D?" H 1950 1850 50  0000 C CNN
F 1 "D" H 1950 1650 50  0000 C CNN
F 2 "" H 1950 1750 50  0001 C CNN
F 3 "" H 1950 1750 50  0001 C CNN
	1    1950 1750
	0    -1   -1   0   
$EndComp
$Comp
L D D?
U 1 1 59637C7D
P 1950 2300
F 0 "D?" H 1950 2400 50  0000 C CNN
F 1 "D" H 1950 2200 50  0000 C CNN
F 2 "" H 1950 2300 50  0001 C CNN
F 3 "" H 1950 2300 50  0001 C CNN
	1    1950 2300
	0    -1   -1   0   
$EndComp
$Comp
L D D?
U 1 1 59637C83
P 1950 2850
F 0 "D?" H 1950 2950 50  0000 C CNN
F 1 "D" H 1950 2750 50  0000 C CNN
F 2 "" H 1950 2850 50  0001 C CNN
F 3 "" H 1950 2850 50  0001 C CNN
	1    1950 2850
	0    -1   -1   0   
$EndComp
$Comp
L D D?
U 1 1 59637C89
P 1950 3400
F 0 "D?" H 1950 3500 50  0000 C CNN
F 1 "D" H 1950 3300 50  0000 C CNN
F 2 "" H 1950 3400 50  0001 C CNN
F 3 "" H 1950 3400 50  0001 C CNN
	1    1950 3400
	0    -1   -1   0   
$EndComp
$Comp
L D D?
U 1 1 59637C8F
P 1950 3950
F 0 "D?" H 1950 4050 50  0000 C CNN
F 1 "D" H 1950 3850 50  0000 C CNN
F 2 "" H 1950 3950 50  0001 C CNN
F 3 "" H 1950 3950 50  0001 C CNN
	1    1950 3950
	0    -1   -1   0   
$EndComp
$Comp
L D D?
U 1 1 59637F5B
P 2550 1750
F 0 "D?" H 2550 1850 50  0000 C CNN
F 1 "D" H 2550 1650 50  0000 C CNN
F 2 "" H 2550 1750 50  0001 C CNN
F 3 "" H 2550 1750 50  0001 C CNN
	1    2550 1750
	0    -1   -1   0   
$EndComp
$Comp
L D D?
U 1 1 59637F61
P 2550 2300
F 0 "D?" H 2550 2400 50  0000 C CNN
F 1 "D" H 2550 2200 50  0000 C CNN
F 2 "" H 2550 2300 50  0001 C CNN
F 3 "" H 2550 2300 50  0001 C CNN
	1    2550 2300
	0    -1   -1   0   
$EndComp
$Comp
L D D?
U 1 1 59637F67
P 2550 2850
F 0 "D?" H 2550 2950 50  0000 C CNN
F 1 "D" H 2550 2750 50  0000 C CNN
F 2 "" H 2550 2850 50  0001 C CNN
F 3 "" H 2550 2850 50  0001 C CNN
	1    2550 2850
	0    -1   -1   0   
$EndComp
$Comp
L D D?
U 1 1 59637F6D
P 2550 3400
F 0 "D?" H 2550 3500 50  0000 C CNN
F 1 "D" H 2550 3300 50  0000 C CNN
F 2 "" H 2550 3400 50  0001 C CNN
F 3 "" H 2550 3400 50  0001 C CNN
	1    2550 3400
	0    -1   -1   0   
$EndComp
$Comp
L D D?
U 1 1 59637F73
P 2550 3950
F 0 "D?" H 2550 4050 50  0000 C CNN
F 1 "D" H 2550 3850 50  0000 C CNN
F 2 "" H 2550 3950 50  0001 C CNN
F 3 "" H 2550 3950 50  0001 C CNN
	1    2550 3950
	0    -1   -1   0   
$EndComp
$Comp
L D D?
U 1 1 59638094
P 2200 1100
F 0 "D?" H 2200 1200 50  0000 C CNN
F 1 "D" H 2200 1000 50  0000 C CNN
F 2 "" H 2200 1100 50  0001 C CNN
F 3 "" H 2200 1100 50  0001 C CNN
	1    2200 1100
	0    -1   -1   0   
$EndComp
$Comp
L D D?
U 1 1 59638227
P 2800 1100
F 0 "D?" H 2800 1200 50  0000 C CNN
F 1 "D" H 2800 1000 50  0000 C CNN
F 2 "" H 2800 1100 50  0001 C CNN
F 3 "" H 2800 1100 50  0001 C CNN
	1    2800 1100
	0    -1   -1   0   
$EndComp
$Comp
L D D?
U 1 1 596383B9
P 3400 1100
F 0 "D?" H 3400 1200 50  0000 C CNN
F 1 "D" H 3400 1000 50  0000 C CNN
F 2 "" H 3400 1100 50  0001 C CNN
F 3 "" H 3400 1100 50  0001 C CNN
	1    3400 1100
	0    -1   -1   0   
$EndComp
$Comp
L D D?
U 1 1 5963854E
P 4000 1100
F 0 "D?" H 4000 1200 50  0000 C CNN
F 1 "D" H 4000 1000 50  0000 C CNN
F 2 "" H 4000 1100 50  0001 C CNN
F 3 "" H 4000 1100 50  0001 C CNN
	1    4000 1100
	0    -1   -1   0   
$EndComp
$Comp
L D D?
U 1 1 59638752
P 3150 1750
F 0 "D?" H 3150 1850 50  0000 C CNN
F 1 "D" H 3150 1650 50  0000 C CNN
F 2 "" H 3150 1750 50  0001 C CNN
F 3 "" H 3150 1750 50  0001 C CNN
	1    3150 1750
	0    -1   -1   0   
$EndComp
$Comp
L D D?
U 1 1 59638758
P 3150 2300
F 0 "D?" H 3150 2400 50  0000 C CNN
F 1 "D" H 3150 2200 50  0000 C CNN
F 2 "" H 3150 2300 50  0001 C CNN
F 3 "" H 3150 2300 50  0001 C CNN
	1    3150 2300
	0    -1   -1   0   
$EndComp
$Comp
L D D?
U 1 1 5963875E
P 3150 2850
F 0 "D?" H 3150 2950 50  0000 C CNN
F 1 "D" H 3150 2750 50  0000 C CNN
F 2 "" H 3150 2850 50  0001 C CNN
F 3 "" H 3150 2850 50  0001 C CNN
	1    3150 2850
	0    -1   -1   0   
$EndComp
$Comp
L D D?
U 1 1 59638764
P 3150 3400
F 0 "D?" H 3150 3500 50  0000 C CNN
F 1 "D" H 3150 3300 50  0000 C CNN
F 2 "" H 3150 3400 50  0001 C CNN
F 3 "" H 3150 3400 50  0001 C CNN
	1    3150 3400
	0    -1   -1   0   
$EndComp
$Comp
L D D?
U 1 1 59639D3E
P 3750 1750
F 0 "D?" H 3750 1850 50  0000 C CNN
F 1 "D" H 3750 1650 50  0000 C CNN
F 2 "" H 3750 1750 50  0001 C CNN
F 3 "" H 3750 1750 50  0001 C CNN
	1    3750 1750
	0    -1   -1   0   
$EndComp
$Comp
L D D?
U 1 1 59639D44
P 3750 2300
F 0 "D?" H 3750 2400 50  0000 C CNN
F 1 "D" H 3750 2200 50  0000 C CNN
F 2 "" H 3750 2300 50  0001 C CNN
F 3 "" H 3750 2300 50  0001 C CNN
	1    3750 2300
	0    -1   -1   0   
$EndComp
$Comp
L D D?
U 1 1 59639D4A
P 3750 2850
F 0 "D?" H 3750 2950 50  0000 C CNN
F 1 "D" H 3750 2750 50  0000 C CNN
F 2 "" H 3750 2850 50  0001 C CNN
F 3 "" H 3750 2850 50  0001 C CNN
	1    3750 2850
	0    -1   -1   0   
$EndComp
$Comp
L D D?
U 1 1 59639D50
P 3750 3400
F 0 "D?" H 3750 3500 50  0000 C CNN
F 1 "D" H 3750 3300 50  0000 C CNN
F 2 "" H 3750 3400 50  0001 C CNN
F 3 "" H 3750 3400 50  0001 C CNN
	1    3750 3400
	0    -1   -1   0   
$EndComp
$Comp
L D D?
U 1 1 59639EA2
P 4350 1750
F 0 "D?" H 4350 1850 50  0000 C CNN
F 1 "D" H 4350 1650 50  0000 C CNN
F 2 "" H 4350 1750 50  0001 C CNN
F 3 "" H 4350 1750 50  0001 C CNN
	1    4350 1750
	0    -1   -1   0   
$EndComp
$Comp
L D D?
U 1 1 59639EA8
P 4350 2300
F 0 "D?" H 4350 2400 50  0000 C CNN
F 1 "D" H 4350 2200 50  0000 C CNN
F 2 "" H 4350 2300 50  0001 C CNN
F 3 "" H 4350 2300 50  0001 C CNN
	1    4350 2300
	0    -1   -1   0   
$EndComp
$Comp
L D D?
U 1 1 59639EAE
P 4350 2850
F 0 "D?" H 4350 2950 50  0000 C CNN
F 1 "D" H 4350 2750 50  0000 C CNN
F 2 "" H 4350 2850 50  0001 C CNN
F 3 "" H 4350 2850 50  0001 C CNN
	1    4350 2850
	0    -1   -1   0   
$EndComp
$Comp
L D D?
U 1 1 59639EB4
P 4350 3400
F 0 "D?" H 4350 3500 50  0000 C CNN
F 1 "D" H 4350 3300 50  0000 C CNN
F 2 "" H 4350 3400 50  0001 C CNN
F 3 "" H 4350 3400 50  0001 C CNN
	1    4350 3400
	0    -1   -1   0   
$EndComp
$Comp
L D D?
U 1 1 5963A0C7
P 4950 1750
F 0 "D?" H 4950 1850 50  0000 C CNN
F 1 "D" H 4950 1650 50  0000 C CNN
F 2 "" H 4950 1750 50  0001 C CNN
F 3 "" H 4950 1750 50  0001 C CNN
	1    4950 1750
	0    -1   -1   0   
$EndComp
$Comp
L D D?
U 1 1 5963A0CD
P 4950 2300
F 0 "D?" H 4950 2400 50  0000 C CNN
F 1 "D" H 4950 2200 50  0000 C CNN
F 2 "" H 4950 2300 50  0001 C CNN
F 3 "" H 4950 2300 50  0001 C CNN
	1    4950 2300
	0    -1   -1   0   
$EndComp
$Comp
L D D?
U 1 1 5963A0D3
P 4950 2850
F 0 "D?" H 4950 2950 50  0000 C CNN
F 1 "D" H 4950 2750 50  0000 C CNN
F 2 "" H 4950 2850 50  0001 C CNN
F 3 "" H 4950 2850 50  0001 C CNN
	1    4950 2850
	0    -1   -1   0   
$EndComp
$Comp
L D D?
U 1 1 5963A0D9
P 4950 3400
F 0 "D?" H 4950 3500 50  0000 C CNN
F 1 "D" H 4950 3300 50  0000 C CNN
F 2 "" H 4950 3400 50  0001 C CNN
F 3 "" H 4950 3400 50  0001 C CNN
	1    4950 3400
	0    -1   -1   0   
$EndComp
$Comp
L D D?
U 1 1 5963A0DF
P 4950 3950
F 0 "D?" H 4950 4050 50  0000 C CNN
F 1 "D" H 4950 3850 50  0000 C CNN
F 2 "" H 4950 3950 50  0001 C CNN
F 3 "" H 4950 3950 50  0001 C CNN
	1    4950 3950
	0    -1   -1   0   
$EndComp
$Comp
L D D?
U 1 1 5963ABD5
P 5550 1750
F 0 "D?" H 5550 1850 50  0000 C CNN
F 1 "D" H 5550 1650 50  0000 C CNN
F 2 "" H 5550 1750 50  0001 C CNN
F 3 "" H 5550 1750 50  0001 C CNN
	1    5550 1750
	0    -1   -1   0   
$EndComp
$Comp
L D D?
U 1 1 5963ABDB
P 5550 2300
F 0 "D?" H 5550 2400 50  0000 C CNN
F 1 "D" H 5550 2200 50  0000 C CNN
F 2 "" H 5550 2300 50  0001 C CNN
F 3 "" H 5550 2300 50  0001 C CNN
	1    5550 2300
	0    -1   -1   0   
$EndComp
$Comp
L D D?
U 1 1 5963ABE1
P 5550 2850
F 0 "D?" H 5550 2950 50  0000 C CNN
F 1 "D" H 5550 2750 50  0000 C CNN
F 2 "" H 5550 2850 50  0001 C CNN
F 3 "" H 5550 2850 50  0001 C CNN
	1    5550 2850
	0    -1   -1   0   
$EndComp
$Comp
L D D?
U 1 1 5963ABE7
P 5550 3400
F 0 "D?" H 5550 3500 50  0000 C CNN
F 1 "D" H 5550 3300 50  0000 C CNN
F 2 "" H 5550 3400 50  0001 C CNN
F 3 "" H 5550 3400 50  0001 C CNN
	1    5550 3400
	0    -1   -1   0   
$EndComp
$Comp
L D D?
U 1 1 5963AD83
P 6150 1750
F 0 "D?" H 6150 1850 50  0000 C CNN
F 1 "D" H 6150 1650 50  0000 C CNN
F 2 "" H 6150 1750 50  0001 C CNN
F 3 "" H 6150 1750 50  0001 C CNN
	1    6150 1750
	0    -1   -1   0   
$EndComp
$Comp
L D D?
U 1 1 5963AD89
P 6150 2300
F 0 "D?" H 6150 2400 50  0000 C CNN
F 1 "D" H 6150 2200 50  0000 C CNN
F 2 "" H 6150 2300 50  0001 C CNN
F 3 "" H 6150 2300 50  0001 C CNN
	1    6150 2300
	0    -1   -1   0   
$EndComp
$Comp
L D D?
U 1 1 5963AD8F
P 6150 2850
F 0 "D?" H 6150 2950 50  0000 C CNN
F 1 "D" H 6150 2750 50  0000 C CNN
F 2 "" H 6150 2850 50  0001 C CNN
F 3 "" H 6150 2850 50  0001 C CNN
	1    6150 2850
	0    -1   -1   0   
$EndComp
$Comp
L D D?
U 1 1 5963AD95
P 6150 3400
F 0 "D?" H 6150 3500 50  0000 C CNN
F 1 "D" H 6150 3300 50  0000 C CNN
F 2 "" H 6150 3400 50  0001 C CNN
F 3 "" H 6150 3400 50  0001 C CNN
	1    6150 3400
	0    -1   -1   0   
$EndComp
$Comp
L D D?
U 1 1 5963AF21
P 6750 1750
F 0 "D?" H 6750 1850 50  0000 C CNN
F 1 "D" H 6750 1650 50  0000 C CNN
F 2 "" H 6750 1750 50  0001 C CNN
F 3 "" H 6750 1750 50  0001 C CNN
	1    6750 1750
	0    -1   -1   0   
$EndComp
$Comp
L D D?
U 1 1 5963AF27
P 6750 2300
F 0 "D?" H 6750 2400 50  0000 C CNN
F 1 "D" H 6750 2200 50  0000 C CNN
F 2 "" H 6750 2300 50  0001 C CNN
F 3 "" H 6750 2300 50  0001 C CNN
	1    6750 2300
	0    -1   -1   0   
$EndComp
$Comp
L D D?
U 1 1 5963AF2D
P 6750 2850
F 0 "D?" H 6750 2950 50  0000 C CNN
F 1 "D" H 6750 2750 50  0000 C CNN
F 2 "" H 6750 2850 50  0001 C CNN
F 3 "" H 6750 2850 50  0001 C CNN
	1    6750 2850
	0    -1   -1   0   
$EndComp
$Comp
L D D?
U 1 1 5963AF33
P 6750 3400
F 0 "D?" H 6750 3500 50  0000 C CNN
F 1 "D" H 6750 3300 50  0000 C CNN
F 2 "" H 6750 3400 50  0001 C CNN
F 3 "" H 6750 3400 50  0001 C CNN
	1    6750 3400
	0    -1   -1   0   
$EndComp
$Comp
L D D?
U 1 1 5963B515
P 7350 1750
F 0 "D?" H 7350 1850 50  0000 C CNN
F 1 "D" H 7350 1650 50  0000 C CNN
F 2 "" H 7350 1750 50  0001 C CNN
F 3 "" H 7350 1750 50  0001 C CNN
	1    7350 1750
	0    -1   -1   0   
$EndComp
$Comp
L D D?
U 1 1 5963B51B
P 7350 2300
F 0 "D?" H 7350 2400 50  0000 C CNN
F 1 "D" H 7350 2200 50  0000 C CNN
F 2 "" H 7350 2300 50  0001 C CNN
F 3 "" H 7350 2300 50  0001 C CNN
	1    7350 2300
	0    -1   -1   0   
$EndComp
$Comp
L D D?
U 1 1 5963B521
P 7350 2850
F 0 "D?" H 7350 2950 50  0000 C CNN
F 1 "D" H 7350 2750 50  0000 C CNN
F 2 "" H 7350 2850 50  0001 C CNN
F 3 "" H 7350 2850 50  0001 C CNN
	1    7350 2850
	0    -1   -1   0   
$EndComp
$Comp
L D D?
U 1 1 5963B527
P 7350 3400
F 0 "D?" H 7350 3500 50  0000 C CNN
F 1 "D" H 7350 3300 50  0000 C CNN
F 2 "" H 7350 3400 50  0001 C CNN
F 3 "" H 7350 3400 50  0001 C CNN
	1    7350 3400
	0    -1   -1   0   
$EndComp
$Comp
L D D?
U 1 1 5963B52D
P 7350 3950
F 0 "D?" H 7350 4050 50  0000 C CNN
F 1 "D" H 7350 3850 50  0000 C CNN
F 2 "" H 7350 3950 50  0001 C CNN
F 3 "" H 7350 3950 50  0001 C CNN
	1    7350 3950
	0    -1   -1   0   
$EndComp
$Comp
L D D?
U 1 1 5963B6BE
P 7950 1750
F 0 "D?" H 7950 1850 50  0000 C CNN
F 1 "D" H 7950 1650 50  0000 C CNN
F 2 "" H 7950 1750 50  0001 C CNN
F 3 "" H 7950 1750 50  0001 C CNN
	1    7950 1750
	0    -1   -1   0   
$EndComp
$Comp
L D D?
U 1 1 5963B6C4
P 7950 2300
F 0 "D?" H 7950 2400 50  0000 C CNN
F 1 "D" H 7950 2200 50  0000 C CNN
F 2 "" H 7950 2300 50  0001 C CNN
F 3 "" H 7950 2300 50  0001 C CNN
	1    7950 2300
	0    -1   -1   0   
$EndComp
$Comp
L D D?
U 1 1 5963B6CA
P 7950 2850
F 0 "D?" H 7950 2950 50  0000 C CNN
F 1 "D" H 7950 2750 50  0000 C CNN
F 2 "" H 7950 2850 50  0001 C CNN
F 3 "" H 7950 2850 50  0001 C CNN
	1    7950 2850
	0    -1   -1   0   
$EndComp
$Comp
L D D?
U 1 1 5963B818
P 7950 3950
F 0 "D?" H 7950 4050 50  0000 C CNN
F 1 "D" H 7950 3850 50  0000 C CNN
F 2 "" H 7950 3950 50  0001 C CNN
F 3 "" H 7950 3950 50  0001 C CNN
	1    7950 3950
	0    -1   -1   0   
$EndComp
$Comp
L D D?
U 1 1 5963BA20
P 8550 3950
F 0 "D?" H 8550 4050 50  0000 C CNN
F 1 "D" H 8550 3850 50  0000 C CNN
F 2 "" H 8550 3950 50  0001 C CNN
F 3 "" H 8550 3950 50  0001 C CNN
	1    8550 3950
	0    -1   -1   0   
$EndComp
$Comp
L D D?
U 1 1 5963BC67
P 8550 1750
F 0 "D?" H 8550 1850 50  0000 C CNN
F 1 "D" H 8550 1650 50  0000 C CNN
F 2 "" H 8550 1750 50  0001 C CNN
F 3 "" H 8550 1750 50  0001 C CNN
	1    8550 1750
	0    -1   -1   0   
$EndComp
$Comp
L D D?
U 1 1 5963BC6D
P 8550 2300
F 0 "D?" H 8550 2400 50  0000 C CNN
F 1 "D" H 8550 2200 50  0000 C CNN
F 2 "" H 8550 2300 50  0001 C CNN
F 3 "" H 8550 2300 50  0001 C CNN
	1    8550 2300
	0    -1   -1   0   
$EndComp
$Comp
L D D?
U 1 1 5963C59B
P 9150 1750
F 0 "D?" H 9150 1850 50  0000 C CNN
F 1 "D" H 9150 1650 50  0000 C CNN
F 2 "" H 9150 1750 50  0001 C CNN
F 3 "" H 9150 1750 50  0001 C CNN
	1    9150 1750
	0    -1   -1   0   
$EndComp
$Comp
L D D?
U 1 1 5963C5A1
P 9150 2300
F 0 "D?" H 9150 2400 50  0000 C CNN
F 1 "D" H 9150 2200 50  0000 C CNN
F 2 "" H 9150 2300 50  0001 C CNN
F 3 "" H 9150 2300 50  0001 C CNN
	1    9150 2300
	0    -1   -1   0   
$EndComp
$Comp
L D D?
U 1 1 5963C5A7
P 9150 2850
F 0 "D?" H 9150 2950 50  0000 C CNN
F 1 "D" H 9150 2750 50  0000 C CNN
F 2 "" H 9150 2850 50  0001 C CNN
F 3 "" H 9150 2850 50  0001 C CNN
	1    9150 2850
	0    -1   -1   0   
$EndComp
$Comp
L D D?
U 1 1 5963C5AD
P 9150 3400
F 0 "D?" H 9150 3500 50  0000 C CNN
F 1 "D" H 9150 3300 50  0000 C CNN
F 2 "" H 9150 3400 50  0001 C CNN
F 3 "" H 9150 3400 50  0001 C CNN
	1    9150 3400
	0    -1   -1   0   
$EndComp
$Comp
L D D?
U 1 1 5963C5B3
P 9150 3950
F 0 "D?" H 9150 4050 50  0000 C CNN
F 1 "D" H 9150 3850 50  0000 C CNN
F 2 "" H 9150 3950 50  0001 C CNN
F 3 "" H 9150 3950 50  0001 C CNN
	1    9150 3950
	0    -1   -1   0   
$EndComp
$Comp
L D D?
U 1 1 5963C717
P 9750 3950
F 0 "D?" H 9750 4050 50  0000 C CNN
F 1 "D" H 9750 3850 50  0000 C CNN
F 2 "" H 9750 3950 50  0001 C CNN
F 3 "" H 9750 3950 50  0001 C CNN
	1    9750 3950
	0    -1   -1   0   
$EndComp
$Comp
L D D?
U 1 1 5963C990
P 10350 3400
F 0 "D?" H 10350 3500 50  0000 C CNN
F 1 "D" H 10350 3300 50  0000 C CNN
F 2 "" H 10350 3400 50  0001 C CNN
F 3 "" H 10350 3400 50  0001 C CNN
	1    10350 3400
	0    -1   -1   0   
$EndComp
$Comp
L D D?
U 1 1 5963C996
P 10350 3950
F 0 "D?" H 10350 4050 50  0000 C CNN
F 1 "D" H 10350 3850 50  0000 C CNN
F 2 "" H 10350 3950 50  0001 C CNN
F 3 "" H 10350 3950 50  0001 C CNN
	1    10350 3950
	0    -1   -1   0   
$EndComp
$Comp
L D D?
U 1 1 5963CB68
P 9750 1750
F 0 "D?" H 9750 1850 50  0000 C CNN
F 1 "D" H 9750 1650 50  0000 C CNN
F 2 "" H 9750 1750 50  0001 C CNN
F 3 "" H 9750 1750 50  0001 C CNN
	1    9750 1750
	0    -1   -1   0   
$EndComp
$Comp
L D D?
U 1 1 5963CB6E
P 9750 2300
F 0 "D?" H 9750 2400 50  0000 C CNN
F 1 "D" H 9750 2200 50  0000 C CNN
F 2 "" H 9750 2300 50  0001 C CNN
F 3 "" H 9750 2300 50  0001 C CNN
	1    9750 2300
	0    -1   -1   0   
$EndComp
$Comp
L D D?
U 1 1 5963CD9D
P 9150 1100
F 0 "D?" H 9150 1200 50  0000 C CNN
F 1 "D" H 9150 1000 50  0000 C CNN
F 2 "" H 9150 1100 50  0001 C CNN
F 3 "" H 9150 1100 50  0001 C CNN
	1    9150 1100
	0    -1   -1   0   
$EndComp
$Comp
L D D?
U 1 1 5963CFD7
P 9750 1100
F 0 "D?" H 9750 1200 50  0000 C CNN
F 1 "D" H 9750 1000 50  0000 C CNN
F 2 "" H 9750 1100 50  0001 C CNN
F 3 "" H 9750 1100 50  0001 C CNN
	1    9750 1100
	0    -1   -1   0   
$EndComp
$Comp
L D D?
U 1 1 5963D27B
P 10350 1750
F 0 "D?" H 10350 1850 50  0000 C CNN
F 1 "D" H 10350 1650 50  0000 C CNN
F 2 "" H 10350 1750 50  0001 C CNN
F 3 "" H 10350 1750 50  0001 C CNN
	1    10350 1750
	0    -1   -1   0   
$EndComp
$Comp
L D D?
U 1 1 5963D281
P 10350 2300
F 0 "D?" H 10350 2400 50  0000 C CNN
F 1 "D" H 10350 2200 50  0000 C CNN
F 2 "" H 10350 2300 50  0001 C CNN
F 3 "" H 10350 2300 50  0001 C CNN
	1    10350 2300
	0    -1   -1   0   
$EndComp
$Comp
L D D?
U 1 1 5963D287
P 10350 1100
F 0 "D?" H 10350 1200 50  0000 C CNN
F 1 "D" H 10350 1000 50  0000 C CNN
F 2 "" H 10350 1100 50  0001 C CNN
F 3 "" H 10350 1100 50  0001 C CNN
	1    10350 1100
	0    -1   -1   0   
$EndComp
$Comp
L D D?
U 1 1 5963D5CC
P 10950 1750
F 0 "D?" H 10950 1850 50  0000 C CNN
F 1 "D" H 10950 1650 50  0000 C CNN
F 2 "" H 10950 1750 50  0001 C CNN
F 3 "" H 10950 1750 50  0001 C CNN
	1    10950 1750
	0    -1   -1   0   
$EndComp
$Comp
L D D?
U 1 1 5963D5D2
P 10950 2300
F 0 "D?" H 10950 2400 50  0000 C CNN
F 1 "D" H 10950 2200 50  0000 C CNN
F 2 "" H 10950 2300 50  0001 C CNN
F 3 "" H 10950 2300 50  0001 C CNN
	1    10950 2300
	0    -1   -1   0   
$EndComp
$Comp
L D D?
U 1 1 5963D5D8
P 10950 1100
F 0 "D?" H 10950 1200 50  0000 C CNN
F 1 "D" H 10950 1000 50  0000 C CNN
F 2 "" H 10950 1100 50  0001 C CNN
F 3 "" H 10950 1100 50  0001 C CNN
	1    10950 1100
	0    -1   -1   0   
$EndComp
$Comp
L D D?
U 1 1 5963D752
P 10950 3950
F 0 "D?" H 10950 4050 50  0000 C CNN
F 1 "D" H 10950 3850 50  0000 C CNN
F 2 "" H 10950 3950 50  0001 C CNN
F 3 "" H 10950 3950 50  0001 C CNN
	1    10950 3950
	0    -1   -1   0   
$EndComp
$Comp
L D D?
U 1 1 5963D9A4
P 8550 1100
F 0 "D?" H 8550 1200 50  0000 C CNN
F 1 "D" H 8550 1000 50  0000 C CNN
F 2 "" H 8550 1100 50  0001 C CNN
F 3 "" H 8550 1100 50  0001 C CNN
	1    8550 1100
	0    -1   -1   0   
$EndComp
$Comp
L D D?
U 1 1 5963DBF7
P 7950 1100
F 0 "D?" H 7950 1200 50  0000 C CNN
F 1 "D" H 7950 1000 50  0000 C CNN
F 2 "" H 7950 1100 50  0001 C CNN
F 3 "" H 7950 1100 50  0001 C CNN
	1    7950 1100
	0    -1   -1   0   
$EndComp
$Comp
L D D?
U 1 1 5963DE43
P 7350 1100
F 0 "D?" H 7350 1200 50  0000 C CNN
F 1 "D" H 7350 1000 50  0000 C CNN
F 2 "" H 7350 1100 50  0001 C CNN
F 3 "" H 7350 1100 50  0001 C CNN
	1    7350 1100
	0    -1   -1   0   
$EndComp
$Comp
L D D?
U 1 1 5963E094
P 6550 1100
F 0 "D?" H 6550 1200 50  0000 C CNN
F 1 "D" H 6550 1000 50  0000 C CNN
F 2 "" H 6550 1100 50  0001 C CNN
F 3 "" H 6550 1100 50  0001 C CNN
	1    6550 1100
	0    -1   -1   0   
$EndComp
$Comp
L D D?
U 1 1 5963E3B2
P 5950 1100
F 0 "D?" H 5950 1200 50  0000 C CNN
F 1 "D" H 5950 1000 50  0000 C CNN
F 2 "" H 5950 1100 50  0001 C CNN
F 3 "" H 5950 1100 50  0001 C CNN
	1    5950 1100
	0    -1   -1   0   
$EndComp
$Comp
L D D?
U 1 1 5963E617
P 5350 1100
F 0 "D?" H 5350 1200 50  0000 C CNN
F 1 "D" H 5350 1000 50  0000 C CNN
F 2 "" H 5350 1100 50  0001 C CNN
F 3 "" H 5350 1100 50  0001 C CNN
	1    5350 1100
	0    -1   -1   0   
$EndComp
$Comp
L D D?
U 1 1 5963E87B
P 4750 1100
F 0 "D?" H 4750 1200 50  0000 C CNN
F 1 "D" H 4750 1000 50  0000 C CNN
F 2 "" H 4750 1100 50  0001 C CNN
F 3 "" H 4750 1100 50  0001 C CNN
	1    4750 1100
	0    -1   -1   0   
$EndComp
$Comp
L D D?
U 1 1 59640DE0
P 1350 5000
F 0 "D?" H 1350 5100 50  0000 C CNN
F 1 "D" H 1350 4900 50  0000 C CNN
F 2 "" H 1350 5000 50  0001 C CNN
F 3 "" H 1350 5000 50  0001 C CNN
	1    1350 5000
	0    -1   -1   0   
$EndComp
$Comp
L D D?
U 1 1 59640DE6
P 1350 5550
F 0 "D?" H 1350 5650 50  0000 C CNN
F 1 "D" H 1350 5450 50  0000 C CNN
F 2 "" H 1350 5550 50  0001 C CNN
F 3 "" H 1350 5550 50  0001 C CNN
	1    1350 5550
	0    -1   -1   0   
$EndComp
$Comp
L D D?
U 1 1 59640DEC
P 1350 6100
F 0 "D?" H 1350 6200 50  0000 C CNN
F 1 "D" H 1350 6000 50  0000 C CNN
F 2 "" H 1350 6100 50  0001 C CNN
F 3 "" H 1350 6100 50  0001 C CNN
	1    1350 6100
	0    -1   -1   0   
$EndComp
$Comp
L D D?
U 1 1 59640DF2
P 1350 6650
F 0 "D?" H 1350 6750 50  0000 C CNN
F 1 "D" H 1350 6550 50  0000 C CNN
F 2 "" H 1350 6650 50  0001 C CNN
F 3 "" H 1350 6650 50  0001 C CNN
	1    1350 6650
	0    -1   -1   0   
$EndComp
$Comp
L D D?
U 1 1 59640DF8
P 1350 7200
F 0 "D?" H 1350 7300 50  0000 C CNN
F 1 "D" H 1350 7100 50  0000 C CNN
F 2 "" H 1350 7200 50  0001 C CNN
F 3 "" H 1350 7200 50  0001 C CNN
	1    1350 7200
	0    -1   -1   0   
$EndComp
$Comp
L D D?
U 1 1 59641418
P 1950 5000
F 0 "D?" H 1950 5100 50  0000 C CNN
F 1 "D" H 1950 4900 50  0000 C CNN
F 2 "" H 1950 5000 50  0001 C CNN
F 3 "" H 1950 5000 50  0001 C CNN
	1    1950 5000
	0    -1   -1   0   
$EndComp
$Comp
L D D?
U 1 1 5964141E
P 1950 5550
F 0 "D?" H 1950 5650 50  0000 C CNN
F 1 "D" H 1950 5450 50  0000 C CNN
F 2 "" H 1950 5550 50  0001 C CNN
F 3 "" H 1950 5550 50  0001 C CNN
	1    1950 5550
	0    -1   -1   0   
$EndComp
$Comp
L D D?
U 1 1 59641424
P 1950 6100
F 0 "D?" H 1950 6200 50  0000 C CNN
F 1 "D" H 1950 6000 50  0000 C CNN
F 2 "" H 1950 6100 50  0001 C CNN
F 3 "" H 1950 6100 50  0001 C CNN
	1    1950 6100
	0    -1   -1   0   
$EndComp
$Comp
L D D?
U 1 1 5964142A
P 1950 6650
F 0 "D?" H 1950 6750 50  0000 C CNN
F 1 "D" H 1950 6550 50  0000 C CNN
F 2 "" H 1950 6650 50  0001 C CNN
F 3 "" H 1950 6650 50  0001 C CNN
	1    1950 6650
	0    -1   -1   0   
$EndComp
$Comp
L D D?
U 1 1 5964168B
P 2550 5000
F 0 "D?" H 2550 5100 50  0000 C CNN
F 1 "D" H 2550 4900 50  0000 C CNN
F 2 "" H 2550 5000 50  0001 C CNN
F 3 "" H 2550 5000 50  0001 C CNN
	1    2550 5000
	0    -1   -1   0   
$EndComp
$Comp
L D D?
U 1 1 59641691
P 2550 5550
F 0 "D?" H 2550 5650 50  0000 C CNN
F 1 "D" H 2550 5450 50  0000 C CNN
F 2 "" H 2550 5550 50  0001 C CNN
F 3 "" H 2550 5550 50  0001 C CNN
	1    2550 5550
	0    -1   -1   0   
$EndComp
$Comp
L D D?
U 1 1 59641697
P 2550 6100
F 0 "D?" H 2550 6200 50  0000 C CNN
F 1 "D" H 2550 6000 50  0000 C CNN
F 2 "" H 2550 6100 50  0001 C CNN
F 3 "" H 2550 6100 50  0001 C CNN
	1    2550 6100
	0    -1   -1   0   
$EndComp
$Comp
L D D?
U 1 1 5964169D
P 2550 6650
F 0 "D?" H 2550 6750 50  0000 C CNN
F 1 "D" H 2550 6550 50  0000 C CNN
F 2 "" H 2550 6650 50  0001 C CNN
F 3 "" H 2550 6650 50  0001 C CNN
	1    2550 6650
	0    -1   -1   0   
$EndComp
$Comp
L D D?
U 1 1 596416A3
P 2550 7200
F 0 "D?" H 2550 7300 50  0000 C CNN
F 1 "D" H 2550 7100 50  0000 C CNN
F 2 "" H 2550 7200 50  0001 C CNN
F 3 "" H 2550 7200 50  0001 C CNN
	1    2550 7200
	0    -1   -1   0   
$EndComp
$Comp
L D D?
U 1 1 5964184D
P 3100 5000
F 0 "D?" H 3100 5100 50  0000 C CNN
F 1 "D" H 3100 4900 50  0000 C CNN
F 2 "" H 3100 5000 50  0001 C CNN
F 3 "" H 3100 5000 50  0001 C CNN
	1    3100 5000
	0    -1   -1   0   
$EndComp
$Comp
L D D?
U 1 1 59641AE1
P 3100 5550
F 0 "D?" H 3100 5650 50  0000 C CNN
F 1 "D" H 3100 5450 50  0000 C CNN
F 2 "" H 3100 5550 50  0001 C CNN
F 3 "" H 3100 5550 50  0001 C CNN
	1    3100 5550
	0    -1   -1   0   
$EndComp
$Comp
L D D?
U 1 1 59641D7C
P 3100 6650
F 0 "D?" H 3100 6750 50  0000 C CNN
F 1 "D" H 3100 6550 50  0000 C CNN
F 2 "" H 3100 6650 50  0001 C CNN
F 3 "" H 3100 6650 50  0001 C CNN
	1    3100 6650
	0    -1   -1   0   
$EndComp
Text Notes 1100 4700 0    60   ~ 0
NumLock
Text Notes 1100 5250 0    60   ~ 0
NumPad7
Text Notes 1100 5800 0    60   ~ 0
NumPad4
Text Notes 1100 6350 0    60   ~ 0
NumPad1
Text Notes 1100 6900 0    60   ~ 0
NumPad0
Text Notes 1700 5250 0    60   ~ 0
NumPad8
Text Notes 1700 5800 0    60   ~ 0
NumPad5
Text Notes 1700 6350 0    60   ~ 0
NumPad2
Text Notes 2300 6900 0    60   ~ 0
NumPadDel
Text Notes 2300 4700 0    60   ~ 0
NumPad*
Text Notes 2300 5250 0    60   ~ 0
NumPad9
Text Notes 2300 5800 0    60   ~ 0
NumPad6
Text Notes 2300 6350 0    60   ~ 0
NumPad3
Text Notes 2850 6350 0    60   ~ 0
NumPadEnter
Text Notes 2850 4700 0    60   ~ 0
NumPad-
Text Notes 2850 5250 0    60   ~ 0
NumPad+
Text Notes 1700 4700 0    60   ~ 0
NumPad/
Text Notes 1100 800  0    60   ~ 0
Esc
Text Notes 1100 1450 0    60   ~ 0
Tilde ~
Text Notes 1100 2000 0    60   ~ 0
Tab
Text Notes 1100 2550 0    60   ~ 0
CapsLock
Text Notes 1100 3100 0    60   ~ 0
LeftShift
Text Notes 1100 3650 0    60   ~ 0
LeftCtrl
Text Notes 1700 3650 0    60   ~ 0
LeftWinKey
Text Notes 1700 3100 0    60   ~ 0
Z
Text Notes 1700 2550 0    60   ~ 0
A
Text Notes 1700 2000 0    60   ~ 0
Q
Text Notes 1700 1450 0    60   ~ 0
1
Text Notes 2300 1450 0    60   ~ 0
2
Text Notes 2900 1450 0    60   ~ 0
3
Text Notes 3500 1450 0    60   ~ 0
4
Text Notes 4100 1450 0    60   ~ 0
5
Text Notes 4700 1450 0    60   ~ 0
6
Text Notes 5300 1450 0    60   ~ 0
7
Text Notes 5900 1450 0    60   ~ 0
8
Text Notes 6500 1450 0    60   ~ 0
9
Text Notes 7100 1450 0    60   ~ 0
0
Text Notes 7700 1450 0    60   ~ 0
_ -
Text Notes 8300 1450 0    60   ~ 0
+ =
Text Notes 8900 1450 0    60   ~ 0
Backspace
Text Notes 8900 2000 0    60   ~ 0
| \
Text Notes 8900 2550 0    60   ~ 0
Enter
Text Notes 8900 3100 0    60   ~ 0
RightEnter
Text Notes 8900 3650 0    60   ~ 0
RightCtrl
Text Notes 8300 3650 0    60   ~ 0
RightFN
Text Notes 7700 3650 0    60   ~ 0
MenuKey
Text Notes 7100 3650 0    60   ~ 0
RightAlt
Text Notes 4700 3650 0    60   ~ 0
SpaceBar
Text Notes 2300 3650 0    60   ~ 0
LeftAlt
Text Notes 2300 2000 0    60   ~ 0
W
Text Notes 2900 2000 0    60   ~ 0
E
Text Notes 3500 2000 0    60   ~ 0
R
Text Notes 4100 2000 0    60   ~ 0
T
Text Notes 4700 2000 0    60   ~ 0
Y
Text Notes 5300 2000 0    60   ~ 0
U
Text Notes 5900 2000 0    60   ~ 0
I
Text Notes 6500 2000 0    60   ~ 0
O
Text Notes 7100 2000 0    60   ~ 0
P
Text Notes 7700 2000 0    60   ~ 0
[ {
Text Notes 8300 2000 0    60   ~ 0
} ]
Text Notes 7700 2550 0    60   ~ 0
" '
Text Notes 7100 2550 0    60   ~ 0
: ;
Text Notes 2300 2550 0    60   ~ 0
S
Text Notes 2900 2550 0    60   ~ 0
D
Text Notes 3500 2550 0    60   ~ 0
F
Text Notes 4100 2550 0    60   ~ 0
G
Text Notes 4700 2550 0    60   ~ 0
H
Text Notes 5300 2550 0    60   ~ 0
J
Text Notes 5900 2550 0    60   ~ 0
K
Text Notes 6500 2550 0    60   ~ 0
L
Text Notes 7100 3100 0    60   ~ 0
? /
Text Notes 6500 3100 0    60   ~ 0
> .
Text Notes 5900 3100 0    60   ~ 0
< ,
Text Notes 5300 3100 0    60   ~ 0
M
Text Notes 4700 3100 0    60   ~ 0
N
Text Notes 4100 3100 0    60   ~ 0
B
Text Notes 3500 3100 0    60   ~ 0
V
Text Notes 2900 3100 0    60   ~ 0
C
Text Notes 2300 3100 0    60   ~ 0
X
Text Notes 9500 3650 0    60   ~ 0
LeftArrow
Text Notes 10100 3650 0    60   ~ 0
DownArrow
Text Notes 10700 3650 0    60   ~ 0
RightArrow
Text Notes 10100 3100 0    60   ~ 0
UpArrow
Text Notes 9500 1450 0    60   ~ 0
Ins
Text Notes 9500 2000 0    60   ~ 0
Del
Text Notes 10100 1450 0    60   ~ 0
Home
Text Notes 10100 2000 0    60   ~ 0
End
Text Notes 10700 2000 0    60   ~ 0
PgDown
Text Notes 10700 1450 0    60   ~ 0
PgUp
Text Notes 10700 800  0    60   ~ 0
PauseBrk
Text Notes 10100 800  0    60   ~ 0
ScrollLk
Text Notes 9500 800  0    60   ~ 0
PrintScr
Text Notes 8900 800  0    60   ~ 0
F12
Text Notes 8300 800  0    60   ~ 0
F11
Text Notes 7700 800  0    60   ~ 0
F10
Text Notes 7100 800  0    60   ~ 0
F9
Text Notes 6300 800  0    60   ~ 0
F8
Text Notes 5700 800  0    60   ~ 0
F7
Text Notes 5100 800  0    60   ~ 0
F6
Text Notes 4500 800  0    60   ~ 0
F5
Text Notes 3750 800  0    60   ~ 0
F4
Text Notes 3150 800  0    60   ~ 0
F3
Text Notes 2550 800  0    60   ~ 0
F2
Text Notes 1950 800  0    60   ~ 0
F1
Wire Wire Line
	800  4650 2800 4650
Connection ~ 1050 4650
Connection ~ 1650 4650
Connection ~ 2250 4650
Wire Wire Line
	800  5200 2800 5200
Connection ~ 1050 5200
Connection ~ 1650 5200
Connection ~ 2250 5200
Wire Wire Line
	800  5750 2250 5750
Connection ~ 1050 5750
Connection ~ 1650 5750
Wire Wire Line
	800  6300 2800 6300
Connection ~ 1050 6300
Connection ~ 1650 6300
Connection ~ 2250 6300
Wire Wire Line
	800  6850 2250 6850
Connection ~ 1050 6850
Wire Wire Line
	1350 5150 1350 5400
Wire Wire Line
	1350 5700 1350 5950
Wire Wire Line
	1350 6250 1350 6500
Wire Wire Line
	1350 6800 1350 7050
Wire Wire Line
	1350 7350 1350 7450
Wire Wire Line
	1950 6800 1950 7450
Wire Wire Line
	2550 7350 2550 7450
Wire Wire Line
	3100 6800 3100 7450
Wire Wire Line
	2550 6800 2550 7050
Wire Wire Line
	2550 6250 2550 6500
Wire Wire Line
	3100 5700 3100 6500
Wire Wire Line
	3100 5150 3100 5400
Wire Wire Line
	2550 5150 2550 5400
Wire Wire Line
	2550 5700 2550 5950
Wire Wire Line
	1950 6250 1950 6500
Wire Wire Line
	1950 5700 1950 5950
Wire Wire Line
	1950 5150 1950 5400
Wire Wire Line
	700  750  10650 750 
Connection ~ 1050 750 
Connection ~ 1900 750 
Connection ~ 2500 750 
Connection ~ 3100 750 
Connection ~ 3700 750 
Connection ~ 4450 750 
Connection ~ 5050 750 
Connection ~ 5650 750 
Connection ~ 6250 750 
Connection ~ 7050 750 
Connection ~ 7650 750 
Connection ~ 8250 750 
Connection ~ 8850 750 
Connection ~ 9450 750 
Connection ~ 10050 750 
Wire Wire Line
	700  1400 10650 1400
Wire Wire Line
	700  1950 10650 1950
Wire Wire Line
	700  2500 8850 2500
Wire Wire Line
	700  3050 10050 3050
Wire Wire Line
	700  3600 10650 3600
Connection ~ 1050 1400
Connection ~ 1650 1400
Connection ~ 2850 1400
Connection ~ 3450 1400
Connection ~ 4050 1400
Connection ~ 4650 1400
Connection ~ 5250 1400
Connection ~ 5850 1400
Connection ~ 6450 1400
Connection ~ 7050 1400
Connection ~ 7650 1400
Connection ~ 8250 1400
Connection ~ 8850 1400
Connection ~ 9450 1400
Connection ~ 10050 1400
Connection ~ 10050 1950
Connection ~ 9450 1950
Connection ~ 8850 1950
Connection ~ 8250 1950
Connection ~ 7650 1950
Connection ~ 7050 1950
Connection ~ 6450 1950
Connection ~ 5850 1950
Connection ~ 5250 1950
Connection ~ 4650 1950
Connection ~ 4050 1950
Connection ~ 3450 1950
Connection ~ 2850 1950
Connection ~ 2250 1950
Connection ~ 1050 1950
Connection ~ 1650 1950
Connection ~ 1050 2500
Connection ~ 1650 2500
Connection ~ 2250 2500
Connection ~ 2850 2500
Connection ~ 3450 2500
Connection ~ 4050 2500
Connection ~ 4650 2500
Connection ~ 5250 2500
Connection ~ 5850 2500
Connection ~ 6450 2500
Connection ~ 7050 2500
Connection ~ 7650 2500
Connection ~ 1050 3050
Connection ~ 1650 3050
Connection ~ 2250 3050
Connection ~ 2850 3050
Connection ~ 3450 3050
Connection ~ 4050 3050
Connection ~ 4650 3050
Connection ~ 5250 3050
Connection ~ 5850 3050
Connection ~ 6450 3050
Connection ~ 7050 3050
Connection ~ 8850 3050
Connection ~ 1050 3600
Connection ~ 1650 3600
Connection ~ 2250 3600
Connection ~ 4650 3600
Connection ~ 7050 3600
Connection ~ 7650 3600
Connection ~ 8250 3600
Connection ~ 8850 3600
Connection ~ 9450 3600
Connection ~ 10050 3600
Wire Wire Line
	10950 1250 10950 1600
Wire Wire Line
	10950 1900 10950 2150
Wire Wire Line
	10950 2450 10950 3800
Wire Wire Line
	10350 3800 10350 3550
Wire Wire Line
	10350 3250 10350 2450
Wire Wire Line
	10350 2150 10350 1900
Wire Wire Line
	10350 1600 10350 1250
Wire Wire Line
	9750 1250 9750 1600
Wire Wire Line
	9750 1900 9750 2150
Wire Wire Line
	9750 2450 9750 3800
Wire Wire Line
	9150 1250 9150 1600
Wire Wire Line
	8550 1250 8550 1600
Wire Wire Line
	7950 1250 7950 1600
Wire Wire Line
	7350 1250 7350 1600
Wire Wire Line
	9150 1900 9150 2150
Wire Wire Line
	9150 2450 9150 2700
Wire Wire Line
	9150 3000 9150 3250
Wire Wire Line
	9150 3550 9150 3800
Wire Wire Line
	8550 3800 8550 2450
Wire Wire Line
	8550 2150 8550 1900
Wire Wire Line
	7950 1900 7950 2150
Wire Wire Line
	7950 2450 7950 2700
Wire Wire Line
	7950 3000 7950 3800
Wire Wire Line
	7350 3800 7350 3550
Wire Wire Line
	7350 3000 7350 3250
Wire Wire Line
	7350 2450 7350 2700
Wire Wire Line
	7350 1900 7350 2150
Wire Wire Line
	6550 1250 6750 1250
Wire Wire Line
	6750 1250 6750 1600
Wire Wire Line
	5950 1250 6150 1250
Wire Wire Line
	6150 1250 6150 1600
Wire Wire Line
	5350 1250 5550 1250
Wire Wire Line
	5550 1250 5550 1600
Wire Wire Line
	4750 1250 4950 1250
Wire Wire Line
	4950 1250 4950 1600
Wire Wire Line
	4000 1250 4350 1250
Wire Wire Line
	4350 1250 4350 1600
Wire Wire Line
	3400 1250 3750 1250
Wire Wire Line
	3750 1250 3750 1600
Wire Wire Line
	2800 1250 3150 1250
Wire Wire Line
	3150 1250 3150 1600
Wire Wire Line
	2200 1250 2550 1250
Wire Wire Line
	2550 1250 2550 1600
Wire Wire Line
	6750 1900 6750 2150
Wire Wire Line
	6750 2450 6750 2700
Wire Wire Line
	6750 3000 6750 3250
Wire Wire Line
	6150 1900 6150 2150
Wire Wire Line
	6150 2450 6150 2700
Wire Wire Line
	6150 3000 6150 3250
Wire Wire Line
	5550 1900 5550 2150
Wire Wire Line
	5550 2450 5550 2700
Wire Wire Line
	5550 3000 5550 3250
Wire Wire Line
	4950 1900 4950 2150
Wire Wire Line
	4950 2450 4950 2700
Wire Wire Line
	4950 3000 4950 3250
Wire Wire Line
	4950 3550 4950 3800
Wire Wire Line
	4350 1900 4350 2150
Wire Wire Line
	4350 2450 4350 2700
Wire Wire Line
	4350 3000 4350 3250
Wire Wire Line
	3750 1900 3750 2150
Wire Wire Line
	3750 2450 3750 2700
Wire Wire Line
	3750 3000 3750 3250
Wire Wire Line
	3150 1900 3150 2150
Wire Wire Line
	3150 2450 3150 2700
Wire Wire Line
	3150 3000 3150 3250
Wire Wire Line
	2550 1900 2550 2150
Wire Wire Line
	2550 2450 2550 2700
Wire Wire Line
	2550 3000 2550 3250
Wire Wire Line
	2550 3550 2550 3800
Wire Wire Line
	1950 1900 1950 2150
Wire Wire Line
	1950 2450 1950 2700
Wire Wire Line
	1950 3000 1950 3250
Wire Wire Line
	1950 3550 1950 3800
Wire Wire Line
	1350 1250 1350 1600
Wire Wire Line
	1350 1900 1350 2150
Wire Wire Line
	1350 2450 1350 2700
Wire Wire Line
	1350 3000 1350 3250
Wire Wire Line
	1350 3550 1350 3800
Wire Wire Line
	1350 4100 1350 4250
Wire Wire Line
	1950 4100 1950 4250
Wire Wire Line
	2550 4100 2550 4250
Wire Wire Line
	3150 3550 3150 4250
Wire Wire Line
	3750 3550 3750 4250
Wire Wire Line
	4350 3550 4350 4250
Wire Wire Line
	4950 4100 4950 4250
Wire Wire Line
	5550 3550 5550 4250
Wire Wire Line
	6150 3550 6150 4250
Wire Wire Line
	6750 3550 6750 4250
Wire Wire Line
	7350 4100 7350 4250
Wire Wire Line
	7950 4100 7950 4250
Wire Wire Line
	8550 4100 8550 4250
Wire Wire Line
	9150 4100 9150 4250
Wire Wire Line
	9750 4100 9750 4250
Wire Wire Line
	10350 4100 10350 4250
Wire Wire Line
	10950 4100 10950 4250
Text GLabel 700  750  0    60   Input ~ 0
R1
Text GLabel 700  1400 0    60   Input ~ 0
R2
Text GLabel 700  1950 0    60   Input ~ 0
R3
Text GLabel 700  2500 0    60   Input ~ 0
R4
Text GLabel 700  3050 0    60   Input ~ 0
R6
Text GLabel 700  3600 0    60   Input ~ 0
R7
Text GLabel 800  4650 0    60   Input ~ 0
NPR1
Text GLabel 800  5200 0    60   Input ~ 0
NPR2
Text GLabel 800  5750 0    60   Input ~ 0
NPR3
Text GLabel 800  6300 0    60   Input ~ 0
NPR4
Text GLabel 800  6850 0    60   Input ~ 0
NPR5
Text GLabel 1350 7450 3    60   Input ~ 0
NPC1
Text GLabel 1950 7450 3    60   Input ~ 0
NPC2
Text GLabel 2550 7450 3    60   Input ~ 0
NPC3
Text GLabel 3100 7450 3    60   Input ~ 0
NPC4
Text GLabel 1350 4250 3    60   Input ~ 0
C1
Text GLabel 1950 4250 3    60   Input ~ 0
C2
Text GLabel 2550 4250 3    60   Input ~ 0
C3
Text GLabel 3150 4250 3    60   Input ~ 0
C4
Text GLabel 3750 4250 3    60   Input ~ 0
C5
Text GLabel 4350 4250 3    60   Input ~ 0
C6
Text GLabel 4950 4250 3    60   Input ~ 0
C7
Text GLabel 5550 4250 3    60   Input ~ 0
C8
Text GLabel 6150 4250 3    60   Input ~ 0
C9
Text GLabel 6750 4250 3    60   Input ~ 0
C10
Text GLabel 7350 4250 3    60   Input ~ 0
C11
Text GLabel 7950 4250 3    60   Input ~ 0
C12
Text GLabel 8550 4250 3    60   Input ~ 0
C13
Text GLabel 9150 4250 3    60   Input ~ 0
C14
Text GLabel 9750 4250 3    60   Input ~ 0
C15
Text GLabel 10350 4250 3    60   Input ~ 0
C16
Text GLabel 10950 4250 3    60   Input ~ 0
C17
Connection ~ 2250 1400
$EndSCHEMATC
