EESchema Schematic File Version 2
LIBS:power
LIBS:device
LIBS:switches
LIBS:relays
LIBS:motors
LIBS:transistors
LIBS:conn
LIBS:linear
LIBS:regul
LIBS:74xx
LIBS:cmos4000
LIBS:adc-dac
LIBS:memory
LIBS:xilinx
LIBS:microcontrollers
LIBS:dsp
LIBS:microchip
LIBS:analog_switches
LIBS:motorola
LIBS:texas
LIBS:intel
LIBS:audio
LIBS:interface
LIBS:digital-audio
LIBS:philips
LIBS:display
LIBS:cypress
LIBS:siliconi
LIBS:opto
LIBS:atmel
LIBS:contrib
LIBS:valves
LIBS:keyboard
LIBS:8Bit-MCU
LIBS:32Bit-MCU
LIBS:arduino
LIBS:arduino-pro-mini
LIBS:Arduino_shields
LIBS:asm
LIBS:CherryMX
LIBS:concept-explanation
LIBS:connector
LIBS:diodes
LIBS:electro-mechanical
LIBS:gatedrivers
LIBS:irons
LIBS:MEMS
LIBS:optical
LIBS:passives
LIBS:power-management
LIBS:RF-modules
LIBS:semiconductors
LIBS:sensors
LIBS:socket
LIBS:SSR
LIBS:stepstick-panuncat-vref
LIBS:trinamic
LIBS:USB
LIBS:10118192-0001LF
LIBS:numpad-cache
EELAYER 25 0
EELAYER END
$Descr A4 11693 8268
encoding utf-8
Sheet 1 1
Title ""
Date ""
Rev ""
Comp ""
Comment1 ""
Comment2 ""
Comment3 ""
Comment4 ""
$EndDescr
$Comp
L MX SW13
U 1 1 5AA1269F
P 3700 1750
F 0 "SW13" H 3700 1650 60  0000 C CNN
F 1 "MX" H 3700 1800 60  0000 C CNN
F 2 "keyboard:Kailh-socket-mirrorable" H 3450 1920 60  0001 C CNN
F 3 "" H 3450 1920 60  0001 C CNN
	1    3700 1750
	1    0    0    -1  
$EndComp
$Comp
L MX SW14
U 1 1 5AA12815
P 3700 2350
F 0 "SW14" H 3700 2250 60  0000 C CNN
F 1 "MX" H 3700 2400 60  0000 C CNN
F 2 "keyboard:Kailh-socket-mirrorable" H 3450 2520 60  0001 C CNN
F 3 "" H 3450 2520 60  0001 C CNN
	1    3700 2350
	1    0    0    -1  
$EndComp
$Comp
L MX SW15
U 1 1 5AA12855
P 3700 2950
F 0 "SW15" H 3700 2850 60  0000 C CNN
F 1 "MX" H 3700 3000 60  0000 C CNN
F 2 "keyboard:Kailh-socket-mirrorable" H 3450 3120 60  0001 C CNN
F 3 "" H 3450 3120 60  0001 C CNN
	1    3700 2950
	1    0    0    -1  
$EndComp
$Comp
L MX SW16
U 1 1 5AA1289E
P 3700 3550
F 0 "SW16" H 3700 3450 60  0000 C CNN
F 1 "MX" H 3700 3600 60  0000 C CNN
F 2 "keyboard:Kailh-socket-mirrorable" H 3450 3720 60  0001 C CNN
F 3 "" H 3450 3720 60  0001 C CNN
	1    3700 3550
	1    0    0    -1  
$EndComp
$Comp
L MX SW17
U 1 1 5AA128D4
P 3700 4150
F 0 "SW17" H 3700 4050 60  0000 C CNN
F 1 "MX" H 3700 4200 60  0000 C CNN
F 2 "keyboard:Kailh-socket-mirrorable" H 3450 4320 60  0001 C CNN
F 3 "" H 3450 4320 60  0001 C CNN
	1    3700 4150
	1    0    0    -1  
$EndComp
$Comp
L MX SW18
U 1 1 5AA1290D
P 3700 4750
F 0 "SW18" H 3700 4650 60  0000 C CNN
F 1 "MX" H 3700 4800 60  0000 C CNN
F 2 "keyboard:Kailh-socket-mirrorable" H 3450 4920 60  0001 C CNN
F 3 "" H 3450 4920 60  0001 C CNN
	1    3700 4750
	1    0    0    -1  
$EndComp
$Comp
L MX SW19
U 1 1 5AA132AE
P 4550 1750
F 0 "SW19" H 4550 1650 60  0000 C CNN
F 1 "MX" H 4550 1800 60  0000 C CNN
F 2 "keyboard:Kailh-socket-mirrorable" H 4300 1920 60  0001 C CNN
F 3 "" H 4300 1920 60  0001 C CNN
	1    4550 1750
	1    0    0    -1  
$EndComp
$Comp
L MX SW20
U 1 1 5AA132B4
P 4550 2350
F 0 "SW20" H 4550 2250 60  0000 C CNN
F 1 "MX" H 4550 2400 60  0000 C CNN
F 2 "keyboard:Kailh-socket-mirrorable" H 4300 2520 60  0001 C CNN
F 3 "" H 4300 2520 60  0001 C CNN
	1    4550 2350
	1    0    0    -1  
$EndComp
$Comp
L MX SW21
U 1 1 5AA132BA
P 4550 2950
F 0 "SW21" H 4550 2850 60  0000 C CNN
F 1 "MX" H 4550 3000 60  0000 C CNN
F 2 "keyboard:Kailh-socket-mirrorable" H 4300 3120 60  0001 C CNN
F 3 "" H 4300 3120 60  0001 C CNN
	1    4550 2950
	1    0    0    -1  
$EndComp
$Comp
L MX SW22
U 1 1 5AA132C0
P 4550 3550
F 0 "SW22" H 4550 3450 60  0000 C CNN
F 1 "MX" H 4550 3600 60  0000 C CNN
F 2 "keyboard:Kailh-socket-mirrorable-2u" H 4300 3720 60  0001 C CNN
F 3 "" H 4300 3720 60  0001 C CNN
	1    4550 3550
	1    0    0    -1  
$EndComp
$Comp
L MX SW23
U 1 1 5AA132C6
P 4550 4150
F 0 "SW23" H 4550 4050 60  0000 C CNN
F 1 "MX" H 4550 4200 60  0000 C CNN
F 2 "keyboard:Kailh-socket-mirrorable" H 4300 4320 60  0001 C CNN
F 3 "" H 4300 4320 60  0001 C CNN
	1    4550 4150
	1    0    0    -1  
$EndComp
$Comp
L MX SW24
U 1 1 5AA132CC
P 4550 4750
F 0 "SW24" H 4550 4650 60  0000 C CNN
F 1 "MX" H 4550 4800 60  0000 C CNN
F 2 "keyboard:Kailh-socket-mirrorable-2u" H 4300 4920 60  0001 C CNN
F 3 "" H 4300 4920 60  0001 C CNN
	1    4550 4750
	1    0    0    -1  
$EndComp
$Comp
L MX SW1
U 1 1 5AA138F6
P 2050 1750
F 0 "SW1" H 2050 1650 60  0000 C CNN
F 1 "MX" H 2050 1800 60  0000 C CNN
F 2 "keyboard:Kailh-socket-mirrorable" H 1800 1920 60  0001 C CNN
F 3 "" H 1800 1920 60  0001 C CNN
	1    2050 1750
	1    0    0    -1  
$EndComp
$Comp
L MX SW2
U 1 1 5AA138FC
P 2050 2350
F 0 "SW2" H 2050 2250 60  0000 C CNN
F 1 "MX" H 2050 2400 60  0000 C CNN
F 2 "keyboard:Kailh-socket-mirrorable" H 1800 2520 60  0001 C CNN
F 3 "" H 1800 2520 60  0001 C CNN
	1    2050 2350
	1    0    0    -1  
$EndComp
$Comp
L MX SW3
U 1 1 5AA13902
P 2050 2950
F 0 "SW3" H 2050 2850 60  0000 C CNN
F 1 "MX" H 2050 3000 60  0000 C CNN
F 2 "keyboard:Kailh-socket-mirrorable" H 1800 3120 60  0001 C CNN
F 3 "" H 1800 3120 60  0001 C CNN
	1    2050 2950
	1    0    0    -1  
$EndComp
$Comp
L MX SW4
U 1 1 5AA13908
P 2050 3550
F 0 "SW4" H 2050 3450 60  0000 C CNN
F 1 "MX" H 2050 3600 60  0000 C CNN
F 2 "keyboard:Kailh-socket-mirrorable" H 1800 3720 60  0001 C CNN
F 3 "" H 1800 3720 60  0001 C CNN
	1    2050 3550
	1    0    0    -1  
$EndComp
$Comp
L MX SW5
U 1 1 5AA1390E
P 2050 4150
F 0 "SW5" H 2050 4050 60  0000 C CNN
F 1 "MX" H 2050 4200 60  0000 C CNN
F 2 "keyboard:Kailh-socket-mirrorable" H 1800 4320 60  0001 C CNN
F 3 "" H 1800 4320 60  0001 C CNN
	1    2050 4150
	1    0    0    -1  
$EndComp
$Comp
L MX SW6
U 1 1 5AA13914
P 2050 4750
F 0 "SW6" H 2050 4650 60  0000 C CNN
F 1 "MX" H 2050 4800 60  0000 C CNN
F 2 "keyboard:Kailh-socket-mirrorable-2u" H 1800 4920 60  0001 C CNN
F 3 "" H 1800 4920 60  0001 C CNN
	1    2050 4750
	1    0    0    -1  
$EndComp
$Comp
L MX SW7
U 1 1 5AA1391A
P 2900 1750
F 0 "SW7" H 2900 1650 60  0000 C CNN
F 1 "MX" H 2900 1800 60  0000 C CNN
F 2 "keyboard:Kailh-socket-mirrorable" H 2650 1920 60  0001 C CNN
F 3 "" H 2650 1920 60  0001 C CNN
	1    2900 1750
	1    0    0    -1  
$EndComp
$Comp
L MX SW8
U 1 1 5AA13920
P 2900 2350
F 0 "SW8" H 2900 2250 60  0000 C CNN
F 1 "MX" H 2900 2400 60  0000 C CNN
F 2 "keyboard:Kailh-socket-mirrorable" H 2650 2520 60  0001 C CNN
F 3 "" H 2650 2520 60  0001 C CNN
	1    2900 2350
	1    0    0    -1  
$EndComp
$Comp
L MX SW9
U 1 1 5AA13926
P 2900 2950
F 0 "SW9" H 2900 2850 60  0000 C CNN
F 1 "MX" H 2900 3000 60  0000 C CNN
F 2 "keyboard:Kailh-socket-mirrorable" H 2650 3120 60  0001 C CNN
F 3 "" H 2650 3120 60  0001 C CNN
	1    2900 2950
	1    0    0    -1  
$EndComp
$Comp
L MX SW10
U 1 1 5AA1392C
P 2900 3550
F 0 "SW10" H 2900 3450 60  0000 C CNN
F 1 "MX" H 2900 3600 60  0000 C CNN
F 2 "keyboard:Kailh-socket-mirrorable" H 2650 3720 60  0001 C CNN
F 3 "" H 2650 3720 60  0001 C CNN
	1    2900 3550
	1    0    0    -1  
$EndComp
$Comp
L MX SW11
U 1 1 5AA13932
P 2900 4150
F 0 "SW11" H 2900 4050 60  0000 C CNN
F 1 "MX" H 2900 4200 60  0000 C CNN
F 2 "keyboard:Kailh-socket-mirrorable" H 2650 4320 60  0001 C CNN
F 3 "" H 2650 4320 60  0001 C CNN
	1    2900 4150
	1    0    0    -1  
$EndComp
$Comp
L MX SW12
U 1 1 5AA13938
P 2900 4750
F 0 "SW12" H 2900 4650 60  0000 C CNN
F 1 "MX" H 2900 4800 60  0000 C CNN
F 2 "keyboard:Kailh-socket-mirrorable" H 2650 4920 60  0001 C CNN
F 3 "" H 2650 4920 60  0001 C CNN
	1    2900 4750
	1    0    0    -1  
$EndComp
$Comp
L D D1
U 1 1 5AA139E8
P 2400 1800
F 0 "D1" H 2400 1900 50  0000 C CNN
F 1 "D" H 2400 1700 50  0000 C CNN
F 2 "Diodes_SMD:D_SOD-123" H 2400 1800 50  0001 C CNN
F 3 "" H 2400 1800 50  0001 C CNN
	1    2400 1800
	-1   0    0    1   
$EndComp
$Comp
L D D2
U 1 1 5AA13A62
P 2400 2400
F 0 "D2" H 2400 2500 50  0000 C CNN
F 1 "D" H 2400 2300 50  0000 C CNN
F 2 "Diodes_SMD:D_SOD-123" H 2400 2400 50  0001 C CNN
F 3 "" H 2400 2400 50  0001 C CNN
	1    2400 2400
	-1   0    0    1   
$EndComp
$Comp
L D D3
U 1 1 5AA13AE6
P 2400 3000
F 0 "D3" H 2400 3100 50  0000 C CNN
F 1 "D" H 2400 2900 50  0000 C CNN
F 2 "Diodes_SMD:D_SOD-123" H 2400 3000 50  0001 C CNN
F 3 "" H 2400 3000 50  0001 C CNN
	1    2400 3000
	-1   0    0    1   
$EndComp
$Comp
L D D4
U 1 1 5AA13B63
P 2400 3600
F 0 "D4" H 2400 3700 50  0000 C CNN
F 1 "D" H 2400 3500 50  0000 C CNN
F 2 "Diodes_SMD:D_SOD-123" H 2400 3600 50  0001 C CNN
F 3 "" H 2400 3600 50  0001 C CNN
	1    2400 3600
	-1   0    0    1   
$EndComp
$Comp
L D D5
U 1 1 5AA13BE1
P 2400 4200
F 0 "D5" H 2400 4300 50  0000 C CNN
F 1 "D" H 2400 4100 50  0000 C CNN
F 2 "Diodes_SMD:D_SOD-123" H 2400 4200 50  0001 C CNN
F 3 "" H 2400 4200 50  0001 C CNN
	1    2400 4200
	-1   0    0    1   
$EndComp
$Comp
L D D6
U 1 1 5AA13CA2
P 2400 4800
F 0 "D6" H 2400 4900 50  0000 C CNN
F 1 "D" H 2400 4700 50  0000 C CNN
F 2 "Diodes_SMD:D_SOD-123" H 2400 4800 50  0001 C CNN
F 3 "" H 2400 4800 50  0001 C CNN
	1    2400 4800
	-1   0    0    1   
$EndComp
$Comp
L D D7
U 1 1 5AA13F54
P 3250 1800
F 0 "D7" H 3250 1900 50  0000 C CNN
F 1 "D" H 3250 1700 50  0000 C CNN
F 2 "Diodes_SMD:D_SOD-123" H 3250 1800 50  0001 C CNN
F 3 "" H 3250 1800 50  0001 C CNN
	1    3250 1800
	-1   0    0    -1  
$EndComp
$Comp
L D D8
U 1 1 5AA13F5A
P 3250 2400
F 0 "D8" H 3250 2500 50  0000 C CNN
F 1 "D" H 3250 2300 50  0000 C CNN
F 2 "Diodes_SMD:D_SOD-123" H 3250 2400 50  0001 C CNN
F 3 "" H 3250 2400 50  0001 C CNN
	1    3250 2400
	-1   0    0    1   
$EndComp
$Comp
L D D9
U 1 1 5AA13F60
P 3250 3000
F 0 "D9" H 3250 3100 50  0000 C CNN
F 1 "D" H 3250 2900 50  0000 C CNN
F 2 "Diodes_SMD:D_SOD-123" H 3250 3000 50  0001 C CNN
F 3 "" H 3250 3000 50  0001 C CNN
	1    3250 3000
	-1   0    0    1   
$EndComp
$Comp
L D D10
U 1 1 5AA13F66
P 3250 3600
F 0 "D10" H 3250 3700 50  0000 C CNN
F 1 "D" H 3250 3500 50  0000 C CNN
F 2 "Diodes_SMD:D_SOD-123" H 3250 3600 50  0001 C CNN
F 3 "" H 3250 3600 50  0001 C CNN
	1    3250 3600
	-1   0    0    1   
$EndComp
$Comp
L D D11
U 1 1 5AA13F6C
P 3250 4200
F 0 "D11" H 3250 4300 50  0000 C CNN
F 1 "D" H 3250 4100 50  0000 C CNN
F 2 "Diodes_SMD:D_SOD-123" H 3250 4200 50  0001 C CNN
F 3 "" H 3250 4200 50  0001 C CNN
	1    3250 4200
	-1   0    0    1   
$EndComp
$Comp
L D D12
U 1 1 5AA13F72
P 3250 4800
F 0 "D12" H 3250 4900 50  0000 C CNN
F 1 "D" H 3250 4700 50  0000 C CNN
F 2 "Diodes_SMD:D_SOD-123" H 3250 4800 50  0001 C CNN
F 3 "" H 3250 4800 50  0001 C CNN
	1    3250 4800
	-1   0    0    1   
$EndComp
$Comp
L D D13
U 1 1 5AA14398
P 4050 1800
F 0 "D13" H 4050 1900 50  0000 C CNN
F 1 "D" H 4050 1700 50  0000 C CNN
F 2 "Diodes_SMD:D_SOD-123" H 4050 1800 50  0001 C CNN
F 3 "" H 4050 1800 50  0001 C CNN
	1    4050 1800
	-1   0    0    1   
$EndComp
$Comp
L D D14
U 1 1 5AA1439E
P 4050 2400
F 0 "D14" H 4050 2500 50  0000 C CNN
F 1 "D" H 4050 2300 50  0000 C CNN
F 2 "Diodes_SMD:D_SOD-123" H 4050 2400 50  0001 C CNN
F 3 "" H 4050 2400 50  0001 C CNN
	1    4050 2400
	-1   0    0    1   
$EndComp
$Comp
L D D15
U 1 1 5AA143A4
P 4050 3000
F 0 "D15" H 4050 3100 50  0000 C CNN
F 1 "D" H 4050 2900 50  0000 C CNN
F 2 "Diodes_SMD:D_SOD-123" H 4050 3000 50  0001 C CNN
F 3 "" H 4050 3000 50  0001 C CNN
	1    4050 3000
	-1   0    0    1   
$EndComp
$Comp
L D D16
U 1 1 5AA143AA
P 4050 3600
F 0 "D16" H 4050 3700 50  0000 C CNN
F 1 "D" H 4050 3500 50  0000 C CNN
F 2 "Diodes_SMD:D_SOD-123" H 4050 3600 50  0001 C CNN
F 3 "" H 4050 3600 50  0001 C CNN
	1    4050 3600
	-1   0    0    1   
$EndComp
$Comp
L D D17
U 1 1 5AA143B0
P 4050 4200
F 0 "D17" H 4050 4300 50  0000 C CNN
F 1 "D" H 4050 4100 50  0000 C CNN
F 2 "Diodes_SMD:D_SOD-123" H 4050 4200 50  0001 C CNN
F 3 "" H 4050 4200 50  0001 C CNN
	1    4050 4200
	-1   0    0    1   
$EndComp
$Comp
L D D18
U 1 1 5AA143B6
P 4050 4800
F 0 "D18" V 4050 4900 50  0000 C CNN
F 1 "D" H 4050 4700 50  0000 C CNN
F 2 "Diodes_SMD:D_SOD-123" H 4050 4800 50  0001 C CNN
F 3 "" H 4050 4800 50  0001 C CNN
	1    4050 4800
	-1   0    0    1   
$EndComp
$Comp
L D D19
U 1 1 5AA145BA
P 4900 1800
F 0 "D19" H 4900 1900 50  0000 C CNN
F 1 "D" H 4900 1700 50  0000 C CNN
F 2 "Diodes_SMD:D_SOD-123" H 4900 1800 50  0001 C CNN
F 3 "" H 4900 1800 50  0001 C CNN
	1    4900 1800
	-1   0    0    1   
$EndComp
$Comp
L D D20
U 1 1 5AA145C0
P 4900 2400
F 0 "D20" H 4900 2500 50  0000 C CNN
F 1 "D" H 4900 2300 50  0000 C CNN
F 2 "Diodes_SMD:D_SOD-123" H 4900 2400 50  0001 C CNN
F 3 "" H 4900 2400 50  0001 C CNN
	1    4900 2400
	-1   0    0    1   
$EndComp
$Comp
L D D21
U 1 1 5AA145C6
P 4900 3000
F 0 "D21" H 4900 3100 50  0000 C CNN
F 1 "D" H 4900 2900 50  0000 C CNN
F 2 "Diodes_SMD:D_SOD-123" H 4900 3000 50  0001 C CNN
F 3 "" H 4900 3000 50  0001 C CNN
	1    4900 3000
	-1   0    0    1   
$EndComp
$Comp
L D D22
U 1 1 5AA145CC
P 4900 3600
F 0 "D22" H 4900 3700 50  0000 C CNN
F 1 "D" H 4900 3500 50  0000 C CNN
F 2 "Diodes_SMD:D_SOD-123" H 4900 3600 50  0001 C CNN
F 3 "" H 4900 3600 50  0001 C CNN
	1    4900 3600
	-1   0    0    1   
$EndComp
$Comp
L D D23
U 1 1 5AA145D2
P 4900 4200
F 0 "D23" H 4900 4300 50  0000 C CNN
F 1 "D" H 4900 4100 50  0000 C CNN
F 2 "Diodes_SMD:D_SOD-123" H 4900 4200 50  0001 C CNN
F 3 "" H 4900 4200 50  0001 C CNN
	1    4900 4200
	-1   0    0    1   
$EndComp
$Comp
L GND #PWR4
U 1 1 5AA1DC30
P 6000 5550
F 0 "#PWR4" H 6000 5300 50  0001 C CNN
F 1 "GND" H 6000 5400 50  0000 C CNN
F 2 "" H 6000 5550 50  0001 C CNN
F 3 "" H 6000 5550 50  0001 C CNN
	1    6000 5550
	1    0    0    -1  
$EndComp
$Comp
L CP1_Small C2
U 1 1 5AA12FEF
P 5650 5350
F 0 "C2" H 5660 5420 50  0000 L CNN
F 1 "10pF" H 5660 5270 50  0000 L CNN
F 2 "Capacitors_Tantalum_SMD:CP_Tantalum_Case-R_EIA-2012-12_Reflow" H 5650 5350 50  0001 C CNN
F 3 "" H 5650 5350 50  0001 C CNN
	1    5650 5350
	1    0    0    -1  
$EndComp
$Comp
L CP1_Small C4
U 1 1 5AA130C0
P 6300 5350
F 0 "C4" H 6310 5420 50  0000 L CNN
F 1 "10pF" H 6310 5270 50  0000 L CNN
F 2 "Capacitors_Tantalum_SMD:CP_Tantalum_Case-R_EIA-2012-12_Reflow" H 6300 5350 50  0001 C CNN
F 3 "" H 6300 5350 50  0001 C CNN
	1    6300 5350
	1    0    0    -1  
$EndComp
$Comp
L SW_Push SW25
U 1 1 5AA14E04
P 5850 4700
F 0 "SW25" H 5900 4800 50  0000 L CNN
F 1 "Reset_SW_Push" H 5850 4640 50  0000 C CNN
F 2 "Buttons_Switches_SMD:SW_SPST_B3U-1000P" H 5850 4900 50  0001 C CNN
F 3 "" H 5850 4900 50  0001 C CNN
	1    5850 4700
	1    0    0    -1  
$EndComp
$Comp
L GND #PWR1
U 1 1 5AA15233
P 5450 4800
F 0 "#PWR1" H 5450 4550 50  0001 C CNN
F 1 "GND" H 5450 4650 50  0000 C CNN
F 2 "" H 5450 4800 50  0001 C CNN
F 3 "" H 5450 4800 50  0001 C CNN
	1    5450 4800
	1    0    0    -1  
$EndComp
$Comp
L USB_OTG J1
U 1 1 5AA161F8
P 6800 1800
F 0 "J1" H 6600 2250 50  0000 L CNN
F 1 "USB_OTG" H 6600 2150 50  0000 L CNN
F 2 "Connect:USB_Micro-B" H 6950 1750 50  0001 C CNN
F 3 "" H 6950 1750 50  0001 C CNN
	1    6800 1800
	1    0    0    -1  
$EndComp
Text GLabel 5750 3600 0    60   Input ~ 0
VBUS
Text GLabel 7450 1800 2    60   Input ~ 0
D+
Text GLabel 7450 1900 2    60   Input ~ 0
D-
Text GLabel 6450 3850 0    60   Input ~ 0
D+
Text GLabel 6450 3950 0    60   Input ~ 0
D-
$Comp
L R R3
U 1 1 5AA1B8B3
P 7300 1800
F 0 "R3" V 7380 1800 50  0000 C CNN
F 1 "22" V 7300 1800 50  0000 C CNN
F 2 "Resistors_SMD:R_0805" V 7230 1800 50  0001 C CNN
F 3 "" H 7300 1800 50  0001 C CNN
	1    7300 1800
	0    -1   -1   0   
$EndComp
$Comp
L R R4
U 1 1 5AA1B980
P 7300 1900
F 0 "R4" V 7380 1900 50  0000 C CNN
F 1 "22" V 7300 1900 50  0000 C CNN
F 2 "Resistors_SMD:R_0805" V 7230 1900 50  0001 C CNN
F 3 "" H 7300 1900 50  0001 C CNN
	1    7300 1900
	0    1    1    0   
$EndComp
$Comp
L CP1_Small C5
U 1 1 5AA1E0D1
P 8500 1750
F 0 "C5" H 8510 1820 50  0000 L CNN
F 1 "1uF" H 8510 1670 50  0000 L CNN
F 2 "Capacitors_Tantalum_SMD:CP_Tantalum_Case-R_EIA-2012-12_Reflow" H 8500 1750 50  0001 C CNN
F 3 "" H 8500 1750 50  0001 C CNN
	1    8500 1750
	1    0    0    -1  
$EndComp
$Comp
L GND #PWR9
U 1 1 5AA1EB02
P 8500 1950
F 0 "#PWR9" H 8500 1700 50  0001 C CNN
F 1 "GND" H 8500 1800 50  0000 C CNN
F 2 "" H 8500 1950 50  0001 C CNN
F 3 "" H 8500 1950 50  0001 C CNN
	1    8500 1950
	1    0    0    -1  
$EndComp
Text GLabel 9700 1550 2    60   Input ~ 0
VCC
Text GLabel 6650 3150 0    60   Input ~ 0
VCC
Text GLabel 6650 3250 0    60   Input ~ 0
VCC
Text GLabel 8200 1400 1    60   Input ~ 0
UVCC
Text GLabel 6650 3050 0    60   Input ~ 0
UVCC
Text GLabel 6650 3350 0    60   Input ~ 0
VCC
Text GLabel 6650 3550 0    60   Input ~ 0
VCC
$Comp
L CP1_Small C7
U 1 1 5AA24595
P 8950 1750
F 0 "C7" H 8960 1820 50  0000 L CNN
F 1 "1uF" H 8960 1670 50  0000 L CNN
F 2 "Capacitors_Tantalum_SMD:CP_Tantalum_Case-R_EIA-2012-12_Reflow" H 8950 1750 50  0001 C CNN
F 3 "" H 8950 1750 50  0001 C CNN
	1    8950 1750
	1    0    0    -1  
$EndComp
$Comp
L GND #PWR11
U 1 1 5AA24682
P 8950 1950
F 0 "#PWR11" H 8950 1700 50  0001 C CNN
F 1 "GND" H 8950 1800 50  0000 C CNN
F 2 "" H 8950 1950 50  0001 C CNN
F 3 "" H 8950 1950 50  0001 C CNN
	1    8950 1950
	1    0    0    -1  
$EndComp
$Comp
L R R5
U 1 1 5AA26B24
P 9400 5150
F 0 "R5" V 9480 5150 50  0000 C CNN
F 1 "10K" V 9400 5150 50  0000 C CNN
F 2 "Resistors_SMD:R_0805" V 9330 5150 50  0001 C CNN
F 3 "" H 9400 5150 50  0001 C CNN
	1    9400 5150
	0    1    1    0   
$EndComp
$Comp
L GND #PWR14
U 1 1 5AA26BBD
P 9700 5150
F 0 "#PWR14" H 9700 4900 50  0001 C CNN
F 1 "GND" H 9700 5000 50  0000 C CNN
F 2 "" H 9700 5150 50  0001 C CNN
F 3 "" H 9700 5150 50  0001 C CNN
	1    9700 5150
	0    -1   -1   0   
$EndComp
$Comp
L GND #PWR6
U 1 1 5AA28B12
P 6500 6050
F 0 "#PWR6" H 6500 5800 50  0001 C CNN
F 1 "GND" H 6500 5900 50  0000 C CNN
F 2 "" H 6500 6050 50  0001 C CNN
F 3 "" H 6500 6050 50  0001 C CNN
	1    6500 6050
	1    0    0    -1  
$EndComp
$Comp
L CP1_Small C8
U 1 1 5AA2B713
P 9200 1750
F 0 "C8" H 9210 1820 50  0000 L CNN
F 1 "1uF" H 9210 1670 50  0000 L CNN
F 2 "Capacitors_Tantalum_SMD:CP_Tantalum_Case-R_EIA-2012-12_Reflow" H 9200 1750 50  0001 C CNN
F 3 "" H 9200 1750 50  0001 C CNN
	1    9200 1750
	1    0    0    -1  
$EndComp
$Comp
L GND #PWR12
U 1 1 5AA2B719
P 9200 1950
F 0 "#PWR12" H 9200 1700 50  0001 C CNN
F 1 "GND" H 9200 1800 50  0000 C CNN
F 2 "" H 9200 1950 50  0001 C CNN
F 3 "" H 9200 1950 50  0001 C CNN
	1    9200 1950
	1    0    0    -1  
$EndComp
$Comp
L CP1_Small C9
U 1 1 5AA2B7E8
P 9450 1750
F 0 "C9" H 9460 1820 50  0000 L CNN
F 1 "1uF" H 9460 1670 50  0000 L CNN
F 2 "Capacitors_Tantalum_SMD:CP_Tantalum_Case-R_EIA-2012-12_Reflow" H 9450 1750 50  0001 C CNN
F 3 "" H 9450 1750 50  0001 C CNN
	1    9450 1750
	1    0    0    -1  
$EndComp
$Comp
L GND #PWR13
U 1 1 5AA2B7EE
P 9450 1950
F 0 "#PWR13" H 9450 1700 50  0001 C CNN
F 1 "GND" H 9450 1800 50  0000 C CNN
F 2 "" H 9450 1950 50  0001 C CNN
F 3 "" H 9450 1950 50  0001 C CNN
	1    9450 1950
	1    0    0    -1  
$EndComp
Text GLabel 6200 4400 1    60   Input ~ 0
RST
$Comp
L CP1_Small C1
U 1 1 5AA32C45
P 5550 4200
F 0 "C1" H 5560 4270 50  0000 L CNN
F 1 "1uF" H 5560 4120 50  0000 L CNN
F 2 "Capacitors_Tantalum_SMD:CP_Tantalum_Case-R_EIA-2012-12_Reflow" H 5550 4200 50  0001 C CNN
F 3 "" H 5550 4200 50  0001 C CNN
	1    5550 4200
	1    0    0    -1  
$EndComp
$Comp
L GND #PWR2
U 1 1 5AA32C4B
P 5550 4350
F 0 "#PWR2" H 5550 4100 50  0001 C CNN
F 1 "GND" H 5550 4200 50  0000 C CNN
F 2 "" H 5550 4350 50  0001 C CNN
F 3 "" H 5550 4350 50  0001 C CNN
	1    5550 4350
	1    0    0    -1  
$EndComp
Text GLabel 9100 3050 2    60   Input ~ 0
B0
Text GLabel 9100 3150 2    60   Input ~ 0
SCK
Text GLabel 9100 3250 2    60   Input ~ 0
MOSI
Text GLabel 9100 3350 2    60   Input ~ 0
MISO
Text GLabel 9100 3450 2    60   Input ~ 0
B4_ROW1
Text GLabel 9100 3550 2    60   Input ~ 0
B5
Text GLabel 9100 3650 2    60   Input ~ 0
B6
Text GLabel 9100 3750 2    60   Input ~ 0
B7
Text GLabel 9100 3950 2    60   Input ~ 0
C6_TRRS+
Text GLabel 9100 4050 2    60   Input ~ 0
C7_TRRS-
Text GLabel 9100 4250 2    60   Input ~ 0
D0
Text GLabel 9100 4350 2    60   Input ~ 0
D1
Text GLabel 9100 4450 2    60   Input ~ 0
D2
Text GLabel 9100 4550 2    60   Input ~ 0
D3
Text GLabel 9100 4650 2    60   Input ~ 0
D4_ROW0
Text GLabel 9100 4750 2    60   Input ~ 0
D5
Text GLabel 9100 4850 2    60   Input ~ 0
D6_ROW2
Text GLabel 9100 4950 2    60   Input ~ 0
D7_ROW3
Text GLabel 9100 5250 2    60   Input ~ 0
E6
Text GLabel 9100 5450 2    60   Input ~ 0
F0_COL0
Text GLabel 9100 5550 2    60   Input ~ 0
F1_COL1
Text GLabel 9100 5650 2    60   Input ~ 0
F4_COL2
Text GLabel 9100 5750 2    60   Input ~ 0
F5_COL3
Text GLabel 9100 5850 2    60   Input ~ 0
F6_COL4
Text GLabel 9100 5950 2    60   Input ~ 0
F7_COL5
$Comp
L GND #PWR10
U 1 1 5AA49136
P 8700 1950
F 0 "#PWR10" H 8700 1700 50  0001 C CNN
F 1 "GND" H 8700 1800 50  0000 C CNN
F 2 "" H 8700 1950 50  0001 C CNN
F 3 "" H 8700 1950 50  0001 C CNN
	1    8700 1950
	1    0    0    -1  
$EndComp
$Comp
L CP1_Small C6
U 1 1 5AA491CA
P 8700 1750
F 0 "C6" H 8710 1820 50  0000 L CNN
F 1 "4.7uF" H 8710 1670 50  0000 L CNN
F 2 "Capacitors_Tantalum_SMD:CP_Tantalum_Case-R_EIA-2012-12_Reflow" H 8700 1750 50  0001 C CNN
F 3 "" H 8700 1750 50  0001 C CNN
	1    8700 1750
	1    0    0    -1  
$EndComp
$Comp
L R R2
U 1 1 5AA4D409
P 6450 4450
F 0 "R2" V 6530 4450 50  0000 C CNN
F 1 "10K" V 6450 4450 50  0000 C CNN
F 2 "Resistors_SMD:R_0805" V 6380 4450 50  0001 C CNN
F 3 "" H 6450 4450 50  0001 C CNN
	1    6450 4450
	0    -1   -1   0   
$EndComp
Text GLabel 6350 4700 2    60   Input ~ 0
VCC
$Comp
L GND #PWR8
U 1 1 5AA53D87
P 6800 2300
F 0 "#PWR8" H 6800 2050 50  0001 C CNN
F 1 "GND" H 6800 2150 50  0000 C CNN
F 2 "" H 6800 2300 50  0001 C CNN
F 3 "" H 6800 2300 50  0001 C CNN
	1    6800 2300
	1    0    0    -1  
$EndComp
NoConn ~ 7100 2000
Text GLabel 1500 4600 0    60   Input ~ 0
F0_COL0
Text GLabel 1500 4000 0    60   Input ~ 0
F1_COL1
Text GLabel 1500 3400 0    60   Input ~ 0
F4_COL2
Text GLabel 1500 2800 0    60   Input ~ 0
F5_COL3
Text GLabel 1500 2200 0    60   Input ~ 0
F6_COL4
Text GLabel 1500 1600 0    60   Input ~ 0
F7_COL5
Text GLabel 2550 5300 3    60   Input ~ 0
D4_ROW0
Text GLabel 3400 5300 3    60   Input ~ 0
B4_ROW1
Text GLabel 4200 5300 3    60   Input ~ 0
D6_ROW2
Text GLabel 5050 5300 3    60   Input ~ 0
D7_ROW3
$Comp
L Audio-Jack-4 J2
U 1 1 5AA6FB68
P 10950 4050
F 0 "J2" H 10900 4130 50  0000 C CNN
F 1 "Audio-Jack-4" H 11070 3680 50  0000 C CNN
F 2 "Connectors:4ucon-20153" H 11200 4150 50  0001 C CNN
F 3 "" H 11200 4150 50  0001 C CNN
	1    10950 4050
	0    1    1    0   
$EndComp
$Comp
L GND #PWR15
U 1 1 5AA722F3
P 10300 3850
F 0 "#PWR15" H 10300 3600 50  0001 C CNN
F 1 "GND" H 10300 3700 50  0000 C CNN
F 2 "" H 10300 3850 50  0001 C CNN
F 3 "" H 10300 3850 50  0001 C CNN
	1    10300 3850
	0    1    1    0   
$EndComp
Text GLabel 10850 4450 3    60   Input ~ 0
C6_TRRS+
Text GLabel 10750 4450 3    60   Input ~ 0
C7_TRRS-
Text GLabel 10950 4450 3    60   Input ~ 0
VCC
Text GLabel 5150 6450 0    60   Input ~ 0
D5
$Comp
L LED D25
U 1 1 5ACF565D
P 5450 6450
F 0 "D25" H 5450 6550 50  0000 C CNN
F 1 "LED" H 5450 6350 50  0000 C CNN
F 2 "LEDs:LED_D1.8mm_W3.3mm_H2.4mm" H 5450 6450 50  0001 C CNN
F 3 "" H 5450 6450 50  0001 C CNN
	1    5450 6450
	-1   0    0    1   
$EndComp
$Comp
L R R1
U 1 1 5ACF5744
P 5900 6450
F 0 "R1" V 5980 6450 50  0000 C CNN
F 1 "1K" V 5900 6450 50  0000 C CNN
F 2 "Resistors_SMD:R_0805" V 5830 6450 50  0001 C CNN
F 3 "" H 5900 6450 50  0001 C CNN
	1    5900 6450
	0    1    1    0   
$EndComp
$Comp
L GND #PWR5
U 1 1 5ACF57E5
P 6300 6600
F 0 "#PWR5" H 6300 6350 50  0001 C CNN
F 1 "GND" H 6300 6450 50  0000 C CNN
F 2 "" H 6300 6600 50  0001 C CNN
F 3 "" H 6300 6600 50  0001 C CNN
	1    6300 6600
	1    0    0    -1  
$EndComp
$Comp
L AVR-ISP-6 CON1
U 1 1 5B017BCA
P 3550 6750
F 0 "CON1" H 3445 6990 50  0000 C CNN
F 1 "AVR-ISP-6" H 3285 6520 50  0000 L BNN
F 2 "Socket_Strips:Socket_Strip_Straight_2x03_Pitch2.54mm" V 3030 6790 50  0001 C CNN
F 3 "" H 3525 6750 50  0001 C CNN
	1    3550 6750
	1    0    0    -1  
$EndComp
Text GLabel 4000 6650 2    60   Input ~ 0
VCC
Text GLabel 4000 6750 2    60   Input ~ 0
MOSI
Text GLabel 4000 6850 2    60   Input ~ 0
GND
Text GLabel 3050 6650 0    60   Input ~ 0
MISO
Text GLabel 3050 6750 0    60   Input ~ 0
SCK
Text GLabel 3050 6850 0    60   Input ~ 0
RST
$Comp
L Crystal Y1
U 1 1 5B05716C
P 6000 5250
F 0 "Y1" H 6000 5400 50  0000 C CNN
F 1 "Crystal" H 6000 5100 50  0000 C CNN
F 2 "keyboard:Crystal_SMD_SeikoEpson_FA238-4pin_3.2x2.5mm_HandSoldering" H 6000 5250 50  0001 C CNN
F 3 "" H 6000 5250 50  0001 C CNN
	1    6000 5250
	1    0    0    -1  
$EndComp
$Comp
L D D24
U 1 1 5AA145D8
P 4900 4800
F 0 "D24" H 4900 4900 50  0000 C CNN
F 1 "D" H 4900 4700 50  0000 C CNN
F 2 "Diodes_SMD:D_SOD-123" H 4900 4800 50  0001 C CNN
F 3 "" H 4900 4800 50  0001 C CNN
	1    4900 4800
	-1   0    0    1   
$EndComp
$Comp
L ATmega32U4-AU U1
U 1 1 5B25E829
P 7900 4600
F 0 "U1" H 7000 6300 50  0000 C CNN
F 1 "ATmega32U4-AU" H 7250 3050 50  0000 C CNN
F 2 "" H 9100 5700 50  0001 C CNN
F 3 "" H 9100 5700 50  0001 C CNN
	1    7900 4600
	1    0    0    -1  
$EndComp
$Comp
L GND #PWR7
U 1 1 5B29B38B
P 6600 4200
F 0 "#PWR7" H 6600 3950 50  0001 C CNN
F 1 "GND" H 6600 4050 50  0000 C CNN
F 2 "" H 6600 4200 50  0001 C CNN
F 3 "" H 6600 4200 50  0001 C CNN
	1    6600 4200
	1    0    0    -1  
$EndComp
$Comp
L CP1_Small C3
U 1 1 5B2C73B0
P 5900 3700
F 0 "C3" H 5910 3770 50  0000 L CNN
F 1 "10uF" H 5910 3620 50  0000 L CNN
F 2 "" H 5900 3700 50  0001 C CNN
F 3 "" H 5900 3700 50  0001 C CNN
	1    5900 3700
	1    0    0    -1  
$EndComp
$Comp
L GND #PWR3
U 1 1 5B2CA677
P 5900 3850
F 0 "#PWR3" H 5900 3600 50  0001 C CNN
F 1 "GND" H 5900 3700 50  0000 C CNN
F 2 "" H 5900 3850 50  0001 C CNN
F 3 "" H 5900 3850 50  0001 C CNN
	1    5900 3850
	1    0    0    -1  
$EndComp
Text GLabel 8000 1400 1    60   Input ~ 0
VBUS
Text GLabel 6650 3450 0    60   Input ~ 0
AREF
Connection ~ 6800 2250
Wire Wire Line
	6700 2250 6800 2250
Wire Wire Line
	6700 2200 6700 2250
Wire Wire Line
	6800 2200 6800 2300
Wire Wire Line
	7700 1550 9700 1550
Wire Wire Line
	7700 1600 7700 1550
Wire Wire Line
	7100 1600 7700 1600
Connection ~ 6200 4450
Wire Wire Line
	6200 4450 6300 4450
Wire Wire Line
	5450 4700 5450 4800
Wire Wire Line
	5650 4700 5450 4700
Connection ~ 6200 4700
Wire Wire Line
	6200 4400 6200 4700
Connection ~ 9450 1550
Connection ~ 9200 1550
Wire Wire Line
	9450 1850 9450 1950
Wire Wire Line
	9450 1550 9450 1650
Wire Wire Line
	9200 1850 9200 1950
Wire Wire Line
	9200 1550 9200 1650
Wire Wire Line
	9100 5150 9250 5150
Wire Wire Line
	8950 1850 8950 1950
Connection ~ 8950 1550
Wire Wire Line
	8950 1550 8950 1650
Wire Wire Line
	7100 1900 7150 1900
Wire Wire Line
	7100 1800 7150 1800
Connection ~ 6000 5550
Wire Wire Line
	6300 5550 6300 5450
Wire Wire Line
	5650 5550 6300 5550
Wire Wire Line
	5650 5450 5650 5550
Wire Wire Line
	5650 5250 5850 5250
Connection ~ 6300 5250
Wire Wire Line
	6150 5250 6450 5250
Wire Wire Line
	5650 5050 5650 5250
Wire Wire Line
	6050 4700 6350 4700
Connection ~ 3600 4600
Connection ~ 2800 4600
Connection ~ 1950 4600
Connection ~ 3600 4000
Connection ~ 2800 4000
Connection ~ 1950 4000
Connection ~ 3600 3400
Connection ~ 2800 3400
Connection ~ 1950 3400
Connection ~ 3600 2800
Connection ~ 2800 2800
Connection ~ 1950 2800
Connection ~ 3600 2200
Connection ~ 2800 2200
Connection ~ 1950 2200
Wire Wire Line
	1500 4600 4450 4600
Wire Wire Line
	1500 4000 4450 4000
Wire Wire Line
	1500 3400 4450 3400
Wire Wire Line
	1500 2800 4450 2800
Wire Wire Line
	1500 2200 4450 2200
Connection ~ 3600 1600
Connection ~ 2800 1600
Connection ~ 1950 1600
Wire Wire Line
	1500 1600 4450 1600
Connection ~ 4450 1600
Wire Wire Line
	10550 3850 10300 3850
Wire Wire Line
	10750 4250 10750 4450
Wire Wire Line
	10850 4250 10850 4450
Wire Wire Line
	10950 4450 10950 4250
Wire Wire Line
	9700 5150 9550 5150
Wire Wire Line
	5150 6450 5300 6450
Wire Wire Line
	5600 6450 5750 6450
Wire Wire Line
	6050 6450 6300 6450
Wire Wire Line
	6300 6450 6300 6600
Wire Wire Line
	3050 6650 3400 6650
Wire Wire Line
	3050 6750 3400 6750
Wire Wire Line
	3050 6850 3400 6850
Wire Wire Line
	3650 6850 4000 6850
Wire Wire Line
	4000 6750 3650 6750
Wire Wire Line
	3650 6650 4000 6650
Wire Wire Line
	8200 1400 8200 1550
Connection ~ 8200 1550
Wire Wire Line
	8500 1650 8500 1550
Connection ~ 8500 1550
Wire Wire Line
	8700 1650 8700 1550
Connection ~ 8700 1550
Wire Wire Line
	8500 1950 8500 1850
Wire Wire Line
	8700 1850 8700 1950
Wire Wire Line
	2550 1800 2550 5300
Connection ~ 2550 2400
Connection ~ 2550 3000
Connection ~ 2550 3600
Connection ~ 2550 4200
Wire Wire Line
	3400 1800 3400 5300
Connection ~ 3400 2400
Connection ~ 3400 3000
Connection ~ 3400 3600
Connection ~ 3400 4200
Wire Wire Line
	4200 1800 4200 5300
Connection ~ 4200 2400
Connection ~ 4200 3000
Connection ~ 4200 4200
Connection ~ 4200 3600
Wire Wire Line
	5050 1800 5050 5300
Connection ~ 5050 2400
Connection ~ 5050 3600
Connection ~ 5050 4200
Connection ~ 5050 3000
Connection ~ 2550 4800
Connection ~ 3400 4800
Connection ~ 4200 4800
Connection ~ 5050 4800
Wire Wire Line
	5650 5050 6650 5050
Wire Wire Line
	6650 5150 6450 5150
Wire Wire Line
	6450 5150 6450 5250
Wire Wire Line
	6450 3850 6650 3850
Wire Wire Line
	6450 3950 6650 3950
Wire Wire Line
	6300 3750 6650 3750
Wire Wire Line
	6600 4450 6650 4450
Wire Wire Line
	6650 5650 6500 5650
Wire Wire Line
	6500 5650 6500 6050
Wire Wire Line
	6650 5750 6500 5750
Connection ~ 6500 5750
Wire Wire Line
	6650 5850 6500 5850
Connection ~ 6500 5850
Wire Wire Line
	6650 5950 6500 5950
Connection ~ 6500 5950
Wire Wire Line
	6600 4200 6600 4150
Wire Wire Line
	6600 4150 6650 4150
Wire Wire Line
	6650 4050 5550 4050
Wire Wire Line
	5550 4050 5550 4100
Wire Wire Line
	5550 4350 5550 4300
Wire Wire Line
	5750 3600 6300 3600
Wire Wire Line
	6300 3600 6300 3750
Connection ~ 5900 3600
Wire Wire Line
	5900 3850 5900 3800
Wire Wire Line
	8000 1400 8000 1550
Connection ~ 8000 1550
$EndSCHEMATC
